week3/data/diff2_data/good/freq_response_1_0.5/6/tek0003ALL.csv

Model,DPO3012
Firmware Version,2.16

Point Format,Y,,,Point Format,Y
Horizontal Units,S,,,Horizontal Units,S
Horizontal Scale,0.0001,,,Horizontal Scale,0.01
Sample Interval,1e-07,,,Sample Interval,1e-05
Record Length,10000,,,Record Length,10000
Gating,0.0% to 100.0%,0.0% to 100.0%,,Gating,0.0% to 100.0%
Probe Attenuation,1,1,,Probe Attenuation,1
Vertical Units,V,V,,Vertical Units,V
Vertical Offset,0,0,,Vertical Offset,0
Vertical Scale,1,1,,Vertical Scale,0.5
Label,,,,Label,
TIME,CH1,CH2,,TIME,REF1
-5.0000e-04,1.4,1.16,,-5.0000e-02,0.66
-4.9990e-04,1.36,1.12,,-4.9990e-02,0.7
-4.9980e-04,1.4,1.12,,-4.9980e-02,0.68
-4.9970e-04,1.44,1.12,,-4.9970e-02,0.66
-4.9960e-04,1.4,1.16,,-4.9960e-02,0.64
-4.9950e-04,1.44,1.12,,-4.9950e-02,0.7
-4.9940e-04,1.44,1.16,,-4.9940e-02,0.66
-4.9930e-04,1.4,1.2,,-4.9930e-02,0.66
-4.9920e-04,1.44,1.2,,-4.9920e-02,0.66
-4.9910e-04,1.36,1.16,,-4.9910e-02,0.68
-4.9900e-04,1.48,1.16,,-4.9900e-02,0.68
-4.9890e-04,1.48,1.24,,-4.9890e-02,0.68
-4.9880e-04,1.44,1.16,,-4.9880e-02,0.68
-4.9870e-04,1.4,1.16,,-4.9870e-02,0.64
-4.9860e-04,1.44,1.16,,-4.9860e-02,0.66
-4.9850e-04,1.44,1.2,,-4.9850e-02,0.68
-4.9840e-04,1.4,1.2,,-4.9840e-02,0.68
-4.9830e-04,1.44,1.16,,-4.9830e-02,0.68
-4.9820e-04,1.48,1.16,,-4.9820e-02,0.68
-4.9810e-04,1.36,1.24,,-4.9810e-02,0.66
-4.9800e-04,1.44,1.16,,-4.9800e-02,0.66
-4.9790e-04,1.36,1.2,,-4.9790e-02,0.68
-4.9780e-04,1.4,1.24,,-4.9780e-02,0.64
-4.9770e-04,1.4,1.2,,-4.9770e-02,0.64
-4.9760e-04,1.48,1.2,,-4.9760e-02,0.7
-4.9750e-04,1.4,1.16,,-4.9750e-02,0.68
-4.9740e-04,1.44,1.2,,-4.9740e-02,0.72
-4.9730e-04,1.36,1.2,,-4.9730e-02,0.66
-4.9720e-04,1.36,1.24,,-4.9720e-02,0.66
-4.9710e-04,1.44,1.24,,-4.9710e-02,0.7
-4.9700e-04,1.36,1.16,,-4.9700e-02,0.68
-4.9690e-04,1.36,1.24,,-4.9690e-02,0.68
-4.9680e-04,1.44,1.16,,-4.9680e-02,0.7
-4.9670e-04,1.44,1.2,,-4.9670e-02,0.7
-4.9660e-04,1.4,1.24,,-4.9660e-02,0.68
-4.9650e-04,1.36,1.2,,-4.9650e-02,0.7
-4.9640e-04,1.44,1.16,,-4.9640e-02,0.68
-4.9630e-04,1.4,1.24,,-4.9630e-02,0.7
-4.9620e-04,1.4,1.2,,-4.9620e-02,0.68
-4.9610e-04,1.44,1.24,,-4.9610e-02,0.66
-4.9600e-04,1.36,1.24,,-4.9600e-02,0.7
-4.9590e-04,1.4,1.28,,-4.9590e-02,0.68
-4.9580e-04,1.4,1.36,,-4.9580e-02,0.66
-4.9570e-04,1.4,1.32,,-4.9570e-02,0.68
-4.9560e-04,1.44,1.36,,-4.9560e-02,0.68
-4.9550e-04,1.4,1.32,,-4.9550e-02,0.68
-4.9540e-04,1.44,1.28,,-4.9540e-02,0.68
-4.9530e-04,1.44,1.24,,-4.9530e-02,0.68
-4.9520e-04,1.4,1.24,,-4.9520e-02,0.7
-4.9510e-04,1.44,1.36,,-4.9510e-02,0.66
-4.9500e-04,1.44,1.32,,-4.9500e-02,0.66
-4.9490e-04,1.4,1.28,,-4.9490e-02,0.7
-4.9480e-04,1.44,1.28,,-4.9480e-02,0.68
-4.9470e-04,1.44,1.32,,-4.9470e-02,0.66
-4.9460e-04,1.36,1.28,,-4.9460e-02,0.66
-4.9450e-04,1.4,1.28,,-4.9450e-02,0.7
-4.9440e-04,1.36,1.36,,-4.9440e-02,0.68
-4.9430e-04,1.4,1.32,,-4.9430e-02,0.68
-4.9420e-04,1.36,1.4,,-4.9420e-02,0.68
-4.9410e-04,1.44,1.36,,-4.9410e-02,0.68
-4.9400e-04,1.32,1.36,,-4.9400e-02,0.68
-4.9390e-04,1.4,1.4,,-4.9390e-02,0.66
-4.9380e-04,1.44,1.36,,-4.9380e-02,0.68
-4.9370e-04,1.36,1.36,,-4.9370e-02,0.66
-4.9360e-04,1.48,1.44,,-4.9360e-02,0.66
-4.9350e-04,1.44,1.36,,-4.9350e-02,0.64
-4.9340e-04,1.44,1.36,,-4.9340e-02,0.66
-4.9330e-04,1.44,1.36,,-4.9330e-02,0.68
-4.9320e-04,1.48,1.36,,-4.9320e-02,0.7
-4.9310e-04,1.52,1.4,,-4.9310e-02,0.68
-4.9300e-04,1.44,1.4,,-4.9300e-02,0.68
-4.9290e-04,1.4,1.32,,-4.9290e-02,0.7
-4.9280e-04,1.4,1.32,,-4.9280e-02,0.7
-4.9270e-04,1.36,1.36,,-4.9270e-02,0.7
-4.9260e-04,1.4,1.36,,-4.9260e-02,0.72
-4.9250e-04,1.44,1.36,,-4.9250e-02,0.7
-4.9240e-04,1.4,1.32,,-4.9240e-02,0.68
-4.9230e-04,1.4,1.36,,-4.9230e-02,0.7
-4.9220e-04,1.4,1.36,,-4.9220e-02,0.7
-4.9210e-04,1.36,1.36,,-4.9210e-02,0.68
-4.9200e-04,1.4,1.28,,-4.9200e-02,0.68
-4.9190e-04,1.36,1.36,,-4.9190e-02,0.66
-4.9180e-04,1.4,1.36,,-4.9180e-02,0.66
-4.9170e-04,1.4,1.36,,-4.9170e-02,0.66
-4.9160e-04,1.36,1.44,,-4.9160e-02,0.7
-4.9150e-04,1.44,1.4,,-4.9150e-02,0.68
-4.9140e-04,1.48,1.4,,-4.9140e-02,0.68
-4.9130e-04,1.44,1.36,,-4.9130e-02,0.7
-4.9120e-04,1.4,1.4,,-4.9120e-02,0.66
-4.9110e-04,1.4,1.44,,-4.9110e-02,0.66
-4.9100e-04,1.48,1.36,,-4.9100e-02,0.68
-4.9090e-04,1.4,1.4,,-4.9090e-02,0.68
-4.9080e-04,1.4,1.36,,-4.9080e-02,0.68
-4.9070e-04,1.4,1.44,,-4.9070e-02,0.66
-4.9060e-04,1.36,1.44,,-4.9060e-02,0.7
-4.9050e-04,1.48,1.4,,-4.9050e-02,0.68
-4.9040e-04,1.4,1.4,,-4.9040e-02,0.68
-4.9030e-04,1.4,1.4,,-4.9030e-02,0.66
-4.9020e-04,1.44,1.4,,-4.9020e-02,0.66
-4.9010e-04,1.4,1.48,,-4.9010e-02,0.68
-4.9000e-04,1.36,1.48,,-4.9000e-02,0.66
-4.8990e-04,1.44,1.56,,-4.8990e-02,0.68
-4.8980e-04,1.36,1.4,,-4.8980e-02,0.7
-4.8970e-04,1.48,1.36,,-4.8970e-02,0.68
-4.8960e-04,1.4,1.52,,-4.8960e-02,0.66
-4.8950e-04,1.4,1.48,,-4.8950e-02,0.68
-4.8940e-04,1.44,1.36,,-4.8940e-02,0.68
-4.8930e-04,1.4,1.4,,-4.8930e-02,0.68
-4.8920e-04,1.48,1.44,,-4.8920e-02,0.7
-4.8910e-04,1.44,1.4,,-4.8910e-02,0.64
-4.8900e-04,1.4,1.4,,-4.8900e-02,0.7
-4.8890e-04,1.4,1.44,,-4.8890e-02,0.66
-4.8880e-04,1.44,1.44,,-4.8880e-02,0.7
-4.8870e-04,1.44,1.4,,-4.8870e-02,0.68
-4.8860e-04,1.36,1.44,,-4.8860e-02,0.7
-4.8850e-04,1.4,1.44,,-4.8850e-02,0.66
-4.8840e-04,1.48,1.4,,-4.8840e-02,0.66
-4.8830e-04,1.36,1.44,,-4.8830e-02,0.68
-4.8820e-04,1.32,1.4,,-4.8820e-02,0.7
-4.8810e-04,1.36,1.4,,-4.8810e-02,0.64
-4.8800e-04,1.44,1.44,,-4.8800e-02,0.68
-4.8790e-04,1.4,1.36,,-4.8790e-02,0.66
-4.8780e-04,1.4,1.44,,-4.8780e-02,0.68
-4.8770e-04,1.4,1.4,,-4.8770e-02,0.7
-4.8760e-04,1.4,1.36,,-4.8760e-02,0.66
-4.8750e-04,1.44,1.48,,-4.8750e-02,0.7
-4.8740e-04,1.36,1.4,,-4.8740e-02,0.7
-4.8730e-04,1.4,1.48,,-4.8730e-02,0.66
-4.8720e-04,1.44,1.44,,-4.8720e-02,0.64
-4.8710e-04,1.44,1.52,,-4.8710e-02,0.68
-4.8700e-04,1.4,1.44,,-4.8700e-02,0.66
-4.8690e-04,1.44,1.44,,-4.8690e-02,0.68
-4.8680e-04,1.4,1.48,,-4.8680e-02,0.68
-4.8670e-04,1.36,1.44,,-4.8670e-02,0.68
-4.8660e-04,1.48,1.44,,-4.8660e-02,0.7
-4.8650e-04,1.4,1.48,,-4.8650e-02,0.68
-4.8640e-04,1.44,1.4,,-4.8640e-02,0.7
-4.8630e-04,1.36,1.44,,-4.8630e-02,0.7
-4.8620e-04,1.36,1.4,,-4.8620e-02,0.66
-4.8610e-04,1.4,1.4,,-4.8610e-02,0.72
-4.8600e-04,1.4,1.44,,-4.8600e-02,0.68
-4.8590e-04,1.36,1.44,,-4.8590e-02,0.68
-4.8580e-04,1.4,1.4,,-4.8580e-02,0.66
-4.8570e-04,1.4,1.4,,-4.8570e-02,0.68
-4.8560e-04,1.36,1.48,,-4.8560e-02,0.68
-4.8550e-04,1.4,1.48,,-4.8550e-02,0.68
-4.8540e-04,1.44,1.4,,-4.8540e-02,0.7
-4.8530e-04,1.44,1.44,,-4.8530e-02,0.7
-4.8520e-04,1.4,1.36,,-4.8520e-02,0.68
-4.8510e-04,1.48,1.44,,-4.8510e-02,0.66
-4.8500e-04,1.48,1.44,,-4.8500e-02,0.72
-4.8490e-04,1.4,1.44,,-4.8490e-02,0.7
-4.8480e-04,1.52,1.4,,-4.8480e-02,0.66
-4.8470e-04,1.4,1.4,,-4.8470e-02,0.68
-4.8460e-04,1.4,1.4,,-4.8460e-02,0.68
-4.8450e-04,1.44,1.4,,-4.8450e-02,0.7
-4.8440e-04,1.44,1.4,,-4.8440e-02,0.66
-4.8430e-04,1.32,1.36,,-4.8430e-02,0.66
-4.8420e-04,1.44,1.44,,-4.8420e-02,0.7
-4.8410e-04,1.4,1.36,,-4.8410e-02,0.7
-4.8400e-04,1.4,1.4,,-4.8400e-02,0.66
-4.8390e-04,1.44,1.36,,-4.8390e-02,0.68
-4.8380e-04,1.36,1.36,,-4.8380e-02,0.66
-4.8370e-04,1.36,1.36,,-4.8370e-02,0.68
-4.8360e-04,1.4,1.36,,-4.8360e-02,0.66
-4.8350e-04,1.36,1.32,,-4.8350e-02,0.68
-4.8340e-04,1.4,1.32,,-4.8340e-02,0.7
-4.8330e-04,1.4,1.32,,-4.8330e-02,0.68
-4.8320e-04,1.4,1.4,,-4.8320e-02,0.7
-4.8310e-04,1.44,1.36,,-4.8310e-02,0.7
-4.8300e-04,1.44,1.36,,-4.8300e-02,0.7
-4.8290e-04,1.36,1.36,,-4.8290e-02,0.68
-4.8280e-04,1.44,1.36,,-4.8280e-02,0.7
-4.8270e-04,1.44,1.32,,-4.8270e-02,0.7
-4.8260e-04,1.44,1.28,,-4.8260e-02,0.68
-4.8250e-04,1.44,1.32,,-4.8250e-02,0.72
-4.8240e-04,1.36,1.28,,-4.8240e-02,0.64
-4.8230e-04,1.52,1.32,,-4.8230e-02,0.64
-4.8220e-04,1.32,1.36,,-4.8220e-02,0.68
-4.8210e-04,1.36,1.28,,-4.8210e-02,0.64
-4.8200e-04,1.36,1.24,,-4.8200e-02,0.7
-4.8190e-04,1.44,1.4,,-4.8190e-02,0.68
-4.8180e-04,1.48,1.32,,-4.8180e-02,0.68
-4.8170e-04,1.4,1.32,,-4.8170e-02,0.66
-4.8160e-04,1.44,1.32,,-4.8160e-02,0.68
-4.8150e-04,1.44,1.36,,-4.8150e-02,0.7
-4.8140e-04,1.4,1.32,,-4.8140e-02,0.68
-4.8130e-04,1.32,1.36,,-4.8130e-02,0.7
-4.8120e-04,1.4,1.36,,-4.8120e-02,0.68
-4.8110e-04,1.36,1.32,,-4.8110e-02,0.7
-4.8100e-04,1.4,1.36,,-4.8100e-02,0.68
-4.8090e-04,1.48,1.24,,-4.8090e-02,0.68
-4.8080e-04,1.4,1.24,,-4.8080e-02,0.68
-4.8070e-04,1.44,1.36,,-4.8070e-02,0.7
-4.8060e-04,1.36,1.28,,-4.8060e-02,0.66
-4.8050e-04,1.48,1.28,,-4.8050e-02,0.68
-4.8040e-04,1.4,1.28,,-4.8040e-02,0.66
-4.8030e-04,1.4,1.24,,-4.8030e-02,0.7
-4.8020e-04,1.44,1.32,,-4.8020e-02,0.7
-4.8010e-04,1.44,1.24,,-4.8010e-02,0.66
-4.8000e-04,1.32,1.28,,-4.8000e-02,0.7
-4.7990e-04,1.44,1.28,,-4.7990e-02,0.68
-4.7980e-04,1.4,1.28,,-4.7980e-02,0.66
-4.7970e-04,1.44,1.28,,-4.7970e-02,0.66
-4.7960e-04,1.4,1.24,,-4.7960e-02,0.68
-4.7950e-04,1.48,1.24,,-4.7950e-02,0.68
-4.7940e-04,1.44,1.32,,-4.7940e-02,0.7
-4.7930e-04,1.4,1.24,,-4.7930e-02,0.66
-4.7920e-04,1.44,1.28,,-4.7920e-02,0.68
-4.7910e-04,1.4,1.32,,-4.7910e-02,0.66
-4.7900e-04,1.52,1.24,,-4.7900e-02,0.68
-4.7890e-04,1.44,1.28,,-4.7890e-02,0.7
-4.7880e-04,1.4,1.24,,-4.7880e-02,0.68
-4.7870e-04,1.44,1.28,,-4.7870e-02,0.66
-4.7860e-04,1.4,1.2,,-4.7860e-02,0.68
-4.7850e-04,1.4,1.2,,-4.7850e-02,0.7
-4.7840e-04,1.4,1.24,,-4.7840e-02,0.66
-4.7830e-04,1.36,1.28,,-4.7830e-02,0.68
-4.7820e-04,1.44,1.28,,-4.7820e-02,0.68
-4.7810e-04,1.44,1.24,,-4.7810e-02,0.7
-4.7800e-04,1.44,1.24,,-4.7800e-02,0.7
-4.7790e-04,1.44,1.28,,-4.7790e-02,0.68
-4.7780e-04,1.44,1.24,,-4.7780e-02,0.72
-4.7770e-04,1.4,1.2,,-4.7770e-02,0.7
-4.7760e-04,1.36,1.24,,-4.7760e-02,0.7
-4.7750e-04,1.32,1.16,,-4.7750e-02,0.7
-4.7740e-04,1.36,1.24,,-4.7740e-02,0.68
-4.7730e-04,1.4,1.2,,-4.7730e-02,0.7
-4.7720e-04,1.4,1.24,,-4.7720e-02,0.68
-4.7710e-04,1.48,1.28,,-4.7710e-02,0.66
-4.7700e-04,1.44,1.24,,-4.7700e-02,0.66
-4.7690e-04,1.36,1.24,,-4.7690e-02,0.68
-4.7680e-04,1.4,1.28,,-4.7680e-02,0.66
-4.7670e-04,1.48,1.2,,-4.7670e-02,0.7
-4.7660e-04,1.44,1.28,,-4.7660e-02,0.68
-4.7650e-04,1.44,1.24,,-4.7650e-02,0.66
-4.7640e-04,1.48,1.2,,-4.7640e-02,0.68
-4.7630e-04,1.44,1.16,,-4.7630e-02,0.72
-4.7620e-04,1.4,1.2,,-4.7620e-02,0.68
-4.7610e-04,1.44,1.24,,-4.7610e-02,0.72
-4.7600e-04,1.36,1.24,,-4.7600e-02,0.68
-4.7590e-04,1.44,1.24,,-4.7590e-02,0.66
-4.7580e-04,1.44,1.24,,-4.7580e-02,0.64
-4.7570e-04,1.4,1.2,,-4.7570e-02,0.68
-4.7560e-04,1.4,1.24,,-4.7560e-02,0.68
-4.7550e-04,1.44,1.24,,-4.7550e-02,0.7
-4.7540e-04,1.44,1.16,,-4.7540e-02,0.66
-4.7530e-04,1.4,1.2,,-4.7530e-02,0.7
-4.7520e-04,1.36,1.24,,-4.7520e-02,0.68
-4.7510e-04,1.36,1.2,,-4.7510e-02,0.7
-4.7500e-04,1.4,1.16,,-4.7500e-02,0.7
-4.7490e-04,1.48,1.24,,-4.7490e-02,0.66
-4.7480e-04,1.4,1.2,,-4.7480e-02,0.66
-4.7470e-04,1.36,1.16,,-4.7470e-02,0.66
-4.7460e-04,1.44,1.2,,-4.7460e-02,0.66
-4.7450e-04,1.36,1.24,,-4.7450e-02,0.7
-4.7440e-04,1.4,1.2,,-4.7440e-02,0.64
-4.7430e-04,1.44,1.2,,-4.7430e-02,0.68
-4.7420e-04,1.4,1.2,,-4.7420e-02,0.7
-4.7410e-04,1.44,1.2,,-4.7410e-02,0.66
-4.7400e-04,1.4,1.2,,-4.7400e-02,0.68
-4.7390e-04,1.4,1.2,,-4.7390e-02,0.66
-4.7380e-04,1.36,1.2,,-4.7380e-02,0.64
-4.7370e-04,1.4,1.16,,-4.7370e-02,0.68
-4.7360e-04,1.4,1.24,,-4.7360e-02,0.68
-4.7350e-04,1.4,1.24,,-4.7350e-02,0.66
-4.7340e-04,1.36,1.24,,-4.7340e-02,0.7
-4.7330e-04,1.4,1.24,,-4.7330e-02,0.64
-4.7320e-04,1.4,1.24,,-4.7320e-02,0.7
-4.7310e-04,1.4,1.16,,-4.7310e-02,0.66
-4.7300e-04,1.44,1.16,,-4.7300e-02,0.66
-4.7290e-04,1.44,1.28,,-4.7290e-02,0.64
-4.7280e-04,1.48,1.24,,-4.7280e-02,0.7
-4.7270e-04,1.4,1.24,,-4.7270e-02,0.66
-4.7260e-04,1.4,1.2,,-4.7260e-02,0.68
-4.7250e-04,1.4,1.24,,-4.7250e-02,0.68
-4.7240e-04,1.4,1.24,,-4.7240e-02,0.68
-4.7230e-04,1.4,1.2,,-4.7230e-02,0.68
-4.7220e-04,1.48,1.2,,-4.7220e-02,0.68
-4.7210e-04,1.4,1.16,,-4.7210e-02,0.66
-4.7200e-04,1.44,1.16,,-4.7200e-02,0.66
-4.7190e-04,1.44,1.2,,-4.7190e-02,0.68
-4.7180e-04,1.32,1.16,,-4.7180e-02,0.7
-4.7170e-04,1.4,1.16,,-4.7170e-02,0.7
-4.7160e-04,1.44,1.24,,-4.7160e-02,0.7
-4.7150e-04,1.4,1.2,,-4.7150e-02,0.68
-4.7140e-04,1.48,1.24,,-4.7140e-02,0.68
-4.7130e-04,1.4,1.28,,-4.7130e-02,0.68
-4.7120e-04,1.36,1.2,,-4.7120e-02,0.7
-4.7110e-04,1.4,1.28,,-4.7110e-02,0.64
-4.7100e-04,1.4,1.24,,-4.7100e-02,0.68
-4.7090e-04,1.4,1.24,,-4.7090e-02,0.66
-4.7080e-04,1.44,1.2,,-4.7080e-02,0.66
-4.7070e-04,1.4,1.28,,-4.7070e-02,0.68
-4.7060e-04,1.36,1.24,,-4.7060e-02,0.7
-4.7050e-04,1.4,1.2,,-4.7050e-02,0.7
-4.7040e-04,1.44,1.28,,-4.7040e-02,0.64
-4.7030e-04,1.36,1.24,,-4.7030e-02,0.72
-4.7020e-04,1.44,1.24,,-4.7020e-02,0.7
-4.7010e-04,1.36,1.16,,-4.7010e-02,0.68
-4.7000e-04,1.44,1.24,,-4.7000e-02,0.7
-4.6990e-04,1.4,1.28,,-4.6990e-02,0.7
-4.6980e-04,1.36,1.24,,-4.6980e-02,0.7
-4.6970e-04,1.44,1.28,,-4.6970e-02,0.68
-4.6960e-04,1.4,1.2,,-4.6960e-02,0.68
-4.6950e-04,1.4,1.24,,-4.6950e-02,0.68
-4.6940e-04,1.44,1.24,,-4.6940e-02,0.7
-4.6930e-04,1.44,1.28,,-4.6930e-02,0.7
-4.6920e-04,1.4,1.28,,-4.6920e-02,0.68
-4.6910e-04,1.4,1.24,,-4.6910e-02,0.7
-4.6900e-04,1.44,1.24,,-4.6900e-02,0.66
-4.6890e-04,1.44,1.24,,-4.6890e-02,0.66
-4.6880e-04,1.48,1.16,,-4.6880e-02,0.7
-4.6870e-04,1.4,1.2,,-4.6870e-02,0.66
-4.6860e-04,1.32,1.28,,-4.6860e-02,0.66
-4.6850e-04,1.32,1.28,,-4.6850e-02,0.68
-4.6840e-04,1.4,1.28,,-4.6840e-02,0.64
-4.6830e-04,1.48,1.28,,-4.6830e-02,0.66
-4.6820e-04,1.4,1.24,,-4.6820e-02,0.68
-4.6810e-04,1.44,1.28,,-4.6810e-02,0.68
-4.6800e-04,1.4,1.24,,-4.6800e-02,0.68
-4.6790e-04,1.36,1.28,,-4.6790e-02,0.68
-4.6780e-04,1.4,1.24,,-4.6780e-02,0.7
-4.6770e-04,1.32,1.24,,-4.6770e-02,0.68
-4.6760e-04,1.44,1.28,,-4.6760e-02,0.66
-4.6750e-04,1.44,1.28,,-4.6750e-02,0.66
-4.6740e-04,1.4,1.28,,-4.6740e-02,0.66
-4.6730e-04,1.36,1.28,,-4.6730e-02,0.7
-4.6720e-04,1.36,1.24,,-4.6720e-02,0.66
-4.6710e-04,1.36,1.24,,-4.6710e-02,0.66
-4.6700e-04,1.48,1.28,,-4.6700e-02,0.7
-4.6690e-04,1.4,1.36,,-4.6690e-02,0.7
-4.6680e-04,1.44,1.28,,-4.6680e-02,0.7
-4.6670e-04,1.36,1.28,,-4.6670e-02,0.68
-4.6660e-04,1.44,1.24,,-4.6660e-02,0.66
-4.6650e-04,1.4,1.24,,-4.6650e-02,0.68
-4.6640e-04,1.4,1.36,,-4.6640e-02,0.68
-4.6630e-04,1.36,1.28,,-4.6630e-02,0.68
-4.6620e-04,1.44,1.32,,-4.6620e-02,0.72
-4.6610e-04,1.44,1.32,,-4.6610e-02,0.68
-4.6600e-04,1.4,1.32,,-4.6600e-02,0.66
-4.6590e-04,1.44,1.24,,-4.6590e-02,0.68
-4.6580e-04,1.44,1.28,,-4.6580e-02,0.68
-4.6570e-04,1.44,1.24,,-4.6570e-02,0.68
-4.6560e-04,1.48,1.24,,-4.6560e-02,0.66
-4.6550e-04,1.44,1.28,,-4.6550e-02,0.66
-4.6540e-04,1.44,1.28,,-4.6540e-02,0.7
-4.6530e-04,1.44,1.36,,-4.6530e-02,0.66
-4.6520e-04,1.36,1.32,,-4.6520e-02,0.68
-4.6510e-04,1.4,1.36,,-4.6510e-02,0.7
-4.6500e-04,1.44,1.36,,-4.6500e-02,0.68
-4.6490e-04,1.36,1.24,,-4.6490e-02,0.68
-4.6480e-04,1.4,1.28,,-4.6480e-02,0.7
-4.6470e-04,1.44,1.32,,-4.6470e-02,0.64
-4.6460e-04,1.4,1.28,,-4.6460e-02,0.68
-4.6450e-04,1.4,1.36,,-4.6450e-02,0.64
-4.6440e-04,1.48,1.36,,-4.6440e-02,0.7
-4.6430e-04,1.44,1.36,,-4.6430e-02,0.68
-4.6420e-04,1.44,1.32,,-4.6420e-02,0.7
-4.6410e-04,1.44,1.36,,-4.6410e-02,0.66
-4.6400e-04,1.44,1.32,,-4.6400e-02,0.66
-4.6390e-04,1.48,1.36,,-4.6390e-02,0.7
-4.6380e-04,1.48,1.36,,-4.6380e-02,0.66
-4.6370e-04,1.4,1.36,,-4.6370e-02,0.66
-4.6360e-04,1.4,1.28,,-4.6360e-02,0.66
-4.6350e-04,1.44,1.28,,-4.6350e-02,0.66
-4.6340e-04,1.44,1.36,,-4.6340e-02,0.7
-4.6330e-04,1.36,1.36,,-4.6330e-02,0.68
-4.6320e-04,1.36,1.24,,-4.6320e-02,0.68
-4.6310e-04,1.4,1.32,,-4.6310e-02,0.68
-4.6300e-04,1.32,1.32,,-4.6300e-02,0.68
-4.6290e-04,1.48,1.32,,-4.6290e-02,0.66
-4.6280e-04,1.28,1.32,,-4.6280e-02,0.68
-4.6270e-04,1.36,1.28,,-4.6270e-02,0.68
-4.6260e-04,1.4,1.32,,-4.6260e-02,0.72
-4.6250e-04,1.32,1.32,,-4.6250e-02,0.72
-4.6240e-04,1.4,1.28,,-4.6240e-02,0.68
-4.6230e-04,1.32,1.32,,-4.6230e-02,0.68
-4.6220e-04,1.36,1.24,,-4.6220e-02,0.68
-4.6210e-04,1.32,1.28,,-4.6210e-02,0.68
-4.6200e-04,1.44,1.24,,-4.6200e-02,0.68
-4.6190e-04,1.4,1.36,,-4.6190e-02,0.7
-4.6180e-04,1.44,1.32,,-4.6180e-02,0.66
-4.6170e-04,1.36,1.28,,-4.6170e-02,0.7
-4.6160e-04,1.44,1.28,,-4.6160e-02,0.64
-4.6150e-04,1.4,1.36,,-4.6150e-02,0.7
-4.6140e-04,1.44,1.32,,-4.6140e-02,0.64
-4.6130e-04,1.36,1.32,,-4.6130e-02,0.68
-4.6120e-04,1.44,1.32,,-4.6120e-02,0.66
-4.6110e-04,1.52,1.36,,-4.6110e-02,0.68
-4.6100e-04,1.4,1.28,,-4.6100e-02,0.66
-4.6090e-04,1.4,1.32,,-4.6090e-02,0.66
-4.6080e-04,1.4,1.32,,-4.6080e-02,0.7
-4.6070e-04,1.4,1.28,,-4.6070e-02,0.68
-4.6060e-04,1.48,1.32,,-4.6060e-02,0.68
-4.6050e-04,1.36,1.28,,-4.6050e-02,0.7
-4.6040e-04,1.48,1.32,,-4.6040e-02,0.66
-4.6030e-04,1.36,1.36,,-4.6030e-02,0.64
-4.6020e-04,1.4,1.36,,-4.6020e-02,0.7
-4.6010e-04,1.36,1.36,,-4.6010e-02,0.66
-4.6000e-04,1.4,1.36,,-4.6000e-02,0.66
-4.5990e-04,1.32,1.32,,-4.5990e-02,0.66
-4.5980e-04,1.36,1.36,,-4.5980e-02,0.66
-4.5970e-04,1.48,1.36,,-4.5970e-02,0.68
-4.5960e-04,1.4,1.32,,-4.5960e-02,0.7
-4.5950e-04,1.36,1.36,,-4.5950e-02,0.66
-4.5940e-04,1.36,1.36,,-4.5940e-02,0.64
-4.5930e-04,1.44,1.32,,-4.5930e-02,0.68
-4.5920e-04,1.44,1.36,,-4.5920e-02,0.7
-4.5910e-04,1.44,1.32,,-4.5910e-02,0.68
-4.5900e-04,1.4,1.32,,-4.5900e-02,0.68
-4.5890e-04,1.44,1.32,,-4.5890e-02,0.7
-4.5880e-04,1.4,1.32,,-4.5880e-02,0.7
-4.5870e-04,1.36,1.28,,-4.5870e-02,0.68
-4.5860e-04,1.36,1.32,,-4.5860e-02,0.7
-4.5850e-04,1.44,1.24,,-4.5850e-02,0.7
-4.5840e-04,1.44,1.24,,-4.5840e-02,0.7
-4.5830e-04,1.4,1.32,,-4.5830e-02,0.7
-4.5820e-04,1.36,1.24,,-4.5820e-02,0.72
-4.5810e-04,1.4,1.32,,-4.5810e-02,0.7
-4.5800e-04,1.4,1.16,,-4.5800e-02,0.7
-4.5790e-04,1.4,1.24,,-4.5790e-02,0.68
-4.5780e-04,1.44,1.28,,-4.5780e-02,0.68
-4.5770e-04,1.4,1.28,,-4.5770e-02,0.68
-4.5760e-04,1.48,1.32,,-4.5760e-02,0.7
-4.5750e-04,1.44,1.28,,-4.5750e-02,0.68
-4.5740e-04,1.48,1.28,,-4.5740e-02,0.68
-4.5730e-04,1.44,1.28,,-4.5730e-02,0.7
-4.5720e-04,1.44,1.28,,-4.5720e-02,0.66
-4.5710e-04,1.48,1.32,,-4.5710e-02,0.66
-4.5700e-04,1.4,1.32,,-4.5700e-02,0.7
-4.5690e-04,1.48,1.28,,-4.5690e-02,0.7
-4.5680e-04,1.36,1.32,,-4.5680e-02,0.66
-4.5670e-04,1.44,1.32,,-4.5670e-02,0.68
-4.5660e-04,1.4,1.24,,-4.5660e-02,0.7
-4.5650e-04,1.36,1.28,,-4.5650e-02,0.7
-4.5640e-04,1.44,1.28,,-4.5640e-02,0.68
-4.5630e-04,1.4,1.32,,-4.5630e-02,0.72
-4.5620e-04,1.36,1.36,,-4.5620e-02,0.68
-4.5610e-04,1.36,1.36,,-4.5610e-02,0.68
-4.5600e-04,1.4,1.36,,-4.5600e-02,0.68
-4.5590e-04,1.36,1.32,,-4.5590e-02,0.7
-4.5580e-04,1.44,1.32,,-4.5580e-02,0.68
-4.5570e-04,1.32,1.28,,-4.5570e-02,0.64
-4.5560e-04,1.4,1.28,,-4.5560e-02,0.66
-4.5550e-04,1.4,1.36,,-4.5550e-02,0.68
-4.5540e-04,1.44,1.28,,-4.5540e-02,0.68
-4.5530e-04,1.4,1.32,,-4.5530e-02,0.66
-4.5520e-04,1.44,1.28,,-4.5520e-02,0.68
-4.5510e-04,1.4,1.36,,-4.5510e-02,0.7
-4.5500e-04,1.52,1.32,,-4.5500e-02,0.68
-4.5490e-04,1.44,1.28,,-4.5490e-02,0.68
-4.5480e-04,1.44,1.32,,-4.5480e-02,0.66
-4.5470e-04,1.36,1.28,,-4.5470e-02,0.68
-4.5460e-04,1.4,1.28,,-4.5460e-02,0.68
-4.5450e-04,1.44,1.28,,-4.5450e-02,0.66
-4.5440e-04,1.36,1.28,,-4.5440e-02,0.7
-4.5430e-04,1.48,1.24,,-4.5430e-02,0.64
-4.5420e-04,1.36,1.32,,-4.5420e-02,0.66
-4.5410e-04,1.4,1.36,,-4.5410e-02,0.68
-4.5400e-04,1.32,1.28,,-4.5400e-02,0.7
-4.5390e-04,1.4,1.24,,-4.5390e-02,0.66
-4.5380e-04,1.48,1.28,,-4.5380e-02,0.66
-4.5370e-04,1.4,1.24,,-4.5370e-02,0.68
-4.5360e-04,1.44,1.32,,-4.5360e-02,0.68
-4.5350e-04,1.48,1.28,,-4.5350e-02,0.68
-4.5340e-04,1.4,1.28,,-4.5340e-02,0.64
-4.5330e-04,1.4,1.28,,-4.5330e-02,0.68
-4.5320e-04,1.4,1.36,,-4.5320e-02,0.68
-4.5310e-04,1.44,1.32,,-4.5310e-02,0.68
-4.5300e-04,1.44,1.28,,-4.5300e-02,0.7
-4.5290e-04,1.44,1.24,,-4.5290e-02,0.72
-4.5280e-04,1.44,1.28,,-4.5280e-02,0.66
-4.5270e-04,1.4,1.28,,-4.5270e-02,0.7
-4.5260e-04,1.44,1.36,,-4.5260e-02,0.68
-4.5250e-04,1.44,1.36,,-4.5250e-02,0.72
-4.5240e-04,1.4,1.32,,-4.5240e-02,0.68
-4.5230e-04,1.4,1.32,,-4.5230e-02,0.7
-4.5220e-04,1.44,1.28,,-4.5220e-02,0.68
-4.5210e-04,1.4,1.28,,-4.5210e-02,0.7
-4.5200e-04,1.4,1.24,,-4.5200e-02,0.68
-4.5190e-04,1.36,1.28,,-4.5190e-02,0.66
-4.5180e-04,1.36,1.24,,-4.5180e-02,0.7
-4.5170e-04,1.36,1.32,,-4.5170e-02,0.7
-4.5160e-04,1.44,1.36,,-4.5160e-02,0.66
-4.5150e-04,1.48,1.28,,-4.5150e-02,0.68
-4.5140e-04,1.36,1.24,,-4.5140e-02,0.66
-4.5130e-04,1.4,1.28,,-4.5130e-02,0.72
-4.5120e-04,1.44,1.28,,-4.5120e-02,0.66
-4.5110e-04,1.4,1.24,,-4.5110e-02,0.68
-4.5100e-04,1.48,1.28,,-4.5100e-02,0.68
-4.5090e-04,1.44,1.28,,-4.5090e-02,0.68
-4.5080e-04,1.4,1.28,,-4.5080e-02,0.68
-4.5070e-04,1.44,1.32,,-4.5070e-02,0.7
-4.5060e-04,1.4,1.28,,-4.5060e-02,0.66
-4.5050e-04,1.4,1.32,,-4.5050e-02,0.68
-4.5040e-04,1.4,1.24,,-4.5040e-02,0.7
