week4/data/neuron_recordings/neuron_spike_Iin_1n.csv

#Digilent WaveForms Oscilloscope Acquisition
#Device Name: Discovery
#Serial Number: SN:210244631383
#Date Time: 2018-02-26 11:23:44.322
#Trigger:Source: Channel 1Type: EdgeCondition: RisingLevel: 0 VHyst.: AutoHoldOff: 0 s
#Channel 1: Range: 200 mV/div Offset: -1 V

Time (s),Channel 1 (V)
-29.999999999999996,0.97524956861149936
-29.992499999999996,0.95852709277184311
-29.984999999999999,0.95685484518787833
-29.977499999999999,0.95585149663749902
-29.969999999999999,0.95417924905353346
-29.962499999999999,0.9525070014695679
-29.954999999999998,0.95183810243598166
-29.947499999999998,0.94983140533522303
-29.939999999999998,0.94815915775125748
-29.932499999999997,0.94615246065049874
-29.924999999999997,0.94381131403294705
-29.917499999999997,0.94180461693218831
-29.909999999999997,0.94046681886501593
-29.902499999999996,0.93946347031463662
-29.895,0.55083313180104221
-29.887499999999999,0.45819061564935071
-29.879999999999999,0.45785616613255753
-29.872499999999999,0.45852506516614377
-29.864999999999998,0.45919396419973002
-29.857499999999998,0.45885951468293684
-29.849999999999998,0.45919396419973002
-29.842499999999998,0.45919396419973002
-29.834999999999997,0.45952841371652309
-29.827499999999997,0.45885951468293684
-29.819999999999997,0.45952841371652309
-29.812499999999996,0.45919396419973002
-29.804999999999996,0.45819061564935132
-29.797499999999999,0.45952841371652309
-29.789999999999999,0.45885951468293684
-29.782499999999999,0.45919396419973002
-29.774999999999999,0.45885951468293684
-29.767499999999998,0.45952841371652309
-29.759999999999998,0.45919396419973002
-29.752499999999998,0.45952841371652309
-29.744999999999997,0.45952841371652309
-29.737499999999997,0.45919396419973002
-29.729999999999997,0.45919396419973002
-29.722499999999997,0.45819061564935071
-29.714999999999996,0.45819061564935071
-29.7075,0.45852506516614377
-29.699999999999999,0.45852506516614377
-29.692499999999999,0.45852506516614377
-29.684999999999999,0.45952841371652309
-29.677499999999998,0.45919396419973002
-29.669999999999998,0.45919396419973002
-29.662499999999998,0.45952841371652309
-29.654999999999998,0.45919396419973002
-29.647499999999997,0.45919396419973002
-29.639999999999997,0.45919396419973002
-29.632499999999997,0.45952841371652309
-29.624999999999996,0.45885951468293684
-29.617499999999996,0.45919396419972985
-29.609999999999999,0.45885951468293684
-29.602499999999999,0.46019731275010933
-29.594999999999999,0.46019731275010933
-29.587499999999999,0.45986286323331627
-29.579999999999998,0.45919396419973002
-29.572499999999998,0.45919396419973002
-29.564999999999998,0.45986286323331627
-29.557499999999997,0.45919396419973002
-29.549999999999997,0.45952841371652309
-29.542499999999997,0.45952841371652309
-29.534999999999997,0.46019731275010933
-29.527499999999996,0.46019731275010933
-29.52,0.45986286323331627
-29.512499999999999,0.46086621178369558
-29.504999999999999,0.46086621178369558
-29.497499999999999,0.46120066130048865
-29.489999999999998,0.46120066130048865
-29.482499999999998,0.46153511081728171
-29.474999999999998,0.46120066130048865
-29.467499999999998,0.46186956033407489
-29.459999999999997,0.46220400985086796
-29.452499999999997,0.4628729088844542
-29.444999999999997,0.46354180791804045
-29.437499999999996,0.46320735840124727
-29.429999999999996,0.46421070695162642
-29.422499999999999,0.46354180791804045
-29.414999999999999,0.46387625743483352
-29.407499999999999,0.46554850501879907
-29.399999999999999,0.46688630308597157
-29.392499999999998,0.46688630308597157
-29.384999999999998,0.4675552021195577
-29.377499999999998,0.46855855066993712
-29.369999999999997,0.47023079825390268
-29.362499999999997,0.47056524777069575
-29.354999999999997,0.47223749535466131
-29.347499999999997,0.47290639438824755
-29.339999999999996,0.95819264325505071
-29.3325,0.96187158793977501
-29.324999999999999,0.96120268890618876
-29.317499999999999,0.95986489083901627
-29.309999999999999,0.95852709277184389
-29.302499999999998,0.95752374422146458
-29.294999999999998,0.95618594615429209
-29.287499999999998,0.9548481480871196
-29.279999999999998,0.95351035001994722
-29.272499999999997,0.9525070014695679
-29.264999999999997,0.9501658548520161
-29.257499999999997,0.94882805678484361
-29.249999999999996,0.94682135968408498
-29.242499999999996,0.94514911210011854
-29.234999999999999,0.9431424149993608
-29.227499999999999,0.94046681886501593
-29.219999999999999,0.93879457128105037
-29.212499999999999,0.6026728069039744
-29.204999999999998,0.45785616613255753
-29.197499999999998,0.45852506516614377
-29.189999999999998,0.45819061564935071
-29.182499999999997,0.45819061564935071
-29.174999999999997,0.45752171661576446
-29.167499999999997,0.45852506516614377
-29.159999999999997,0.45785616613255753
-29.152499999999996,0.45819061564935071
-29.145,0.45852506516614377
-29.137499999999999,0.45852506516614377
-29.129999999999999,0.45852506516614377
-29.122499999999999,0.45952841371652309
-29.114999999999998,0.45852506516614377
-29.107499999999998,0.45885951468293684
-29.099999999999998,0.45852506516614377
-29.092499999999998,0.45885951468293684
-29.084999999999997,0.45885951468293684
-29.077499999999997,0.45885951468293684
-29.069999999999997,0.45885951468293684
-29.062499999999996,0.45852506516614377
-29.054999999999996,0.45885951468293668
-29.047499999999999,0.45852506516614377
-29.039999999999999,0.45852506516614377
-29.032499999999999,0.45852506516614377
-29.024999999999999,0.45852506516614377
-29.017499999999998,0.45919396419973002
-29.009999999999998,0.45919396419973002
-29.002499999999998,0.46019731275010933
-28.994999999999997,0.45919396419973002
-28.987499999999997,0.45952841371652309
-28.979999999999997,0.45919396419973002
-28.972499999999997,0.45919396419973002
-28.964999999999996,0.45919396419973002
-28.9575,0.45852506516614377
-28.949999999999999,0.45885951468293684
-28.942499999999999,0.45852506516614377
-28.934999999999999,0.45852506516614377
-28.927499999999998,0.45885951468293684
-28.919999999999998,0.45919396419973002
-28.912499999999998,0.45885951468293684
-28.904999999999998,0.45852506516614377
-28.897499999999997,0.45852506516614377
-28.889999999999997,0.45852506516614377
-28.882499999999997,0.45885951468293684
-28.874999999999996,0.45885951468293684
-28.8675,0.45986286323331582
-28.859999999999999,0.46019731275010933
-28.852499999999999,0.46019731275010933
-28.844999999999999,0.45919396419973002
-28.837499999999999,0.45986286323331627
-28.829999999999998,0.45986286323331627
-28.822499999999998,0.4605317622669024
-28.814999999999998,0.46120066130048865
-28.807499999999997,0.46086621178369558
-28.799999999999997,0.46086621178369558
-28.792499999999997,0.46120066130048865
-28.784999999999997,0.46186956033407489
-28.777499999999996,0.46320735840124727
-28.77,0.46354180791804045
-28.762499999999999,0.4628729088844542
-28.754999999999999,0.46421070695162669
-28.747499999999999,0.46454515646841976
-28.739999999999998,0.46554850501879907
-28.732499999999998,0.46788965163635088
-28.724999999999998,0.46922744970352326
-28.717499999999998,0.46889300018673019
-28.709999999999997,0.46889300018673019
-28.702499999999997,0.47156859632107506
-28.694999999999997,0.47223749535466131
-28.687499999999996,0.47457864197221311
-28.68,0.55718767262007385
-28.672499999999999,0.96287493649015432
-28.664999999999999,0.96187158793977501
-28.657499999999999,0.96053378987260252
-28.649999999999999,0.9595304413222232
-28.642499999999998,0.95852709277184389
-28.634999999999998,0.95752374422146458
-28.627499999999998,0.95618594615429209
-28.619999999999997,0.95451369857032653
-28.612499999999997,0.9525070014695679
-28.604999999999997,0.95150365291918859
-28.597499999999997,0.94983140533522303
-28.589999999999996,0.94815915775125748
-28.5825,0.94581801113370567
-28.574999999999999,0.94414576354974011
-28.567499999999999,0.94213906644898149
-28.559999999999999,0.94046681886501593
-28.552499999999998,0.93645342466349857
-28.544999999999998,0.77223871191808136
-28.537499999999998,0.45852506516614377
-28.529999999999998,0.45885951468293684
-28.522499999999997,0.45885951468293684
-28.514999999999997,0.45952841371652309
-28.507499999999997,0.45885951468293684
-28.499999999999996,0.45919396419973002
-28.4925,0.45852506516614405
-28.484999999999999,0.45919396419973002
-28.477499999999999,0.45852506516614377
-28.469999999999999,0.45952841371652309
-28.462499999999999,0.45919396419973002
-28.454999999999998,0.45919396419973002
-28.447499999999998,0.45885951468293684
-28.439999999999998,0.45852506516614377
-28.432499999999997,0.45919396419973002
-28.424999999999997,0.45919396419973002
-28.417499999999997,0.45952841371652309
-28.409999999999997,0.45919396419973002
-28.402499999999996,0.45919396419973002
-28.395,0.45919396419973002
-28.387499999999999,0.45919396419973002
-28.379999999999999,0.45986286323331627
-28.372499999999999,0.45952841371652309
-28.364999999999998,0.45952841371652309
-28.357499999999998,0.45885951468293684
-28.349999999999998,0.45919396419973002
-28.342499999999998,0.45885951468293684
-28.334999999999997,0.45952841371652309
-28.327499999999997,0.45919396419973002
-28.319999999999997,0.45819061564935071
-28.312499999999996,0.45819061564935071
-28.305,0.45852506516614361
-28.297499999999999,0.45819061564935071
-28.289999999999999,0.45785616613255753
-28.282499999999999,0.45819061564935071
-28.274999999999999,0.45785616613255753
-28.267499999999998,0.45852506516614377
-28.259999999999998,0.45718726709897128
-28.252499999999998,0.45819061564935071
-28.244999999999997,0.45852506516614377
-28.237499999999997,0.45852506516614377
-28.229999999999997,0.45852506516614377
-28.222499999999997,0.45819061564935071
-28.214999999999996,0.45885951468293684
-28.2075,0.45819061564935071
-28.199999999999999,0.45919396419973002
-28.192499999999999,0.45819061564935071
-28.184999999999999,0.45885951468293684
-28.177499999999998,0.45885951468293684
-28.169999999999998,0.45852506516614377
-28.162499999999998,0.45852506516614377
-28.154999999999998,0.45885951468293684
-28.147499999999997,0.45885951468293684
-28.139999999999997,0.45919396419973002
-28.132499999999997,0.4605317622669024
-28.124999999999996,0.45885951468293684
-28.1175,0.46053176226690162
-28.109999999999999,0.45986286323331627
-28.102499999999999,0.4605317622669024
-28.094999999999999,0.46153511081728171
-28.087499999999999,0.46153511081728171
-28.079999999999998,0.46153511081728171
-28.072499999999998,0.46253845936766114
-28.064999999999998,0.46220400985086796
-28.057499999999997,0.46153511081728171
-28.049999999999997,0.46220400985086796
-28.042499999999997,0.4628729088844542
-28.034999999999997,0.46354180791804045
-28.027499999999996,0.46554850501879907
-28.02,0.46454515646841976
-28.012499999999999,0.46554850501879907
-28.004999999999999,0.46655185356917839
-27.997499999999999,0.46688630308597157
-27.989999999999998,0.46822410115314395
-27.982499999999998,0.47257194487145437
-27.974999999999998,0.86120228338504878
-27.967499999999998,0.96187158793977501
-27.959999999999997,0.96120268890618876
-27.952499999999997,0.95986489083901627
-27.944999999999997,0.95886154228863696
-27.937499999999996,0.95752374422146458
-27.93,0.95585149663749902
-27.922499999999999,0.95518259760391278
-27.914999999999999,0.95417924905353346
-27.907499999999999,0.95217255195277473
-27.899999999999999,0.95083475388560235
-27.892499999999998,0.94916250630163679
-27.884999999999998,0.94749025871767123
-27.877499999999998,0.94615246065049874
-27.869999999999997,0.9431424149993608
-27.862499999999997,0.94381131403294705
-27.854999999999997,0.93812567224746413
-27.847499999999997,0.93712232369708481
-27.839999999999996,0.57658574459405831
-27.8325,0.45885951468293684
-27.824999999999999,0.45852506516614377
-27.817499999999999,0.45952841371652309
-27.809999999999999,0.45919396419973002
-27.802499999999998,0.45919396419973002
-27.794999999999998,0.45919396419973002
-27.787499999999998,0.45919396419973002
-27.779999999999998,0.45852506516614377
-27.772499999999997,0.45852506516614377
-27.764999999999997,0.45919396419973002
-27.757499999999997,0.45852506516614377
-27.749999999999996,0.45885951468293684
-27.7425,0.45885951468293684
-27.734999999999999,0.45852506516614377
-27.727499999999999,0.45852506516614377
-27.719999999999999,0.45885951468293684
-27.712499999999999,0.45885951468293684
-27.704999999999998,0.45852506516614377
-27.697499999999998,0.45852506516614377
-27.689999999999998,0.45852506516614377
-27.682499999999997,0.45852506516614377
-27.674999999999997,0.45885951468293684
-27.667499999999997,0.45885951468293684
-27.659999999999997,0.45919396419973002
-27.652499999999996,0.45919396419972985
-27.645,0.45885951468293684
-27.637499999999999,0.45952841371652309
-27.629999999999999,0.45852506516614377
-27.622499999999999,0.45885951468293684
-27.614999999999998,0.45919396419973002
-27.607499999999998,0.45952841371652309
-27.599999999999998,0.45885951468293684
-27.592499999999998,0.45885951468293684
-27.584999999999997,0.45919396419973002
-27.577499999999997,0.45852506516614377
-27.569999999999997,0.45919396419973002
-27.562499999999996,0.45919396419973002
-27.555,0.45952841371652309
-27.547499999999999,0.45952841371652309
-27.539999999999999,0.45952841371652309
-27.532499999999999,0.45885951468293684
-27.524999999999999,0.45885951468293684
-27.517499999999998,0.45986286323331627
-27.509999999999998,0.45952841371652309
-27.502499999999998,0.45986286323331627
-27.494999999999997,0.45952841371652309
-27.487499999999997,0.45986286323331627
-27.479999999999997,0.45986286323331627
-27.472499999999997,0.45986286323331627
-27.464999999999996,0.45986286323331643
-27.4575,0.46019731275010933
-27.449999999999999,0.4605317622669024
-27.442499999999999,0.46019731275010933
-27.434999999999999,0.4605317622669024
-27.427499999999998,0.46019731275010933
-27.419999999999998,0.46120066130048865
-27.412499999999998,0.46120066130048865
-27.404999999999998,0.46120066130048865
-27.397499999999997,0.46186956033407489
-27.389999999999997,0.46320735840124727
-27.382499999999997,0.46421070695162669
-27.374999999999996,0.4628729088844542
-27.3675,0.46387625743483352
-27.359999999999999,0.46487960598521283
-27.352499999999999,0.46588295453559225
-27.344999999999999,0.46588295453559225
-27.337499999999999,0.46722075260276463
-27.329999999999998,0.46655185356917839
-27.322499999999998,0.46855855066993712
-27.314999999999998,0.47089969728748882
-27.307499999999997,0.47558199052259242
-27.299999999999997,0.83310852397442747
-27.292499999999997,0.96187158793977501
-27.284999999999997,0.96086823938939558
-27.277499999999996,0.95986489083901549
-27.27,0.95819264325505071
-27.262499999999999,0.95752374422146458
-27.254999999999999,0.95652039567108516
-27.247499999999999,0.95518259760391278
-27.239999999999998,0.95384479953674028
-27.232499999999998,0.95183810243598166
-27.224999999999998,0.95050030436880917
-27.217499999999998,0.94849360726805054
-27.209999999999997,0.94682135968408498
-27.202499999999997,0.94414576354974011
-27.194999999999997,0.94280796548256762
-27.187499999999996,0.93946347031463662
-27.18,0.93545007611311926
-27.172499999999999,0.52240492287362783
-27.164999999999999,0.45852506516614377
-27.157499999999999,0.45819061564935071
-27.149999999999999,0.45885951468293684
-27.142499999999998,0.45885951468293684
-27.134999999999998,0.45885951468293684
-27.127499999999998,0.45819061564935071
-27.119999999999997,0.45885951468293684
-27.112499999999997,0.45885951468293684
-27.104999999999997,0.45919396419973002
-27.097499999999997,0.45919396419973002
-27.089999999999996,0.45852506516614394
-27.0825,0.45885951468293684
-27.074999999999999,0.45785616613255753
-27.067499999999999,0.45919396419973002
-27.059999999999999,0.45819061564935071
-27.052499999999998,0.45885951468293684
-27.044999999999998,0.45852506516614377
-27.037499999999998,0.45952841371652309
-27.029999999999998,0.45919396419973002
-27.022499999999997,0.45885951468293684
-27.014999999999997,0.45852506516614377
-27.007499999999997,0.45885951468293684
-26.999999999999996,0.45952841371652309
-26.9925,0.45885951468293684
-26.984999999999999,0.45852506516614377
-26.977499999999999,0.45819061564935071
-26.969999999999999,0.45919396419973002
-26.962499999999999,0.45919396419973002
-26.954999999999998,0.45885951468293684
-26.947499999999998,0.45952841371652309
-26.939999999999998,0.45919396419973002
-26.932499999999997,0.45952841371652309
-26.924999999999997,0.45852506516614377
-26.917499999999997,0.45952841371652309
-26.909999999999997,0.45919396419973002
-26.9025,0.45919396419973002
-26.895,0.45952841371652309
-26.887499999999999,0.45986286323331627
-26.879999999999999,0.45952841371652309
-26.872499999999999,0.45919396419973002
-26.864999999999998,0.45986286323331627
-26.857499999999998,0.46019731275010933
-26.849999999999998,0.46086621178369558
-26.842499999999998,0.46019731275010933
-26.834999999999997,0.4605317622669024
-26.827499999999997,0.46019731275010933
-26.819999999999997,0.4605317622669024
-26.812499999999996,0.46086621178369558
-26.805,0.46120066130048865
-26.797499999999999,0.46153511081728171
-26.789999999999999,0.46120066130048865
-26.782499999999999,0.46086621178369558
-26.774999999999999,0.46153511081728171
-26.767499999999998,0.46186956033407489
-26.759999999999998,0.46120066130048865
-26.752499999999998,0.46253845936766114
-26.744999999999997,0.46220400985086796
-26.737499999999997,0.46253845936766114
-26.729999999999997,0.46253845936766114
-26.722499999999997,0.4628729088844542
-26.715,0.4632073584012471
-26.7075,0.46487960598521283
-26.699999999999999,0.46521405550200601
-26.692499999999999,0.46688630308597157
-26.684999999999999,0.46621740405238532
-26.677499999999998,0.46722075260276463
-26.669999999999998,0.46855855066993712
-26.662499999999998,0.4698963487371095
-26.654999999999998,0.47023079825390268
-26.647499999999997,0.47223749535466131
-26.639999999999997,0.89799173023229084
-26.632499999999997,0.96120268890618876
-26.624999999999996,0.96086823938939558
-26.6175,0.95986489083901627
-26.609999999999999,0.95852709277184389
-26.602499999999999,0.9571892947046714
-26.594999999999999,0.95652039567108516
-26.587499999999999,0.95518259760391278
-26.579999999999998,0.95384479953674028
-26.572499999999998,0.95183810243598166
-26.564999999999998,0.95050030436880917
-26.557499999999997,0.94949695581842986
-26.549999999999997,0.94749025871767123
-26.542499999999997,0.9454835616169126
-26.534999999999997,0.9431424149993608
-26.5275,0.94080126838181011
-26.52,0.93812567224746413
-26.512499999999999,0.73946265927235655
-26.504999999999999,0.45952841371652309
-26.497499999999999,0.45919396419973002
-26.489999999999998,0.45952841371652309
-26.482499999999998,0.45919396419973002
-26.474999999999998,0.45919396419973002
-26.467499999999998,0.45986286323331627
-26.459999999999997,0.45952841371652309
-26.452499999999997,0.45919396419973002
-26.444999999999997,0.45852506516614377
-26.437499999999996,0.45852506516614377
-26.43,0.45986286323331627
-26.422499999999999,0.45919396419973002
-26.414999999999999,0.45919396419973002
-26.407499999999999,0.45885951468293684
-26.399999999999999,0.45952841371652309
-26.392499999999998,0.45919396419973002
-26.384999999999998,0.45919396419973002
-26.377499999999998,0.45885951468293684
-26.369999999999997,0.45885951468293684
-26.362499999999997,0.45952841371652309
-26.354999999999997,0.45852506516614377
-26.347499999999997,0.45885951468293684
-26.34,0.45852506516614394
-26.3325,0.45885951468293684
-26.324999999999999,0.45885951468293684
-26.317499999999999,0.45919396419973002
-26.309999999999999,0.45885951468293684
-26.302499999999998,0.45952841371652309
-26.294999999999998,0.45919396419973002
-26.287499999999998,0.45885951468293684
-26.279999999999998,0.45852506516614377
-26.272499999999997,0.45852506516614377
-26.264999999999997,0.45852506516614377
-26.257499999999997,0.45852506516614377
-26.249999999999996,0.45919396419973002
-26.2425,0.45885951468293684
-26.234999999999999,0.45919396419973002
-26.227499999999999,0.45919396419973002
