week4/data/neuron_recordings/neuron_spike_Iin_18nA.csv

#Digilent WaveForms Oscilloscope Acquisition
#Device Name: Discovery
#Serial Number: SN:210244631383
#Date Time: 2018-02-26 11:02:43.709
#Trigger:Source: Channel 1Type: EdgeCondition: RisingLevel: 0 VHyst.: AutoHoldOff: 0 s
#Channel 1: Range: 200 mV/div Offset: -1 V

Time (s),Channel 1 (V)
-29.999999999999996,0.97223952296036142
-29.992499999999996,0.63946225375121635
-29.984999999999999,0.63912780423442339
-29.977499999999999,0.63946225375121646
-29.969999999999999,0.63946225375121646
-29.962499999999999,0.63979670326800964
-29.954999999999998,0.63979670326800964
-29.947499999999998,0.63946225375121646
-29.939999999999998,0.63979670326800964
-29.932499999999997,0.63979670326800964
-29.924999999999997,0.63979670326800964
-29.917499999999997,0.63979670326800964
-29.909999999999997,0.63979670326800964
-29.902499999999996,0.63946225375121646
-29.895,0.64013115278480281
-29.887499999999999,0.64013115278480281
-29.879999999999999,0.64013115278480281
-29.872499999999999,0.64013115278480281
-29.864999999999998,0.64046560230159577
-29.857499999999998,0.64046560230159577
-29.849999999999998,0.64080005181838895
-29.842499999999998,0.64080005181838895
-29.834999999999997,0.64080005181838895
-29.827499999999997,0.64080005181838895
-29.819999999999997,0.64113450133518213
-29.812499999999996,0.64080005181838895
-29.804999999999996,0.64113450133518224
-29.797499999999999,0.64146895085197519
-29.789999999999999,0.64080005181838895
-29.782499999999999,0.64113450133518213
-29.774999999999999,0.64180340036876826
-29.767499999999998,0.64180340036876826
-29.759999999999998,0.64146895085197519
-29.752499999999998,0.64213784988556144
-29.744999999999997,0.64146895085197519
-29.737499999999997,0.64247229940235451
-29.729999999999997,0.64247229940235451
-29.722499999999997,0.64213784988556144
-29.714999999999996,0.64180340036876826
-29.7075,0.64180340036876826
-29.699999999999999,0.64213784988556144
-29.692499999999999,0.64180340036876826
-29.684999999999999,0.64280674891914757
-29.677499999999998,0.64213784988556144
-29.669999999999998,0.64280674891914757
-29.662499999999998,0.64280674891914757
-29.654999999999998,0.64347564795273382
-29.647499999999997,0.64414454698632007
-29.639999999999997,0.64414454698632007
-29.632499999999997,0.64280674891914757
-29.624999999999996,0.64414454698632007
-29.617499999999996,0.64381009746952722
-29.609999999999999,0.64447899650311324
-29.602499999999999,0.64414454698632007
-29.594999999999999,0.64381009746952689
-29.587499999999999,0.64581679457028562
-29.579999999999998,0.64381009746952689
-29.572499999999998,0.6448134460199062
-29.564999999999998,0.64514789553669938
-29.557499999999997,0.64648569360387187
-29.549999999999997,0.64548234505349256
-29.542499999999997,0.64615124408707869
-29.534999999999997,0.6448134460199062
-29.527499999999996,0.64381009746952689
-29.52,0.64548234505349256
-29.512499999999999,0.6448134460199062
-29.504999999999999,0.77692100515318496
-29.497499999999999,0.98695530169925827
-29.489999999999998,0.98595195314887896
-29.482499999999998,0.98528305411529271
-29.474999999999998,0.98327635701453409
-29.467499999999998,0.98227300846415466
-29.459999999999997,0.97993186184660297
-29.452499999999997,0.97892851329622355
-29.444999999999997,0.97625291716187867
-29.437499999999996,0.97424622006112005
-29.429999999999996,0.96856057827554476
-29.422499999999999,0.76554972158221912
-29.414999999999999,0.63879335471763032
-29.407499999999999,0.63912780423442339
-29.399999999999999,0.63912780423442339
-29.392499999999998,0.63912780423442339
-29.384999999999998,0.63879335471763032
-29.377499999999998,0.63912780423442339
-29.369999999999997,0.63879335471763032
-29.362499999999997,0.63912780423442339
-29.354999999999997,0.63879335471763032
-29.347499999999997,0.63946225375121646
-29.339999999999996,0.63879335471763032
-29.3325,0.63845890520083715
-29.324999999999999,0.63845890520083715
-29.317499999999999,0.63879335471763032
-29.309999999999999,0.63912780423442339
-29.302499999999998,0.63879335471763032
-29.294999999999998,0.63879335471763032
-29.287499999999998,0.63879335471763032
-29.279999999999998,0.63912780423442339
-29.272499999999997,0.63879335471763032
-29.264999999999997,0.63912780423442339
-29.257499999999997,0.63912780423442339
-29.249999999999996,0.63912780423442339
-29.242499999999996,0.63946225375121635
-29.234999999999999,0.63912780423442339
-29.227499999999999,0.63946225375121646
-29.219999999999999,0.63879335471763032
-29.212499999999999,0.63912780423442339
-29.204999999999998,0.63912780423442339
-29.197499999999998,0.63912780423442339
-29.189999999999998,0.63879335471763032
-29.182499999999997,0.63912780423442339
-29.174999999999997,0.63912780423442339
-29.167499999999997,0.63879335471763032
-29.159999999999997,0.63879335471763032
-29.152499999999996,0.63879335471763032
-29.145,0.63912780423442339
-29.137499999999999,0.63845890520083715
-29.129999999999999,0.63912780423442339
-29.122499999999999,0.63845890520083715
-29.114999999999998,0.63912780423442339
-29.107499999999998,0.63912780423442339
-29.099999999999998,0.63879335471763032
-29.092499999999998,0.63879335471763032
-29.084999999999997,0.63879335471763032
-29.077499999999997,0.63912780423442339
-29.069999999999997,0.63912780423442339
-29.062499999999996,0.63979670326800964
-29.054999999999996,0.63946225375121646
-29.047499999999999,0.63946225375121646
-29.039999999999999,0.63912780423442339
-29.032499999999999,0.63879335471763032
-29.024999999999999,0.63879335471763032
-29.017499999999998,0.63879335471763032
-29.009999999999998,0.63946225375121646
-29.002499999999998,0.63879335471763032
-28.994999999999997,0.63946225375121646
-28.987499999999997,0.63912780423442339
-28.979999999999997,0.63912780423442339
-28.972499999999997,0.63912780423442339
-28.964999999999996,0.63946225375121646
-28.9575,0.63946225375121646
-28.949999999999999,0.63946225375121646
-28.942499999999999,0.63946225375121646
-28.934999999999999,0.63946225375121646
-28.927499999999998,0.63979670326800964
-28.919999999999998,0.63946225375121646
-28.912499999999998,0.63979670326800964
-28.904999999999998,0.63979670326800964
-28.897499999999997,0.64013115278480281
-28.889999999999997,0.64013115278480281
-28.882499999999997,0.64013115278480281
-28.874999999999996,0.63979670326800964
-28.8675,0.63979670326800964
-28.859999999999999,0.64013115278480281
-28.852499999999999,0.64013115278480281
-28.844999999999999,0.64013115278480281
-28.837499999999999,0.64013115278480281
-28.829999999999998,0.64013115278480281
-28.822499999999998,0.64013115278480281
-28.814999999999998,0.64013115278480281
-28.807499999999997,0.64013115278480281
-28.799999999999997,0.64013115278480281
-28.792499999999997,0.64046560230159577
-28.784999999999997,0.64013115278480281
-28.777499999999996,0.64046560230159577
-28.77,0.64046560230159577
-28.762499999999999,0.64046560230159577
-28.754999999999999,0.64080005181838895
-28.747499999999999,0.64080005181838895
-28.739999999999998,0.64080005181838895
-28.732499999999998,0.64080005181838895
-28.724999999999998,0.64113450133518213
-28.717499999999998,0.64146895085197519
-28.709999999999997,0.64046560230159577
-28.702499999999997,0.64113450133518213
-28.694999999999997,0.64113450133518213
-28.687499999999996,0.64146895085197519
-28.68,0.64146895085197519
-28.672499999999999,0.64146895085197519
-28.664999999999999,0.64213784988556144
-28.657499999999999,0.64180340036876826
-28.649999999999999,0.64213784988556144
-28.642499999999998,0.64213784988556144
-28.634999999999998,0.64213784988556144
-28.627499999999998,0.64180340036876826
-28.619999999999997,0.64180340036876826
-28.612499999999997,0.64180340036876826
-28.604999999999997,0.64213784988556144
-28.597499999999997,0.64280674891914757
-28.589999999999996,0.64280674891914757
-28.5825,0.64247229940235451
-28.574999999999999,0.64280674891914757
-28.567499999999999,0.64247229940235451
-28.559999999999999,0.64247229940235451
-28.552499999999998,0.64414454698632007
-28.544999999999998,0.64280674891914757
-28.537499999999998,0.90033287684984264
-28.529999999999998,0.98662085218246509
-28.522499999999997,0.98561750363208578
-28.514999999999997,0.98394525604812022
-28.507499999999997,0.98294190749774091
-28.499999999999996,0.98126965991377535
-28.4925,0.97926296281301761
-28.484999999999999,0.97692181619546492
-28.477499999999999,0.97391177054432698
-28.469999999999999,0.97157062392677518
-28.462499999999999,0.75417843801125339
-28.454999999999998,0.63912780423442339
-28.447499999999998,0.63912780423442339
-28.439999999999998,0.63912780423442339
-28.432499999999997,0.63946225375121646
-28.424999999999997,0.63912780423442339
-28.417499999999997,0.63912780423442339
-28.409999999999997,0.63912780423442339
-28.402499999999996,0.63912780423442339
-28.395,0.63912780423442339
-28.387499999999999,0.63879335471763032
-28.379999999999999,0.63946225375121646
-28.372499999999999,0.63912780423442339
-28.364999999999998,0.63946225375121646
-28.357499999999998,0.63912780423442339
-28.349999999999998,0.63946225375121646
-28.342499999999998,0.63946225375121646
-28.334999999999997,0.63946225375121646
-28.327499999999997,0.63912780423442339
-28.319999999999997,0.63879335471763032
-28.312499999999996,0.63946225375121646
-28.305,0.63946225375121646
-28.297499999999999,0.63912780423442339
-28.289999999999999,0.63912780423442339
-28.282499999999999,0.63946225375121646
-28.274999999999999,0.63946225375121646
-28.267499999999998,0.63912780423442339
-28.259999999999998,0.63946225375121646
-28.252499999999998,0.63946225375121646
-28.244999999999997,0.63946225375121646
-28.237499999999997,0.63946225375121646
-28.229999999999997,0.63946225375121646
-28.222499999999997,0.63912780423442339
-28.214999999999996,0.63946225375121646
-28.2075,0.63912780423442339
-28.199999999999999,0.63912780423442339
-28.192499999999999,0.63946225375121646
-28.184999999999999,0.63912780423442339
-28.177499999999998,0.63946225375121646
-28.169999999999998,0.63979670326800964
-28.162499999999998,0.63979670326800964
-28.154999999999998,0.63946225375121646
-28.147499999999997,0.63979670326800964
-28.139999999999997,0.63946225375121646
-28.132499999999997,0.63979670326800964
-28.124999999999996,0.63946225375121646
-28.1175,0.63946225375121646
-28.109999999999999,0.63979670326800964
-28.102499999999999,0.63879335471763032
-28.094999999999999,0.63946225375121646
-28.087499999999999,0.63979670326800964
-28.079999999999998,0.63979670326800964
-28.072499999999998,0.63946225375121646
-28.064999999999998,0.63979670326800964
-28.057499999999997,0.63979670326800964
-28.049999999999997,0.63979670326800964
-28.042499999999997,0.63946225375121646
-28.034999999999997,0.63946225375121646
-28.027499999999996,0.63979670326800964
-28.02,0.63979670326800964
-28.012499999999999,0.63979670326800964
-28.004999999999999,0.63946225375121646
-27.997499999999999,0.63946225375121646
-27.989999999999998,0.63946225375121646
-27.982499999999998,0.63946225375121646
-27.974999999999998,0.63979670326800964
-27.967499999999998,0.63979670326800964
-27.959999999999997,0.63946225375121646
-27.952499999999997,0.63946225375121646
-27.944999999999997,0.63979670326800964
-27.937499999999996,0.63979670326800964
-27.93,0.63979670326800964
-27.922499999999999,0.63946225375121646
-27.914999999999999,0.63979670326800964
-27.907499999999999,0.63979670326800964
-27.899999999999999,0.63979670326800964
-27.892499999999998,0.64013115278480281
-27.884999999999998,0.63979670326800964
-27.877499999999998,0.63979670326800964
-27.869999999999997,0.63946225375121646
-27.862499999999997,0.63946225375121646
-27.854999999999997,0.63946225375121646
-27.847499999999997,0.63979670326800964
-27.839999999999996,0.63946225375121679
-27.8325,0.64013115278480281
-27.824999999999999,0.64013115278480281
-27.817499999999999,0.64013115278480281
-27.809999999999999,0.64013115278480281
-27.802499999999998,0.63979670326800964
-27.794999999999998,0.63979670326800964
-27.787499999999998,0.64013115278480281
-27.779999999999998,0.64046560230159577
-27.772499999999997,0.64080005181838895
-27.764999999999997,0.64046560230159577
-27.757499999999997,0.64046560230159577
-27.749999999999996,0.64080005181838895
-27.7425,0.64046560230159577
-27.734999999999999,0.64046560230159577
-27.727499999999999,0.64046560230159577
-27.719999999999999,0.64046560230159577
-27.712499999999999,0.64113450133518213
-27.704999999999998,0.64146895085197519
-27.697499999999998,0.64146895085197519
-27.689999999999998,0.64080005181838895
-27.682499999999997,0.64113450133518213
-27.674999999999997,0.64146895085197519
-27.667499999999997,0.64180340036876826
-27.659999999999997,0.64180340036876826
-27.652499999999996,0.64146895085197531
-27.645,0.64180340036876826
-27.637499999999999,0.64213784988556144
-27.629999999999999,0.64180340036876826
-27.622499999999999,0.64280674891914757
-27.614999999999998,0.64213784988556144
-27.607499999999998,0.64280674891914757
-27.599999999999998,0.64314119843594075
-27.592499999999998,0.64247229940235451
-27.584999999999997,0.64247229940235451
-27.577499999999997,0.64247229940235451
-27.569999999999997,0.64247229940235451
-27.562499999999996,0.64280674891914757
-27.555,0.64314119843594075
-27.547499999999999,0.64314119843594075
-27.539999999999999,0.6448134460199062
-27.532499999999999,0.64447899650311324
-27.524999999999999,0.64381009746952689
-27.517499999999998,0.64381009746952689
-27.509999999999998,0.64247229940235451
-27.502499999999998,0.64280674891914757
-27.494999999999997,0.64314119843594075
-27.487499999999997,0.64548234505349256
-27.479999999999997,0.64381009746952689
-27.472499999999997,0.64514789553669938
-27.464999999999996,0.64481344601993129
-27.4575,0.69999761629076951
-27.449999999999999,0.98728975121605134
-27.442499999999999,0.98595195314887896
-27.434999999999999,0.98528305411529271
-27.427499999999998,0.98327635701453409
-27.419999999999998,0.98193855894736159
-27.412499999999998,0.97993186184660297
-27.404999999999998,0.97825961426263741
-27.397499999999997,0.97558401812829254
-27.389999999999997,0.97257397247715449
-27.382499999999997,0.95116920340239541
-27.374999999999996,0.63845890520083715
-27.3675,0.63879335471763032
-27.359999999999999,0.63912780423442339
-27.352499999999999,0.63845890520083715
-27.344999999999999,0.63912780423442339
-27.337499999999999,0.63879335471763032
-27.329999999999998,0.63879335471763032
-27.322499999999998,0.63912780423442339
-27.314999999999998,0.63879335471763032
-27.307499999999997,0.63845890520083715
-27.299999999999997,0.63845890520083715
-27.292499999999997,0.63845890520083715
-27.284999999999997,0.63845890520083715
-27.277499999999996,0.63879335471763032
-27.27,0.63879335471763032
-27.262499999999999,0.63879335471763032
-27.254999999999999,0.63879335471763032
-27.247499999999999,0.63946225375121646
-27.239999999999998,0.63912780423442339
-27.232499999999998,0.63912780423442339
-27.224999999999998,0.63912780423442339
-27.217499999999998,0.63912780423442339
-27.209999999999997,0.63912780423442339
-27.202499999999997,0.63879335471763032
-27.194999999999997,0.63879335471763032
-27.187499999999996,0.63845890520083715
-27.18,0.63879335471763032
-27.172499999999999,0.63845890520083715
-27.164999999999999,0.63879335471763032
-27.157499999999999,0.63879335471763032
-27.149999999999999,0.63912780423442339
-27.142499999999998,0.63912780423442339
-27.134999999999998,0.63879335471763032
-27.127499999999998,0.63912780423442339
-27.119999999999997,0.63879335471763032
-27.112499999999997,0.63879335471763032
-27.104999999999997,0.63845890520083715
-27.097499999999997,0.63879335471763032
-27.089999999999996,0.63845890520083726
-27.0825,0.63879335471763032
-27.074999999999999,0.63879335471763032
-27.067499999999999,0.63879335471763032
-27.059999999999999,0.63879335471763032
-27.052499999999998,0.63879335471763032
-27.044999999999998,0.63879335471763032
-27.037499999999998,0.63879335471763032
-27.029999999999998,0.63879335471763032
-27.022499999999997,0.63845890520083715
-27.014999999999997,0.63879335471763032
-27.007499999999997,0.63879335471763032
-26.999999999999996,0.63879335471763032
-26.9925,0.63879335471763032
-26.984999999999999,0.63912780423442339
-26.977499999999999,0.63912780423442339
-26.969999999999999,0.63845890520083715
-26.962499999999999,0.63912780423442339
-26.954999999999998,0.63879335471763032
-26.947499999999998,0.63912780423442339
-26.939999999999998,0.63879335471763032
-26.932499999999997,0.63979670326800964
-26.924999999999997,0.63912780423442339
-26.917499999999997,0.63912780423442339
-26.909999999999997,0.63946225375121646
-26.9025,0.6391278042344235
-26.895,0.63946225375121646
-26.887499999999999,0.63912780423442339
-26.879999999999999,0.63946225375121646
-26.872499999999999,0.63946225375121646
-26.864999999999998,0.63946225375121646
-26.857499999999998,0.63946225375121646
-26.849999999999998,0.63979670326800964
-26.842499999999998,0.63979670326800964
-26.834999999999997,0.63946225375121646
-26.827499999999997,0.63979670326800964
-26.819999999999997,0.63946225375121646
-26.812499999999996,0.63912780423442339
-26.805,0.63912780423442339
-26.797499999999999,0.63979670326800964
-26.789999999999999,0.63979670326800964
-26.782499999999999,0.64013115278480281
-26.774999999999999,0.64013115278480281
-26.767499999999998,0.63979670326800964
-26.759999999999998,0.64046560230159577
-26.752499999999998,0.64013115278480281
-26.744999999999997,0.64013115278480281
-26.737499999999997,0.64046560230159577
-26.729999999999997,0.64046560230159577
-26.722499999999997,0.64046560230159577
-26.715,0.64080005181838884
-26.7075,0.64080005181838895
-26.699999999999999,0.64113450133518213
-26.692499999999999,0.64080005181838895
-26.684999999999999,0.64113450133518213
-26.677499999999998,0.64113450133518213
-26.669999999999998,0.64113450133518213
-26.662499999999998,0.64113450133518213
-26.654999999999998,0.64146895085197519
-26.647499999999997,0.64146895085197519
-26.639999999999997,0.64180340036876826
-26.632499999999997,0.64247229940235451
-26.624999999999996,0.64180340036876826
-26.6175,0.64213784988556144
-26.609999999999999,0.64213784988556144
-26.602499999999999,0.64213784988556144
-26.594999999999999,0.64180340036876826
-26.587499999999999,0.64347564795273382
-26.579999999999998,0.64314119843594075
-26.572499999999998,0.64280674891914757
-26.564999999999998,0.64247229940235451
-26.557499999999997,0.64314119843594075
-26.549999999999997,0.64314119843594075
-26.542499999999997,0.64314119843594075
-26.534999999999997,0.64347564795273382
-26.5275,0.64247229940235495
-26.52,0.64314119843594075
-26.512499999999999,0.64314119843594075
-26.504999999999999,0.64381009746952689
-26.497499999999999,0.64347564795273382
-26.489999999999998,0.6448134460199062
-26.482499999999998,0.64447899650311324
-26.474999999999998,0.68595073658545891
-26.467499999999998,0.98728975121605134
-26.459999999999997,0.98561750363208578
-26.452499999999997,0.98494860459849953
-26.444999999999997,0.98361080653132715
-26.437499999999996,0.98260745798094784
-26.43,0.9806007608801891
-26.422499999999999,0.97892851329622355
-26.414999999999999,0.97625291716187867
-26.407499999999999,0.97391177054432698
-26.399999999999999,0.97023282585960269
-26.392499999999998,0.74080045733952904
-26.384999999999998,0.63912780423442339
-26.377499999999998,0.63946225375121646
-26.369999999999997,0.63946225375121646
-26.362499999999997,0.63946225375121646
-26.354999999999997,0.63912780423442339
-26.347499999999997,0.63979670326800964
-26.34,0.63912780423442372
-26.3325,0.63946225375121646
-26.324999999999999,0.63979670326800964
-26.317499999999999,0.63912780423442339
-26.309999999999999,0.63912780423442339
-26.302499999999998,0.63946225375121646
-26.294999999999998,0.64013115278480281
-26.287499999999998,0.63946225375121646
-26.279999999999998,0.63979670326800964
-26.272499999999997,0.63946225375121646
-26.264999999999997,0.63946225375121646
-26.257499999999997,0.63879335471763032
-26.249999999999996,0.63912780423442339
-26.2425,0.63946225375121646
-26.234999999999999,0.63946225375121646
-26.227499999999999,0.63979670326800964
