week4/data/neuron_recordings/neuron_spike_Iin_1000nA.csv

#Digilent WaveForms Oscilloscope Acquisition
#Device Name: Discovery
#Serial Number: SN:210244631383
#Date Time: 2018-02-26 11:31:03.106
#Trigger:Source: Channel 1Type: EdgeCondition: RisingLevel: 0 VHyst.: AutoHoldOff: 0 s
#Channel 1: Range: 200 mV/div Offset: -1 V

Time (s),Channel 1 (V)
-29.999999999999996,0.99464764058549981
-29.992499999999996,0.97056727537639587
-29.984999999999999,0.97056727537639587
-29.977499999999999,0.97056727537639587
-29.969999999999999,0.97023282585960269
-29.962499999999999,0.97056727537639587
-29.954999999999998,0.97056727537639587
-29.947499999999998,0.97090172489318893
-29.939999999999998,0.97056727537639587
-29.932499999999997,0.97056727537639587
-29.924999999999997,0.97056727537639587
-29.917499999999997,0.97056727537639587
-29.909999999999997,0.97090172489318893
-29.902499999999996,0.97056727537639587
-29.895,0.97023282585960269
-29.887499999999999,0.97023282585960269
-29.879999999999999,0.97056727537639587
-29.872499999999999,0.97023282585960269
-29.864999999999998,0.97056727537639587
-29.857499999999998,0.97056727537639587
-29.849999999999998,0.97056727537639587
-29.842499999999998,0.97056727537639587
-29.834999999999997,0.97023282585960269
-29.827499999999997,0.97056727537639587
-29.819999999999997,0.97056727537639587
-29.812499999999996,0.97023282585960269
-29.804999999999996,0.97056727537639587
-29.797499999999999,0.97056727537639587
-29.789999999999999,0.97056727537639587
-29.782499999999999,0.97056727537639587
-29.774999999999999,0.97056727537639587
-29.767499999999998,0.97056727537639587
-29.759999999999998,0.97056727537639587
-29.752499999999998,0.97023282585960269
-29.744999999999997,0.97056727537639587
-29.737499999999997,0.97023282585960269
-29.729999999999997,0.97056727537639587
-29.722499999999997,0.97023282585960269
-29.714999999999996,0.97023282585960269
-29.7075,0.97056727537639587
-29.699999999999999,0.97056727537639587
-29.692499999999999,0.97056727537639587
-29.684999999999999,0.97056727537639587
-29.677499999999998,0.97056727537639587
-29.669999999999998,0.97056727537639587
-29.662499999999998,0.97056727537639587
-29.654999999999998,0.97056727537639587
-29.647499999999997,0.97023282585960269
-29.639999999999997,0.97056727537639587
-29.632499999999997,0.97056727537639587
-29.624999999999996,0.97056727537639587
-29.617499999999996,0.97056727537639575
-29.609999999999999,0.97023282585960269
-29.602499999999999,0.97056727537639587
-29.594999999999999,0.97056727537639587
-29.587499999999999,0.97056727537639587
-29.579999999999998,0.97056727537639587
-29.572499999999998,0.97056727537639587
-29.564999999999998,0.97056727537639587
-29.557499999999997,0.97056727537639587
-29.549999999999997,0.97023282585960269
-29.542499999999997,0.97023282585960269
-29.534999999999997,0.97023282585960269
-29.527499999999996,0.97056727537639587
-29.52,0.97056727537639587
-29.512499999999999,0.97056727537639587
-29.504999999999999,0.97056727537639587
-29.497499999999999,0.97056727537639587
-29.489999999999998,0.97056727537639587
-29.482499999999998,0.97056727537639587
-29.474999999999998,0.97056727537639587
-29.467499999999998,0.97056727537639587
-29.459999999999997,0.97056727537639587
-29.452499999999997,0.97023282585960269
-29.444999999999997,0.97056727537639587
-29.437499999999996,0.97056727537639587
-29.429999999999996,0.97090172489318904
-29.422499999999999,0.97123617440998211
-29.414999999999999,0.97090172489318893
-29.407499999999999,0.97090172489318893
-29.399999999999999,0.97090172489318893
-29.392499999999998,0.97090172489318893
-29.384999999999998,0.97056727537639587
-29.377499999999998,0.97090172489318893
-29.369999999999997,0.97056727537639587
-29.362499999999997,0.97056727537639587
-29.354999999999997,0.97056727537639587
-29.347499999999997,0.97056727537639587
-29.339999999999996,0.97056727537639587
-29.3325,0.97056727537639587
-29.324999999999999,0.97056727537639587
-29.317499999999999,0.97056727537639587
-29.309999999999999,0.97056727537639587
-29.302499999999998,0.97123617440998211
-29.294999999999998,0.97090172489318893
-29.287499999999998,0.97090172489318893
-29.279999999999998,0.97090172489318893
-29.272499999999997,0.97090172489318893
-29.264999999999997,0.97056727537639587
-29.257499999999997,0.97056727537639587
-29.249999999999996,0.97056727537639587
-29.242499999999996,0.97056727537639575
-29.234999999999999,0.97023282585960269
-29.227499999999999,0.97056727537639587
-29.219999999999999,0.97056727537639587
-29.212499999999999,0.97056727537639587
-29.204999999999998,0.97056727537639587
-29.197499999999998,0.97056727537639587
-29.189999999999998,0.97056727537639587
-29.182499999999997,0.97056727537639587
-29.174999999999997,0.97056727537639587
-29.167499999999997,0.97023282585960269
-29.159999999999997,0.97056727537639587
-29.152499999999996,0.97056727537639587
-29.145,0.97056727537639587
-29.137499999999999,0.97056727537639587
-29.129999999999999,0.97056727537639587
-29.122499999999999,0.97056727537639587
-29.114999999999998,0.97056727537639587
-29.107499999999998,0.97023282585960269
-29.099999999999998,0.97023282585960269
-29.092499999999998,0.97056727537639587
-29.084999999999997,0.97056727537639587
-29.077499999999997,0.97056727537639587
-29.069999999999997,0.97023282585960269
-29.062499999999996,0.97056727537639587
-29.054999999999996,0.97056727537639587
-29.047499999999999,0.97056727537639587
-29.039999999999999,0.97056727537639587
-29.032499999999999,0.97056727537639587
-29.024999999999999,0.97023282585960269
-29.017499999999998,0.97056727537639587
-29.009999999999998,0.97056727537639587
-29.002499999999998,0.97056727537639587
-28.994999999999997,0.97056727537639587
-28.987499999999997,0.97023282585960269
-28.979999999999997,0.97056727537639587
-28.972499999999997,0.97056727537639587
-28.964999999999996,0.97056727537639587
-28.9575,0.97056727537639587
-28.949999999999999,0.97023282585960269
-28.942499999999999,0.97056727537639587
-28.934999999999999,0.97023282585960269
-28.927499999999998,0.97056727537639587
-28.919999999999998,0.97056727537639587
-28.912499999999998,0.97056727537639587
-28.904999999999998,0.97056727537639587
-28.897499999999997,0.97023282585960269
-28.889999999999997,0.97023282585960269
-28.882499999999997,0.97056727537639587
-28.874999999999996,0.97056727537639587
-28.8675,0.97056727537639587
-28.859999999999999,0.97023282585960269
-28.852499999999999,0.97056727537639587
-28.844999999999999,0.97056727537639587
-28.837499999999999,0.97023282585960269
-28.829999999999998,0.97023282585960269
-28.822499999999998,0.97056727537639587
-28.814999999999998,0.97056727537639587
-28.807499999999997,0.97023282585960269
-28.799999999999997,0.97023282585960269
-28.792499999999997,0.97023282585960269
-28.784999999999997,0.97023282585960269
-28.777499999999996,0.97023282585960269
-28.77,0.96989837634280962
-28.762499999999999,0.97023282585960269
-28.754999999999999,0.97023282585960269
-28.747499999999999,0.97023282585960269
-28.739999999999998,0.97056727537639587
-28.732499999999998,0.97056727537639587
-28.724999999999998,0.97056727537639587
-28.717499999999998,0.97090172489318893
-28.709999999999997,0.97023282585960269
-28.702499999999997,0.97023282585960269
-28.694999999999997,0.97023282585960269
-28.687499999999996,0.97056727537639587
-28.68,0.97056727537639587
-28.672499999999999,0.97023282585960269
-28.664999999999999,0.97023282585960269
-28.657499999999999,0.97023282585960269
-28.649999999999999,0.97056727537639587
-28.642499999999998,0.97056727537639587
-28.634999999999998,0.97056727537639587
-28.627499999999998,0.97056727537639587
-28.619999999999997,0.97023282585960269
-28.612499999999997,0.97056727537639587
-28.604999999999997,0.97090172489318893
-28.597499999999997,0.97056727537639587
-28.589999999999996,0.97056727537639587
-28.5825,0.97056727537639587
-28.574999999999999,0.97023282585960269
-28.567499999999999,0.97056727537639587
-28.559999999999999,0.97056727537639587
-28.552499999999998,0.97056727537639587
-28.544999999999998,0.97056727537639587
-28.537499999999998,0.97056727537639587
-28.529999999999998,0.97056727537639587
-28.522499999999997,0.97056727537639587
-28.514999999999997,0.97056727537639587
-28.507499999999997,0.97056727537639587
-28.499999999999996,0.97023282585960269
-28.4925,0.97056727537639575
-28.484999999999999,0.97056727537639587
-28.477499999999999,0.97023282585960269
-28.469999999999999,0.97023282585960269
-28.462499999999999,0.97023282585960269
-28.454999999999998,0.97023282585960269
-28.447499999999998,0.97023282585960269
-28.439999999999998,0.97023282585960269
-28.432499999999997,0.97023282585960269
-28.424999999999997,0.97023282585960269
-28.417499999999997,0.97056727537639587
-28.409999999999997,0.97090172489318893
-28.402499999999996,0.97023282585960269
-28.395,0.97023282585960269
-28.387499999999999,0.97023282585960269
-28.379999999999999,0.97056727537639587
-28.372499999999999,0.97023282585960269
-28.364999999999998,0.97023282585960269
-28.357499999999998,0.97023282585960269
-28.349999999999998,0.97056727537639587
-28.342499999999998,0.97056727537639587
-28.334999999999997,0.97056727537639587
-28.327499999999997,0.97056727537639587
-28.319999999999997,0.97023282585960269
-28.312499999999996,0.97056727537639587
-28.305,0.9702328258596028
-28.297499999999999,0.97056727537639587
-28.289999999999999,0.97056727537639587
-28.282499999999999,0.97056727537639587
-28.274999999999999,0.97056727537639587
-28.267499999999998,0.97056727537639587
-28.259999999999998,0.97023282585960269
-28.252499999999998,0.97023282585960269
-28.244999999999997,0.97056727537639587
-28.237499999999997,0.97056727537639587
-28.229999999999997,0.97056727537639587
-28.222499999999997,0.97023282585960269
-28.214999999999996,0.96989837634280962
-28.2075,0.96989837634280962
-28.199999999999999,0.97023282585960269
-28.192499999999999,0.97023282585960269
-28.184999999999999,0.97056727537639587
-28.177499999999998,0.97023282585960269
-28.169999999999998,0.97056727537639587
-28.162499999999998,0.97056727537639587
-28.154999999999998,0.97056727537639587
-28.147499999999997,0.97056727537639587
-28.139999999999997,0.97023282585960269
-28.132499999999997,0.97023282585960269
-28.124999999999996,0.96989837634280962
-28.1175,0.97023282585960258
-28.109999999999999,0.97023282585960269
-28.102499999999999,0.97090172489318893
-28.094999999999999,0.97090172489318893
-28.087499999999999,0.97090172489318893
-28.079999999999998,0.97056727537639587
-28.072499999999998,0.97056727537639587
-28.064999999999998,0.97056727537639587
-28.057499999999997,0.97056727537639587
-28.049999999999997,0.97056727537639587
-28.042499999999997,0.97056727537639587
-28.034999999999997,0.97023282585960269
-28.027499999999996,0.97056727537639587
-28.02,0.97056727537639587
-28.012499999999999,0.97056727537639587
-28.004999999999999,0.97056727537639587
-27.997499999999999,0.97056727537639587
-27.989999999999998,0.97056727537639587
-27.982499999999998,0.97056727537639587
-27.974999999999998,0.97056727537639587
-27.967499999999998,0.97023282585960269
-27.959999999999997,0.97056727537639587
-27.952499999999997,0.97056727537639587
-27.944999999999997,0.97056727537639587
-27.937499999999996,0.97023282585960269
-27.93,0.97023282585960269
-27.922499999999999,0.97023282585960269
-27.914999999999999,0.97056727537639587
-27.907499999999999,0.97023282585960269
-27.899999999999999,0.97056727537639587
-27.892499999999998,0.97056727537639587
-27.884999999999998,0.97023282585960269
-27.877499999999998,0.97056727537639587
-27.869999999999997,0.97056727537639587
-27.862499999999997,0.97056727537639587
-27.854999999999997,0.97023282585960269
-27.847499999999997,0.97056727537639587
-27.839999999999996,0.97023282585960258
-27.8325,0.96989837634280962
-27.824999999999999,0.97023282585960269
-27.817499999999999,0.97023282585960269
-27.809999999999999,0.97023282585960269
-27.802499999999998,0.97023282585960269
-27.794999999999998,0.97023282585960269
-27.787499999999998,0.97023282585960269
-27.779999999999998,0.97023282585960269
-27.772499999999997,0.97056727537639587
-27.764999999999997,0.97023282585960269
-27.757499999999997,0.97056727537639587
-27.749999999999996,0.97056727537639587
-27.7425,0.97023282585960269
-27.734999999999999,0.97023282585960269
-27.727499999999999,0.97023282585960269
-27.719999999999999,0.97023282585960269
-27.712499999999999,0.97023282585960269
-27.704999999999998,0.97023282585960269
-27.697499999999998,0.97056727537639587
-27.689999999999998,0.97023282585960269
-27.682499999999997,0.97023282585960269
-27.674999999999997,0.97023282585960269
-27.667499999999997,0.97056727537639587
-27.659999999999997,0.97056727537639587
-27.652499999999996,0.97023282585960269
-27.645,0.97023282585960269
-27.637499999999999,0.97023282585960269
-27.629999999999999,0.97023282585960269
-27.622499999999999,0.97056727537639587
-27.614999999999998,0.97023282585960269
-27.607499999999998,0.97023282585960269
-27.599999999999998,0.97023282585960269
-27.592499999999998,0.97023282585960269
-27.584999999999997,0.97023282585960269
-27.577499999999997,0.97023282585960269
-27.569999999999997,0.96989837634280962
-27.562499999999996,0.97056727537639587
-27.555,0.97056727537639587
-27.547499999999999,0.97056727537639587
-27.539999999999999,0.97056727537639587
-27.532499999999999,0.97056727537639587
-27.524999999999999,0.97056727537639587
-27.517499999999998,0.97023282585960269
-27.509999999999998,0.97056727537639587
-27.502499999999998,0.97056727537639587
-27.494999999999997,0.97056727537639587
-27.487499999999997,0.97056727537639587
-27.479999999999997,0.97056727537639587
-27.472499999999997,0.97023282585960269
-27.464999999999996,0.97090172489318882
-27.4575,0.97056727537639587
-27.449999999999999,0.97090172489318893
-27.442499999999999,0.97056727537639587
-27.434999999999999,0.97056727537639587
-27.427499999999998,0.97056727537639587
-27.419999999999998,0.97023282585960269
-27.412499999999998,0.97056727537639587
-27.404999999999998,0.97056727537639587
-27.397499999999997,0.97056727537639587
-27.389999999999997,0.97023282585960269
-27.382499999999997,0.97056727537639587
-27.374999999999996,0.97090172489318893
-27.3675,0.97056727537639587
-27.359999999999999,0.97056727537639587
-27.352499999999999,0.97056727537639587
-27.344999999999999,0.97023282585960269
-27.337499999999999,0.97056727537639587
-27.329999999999998,0.97056727537639587
-27.322499999999998,0.97056727537639587
-27.314999999999998,0.97056727537639587
-27.307499999999997,0.97056727537639587
-27.299999999999997,0.97023282585960269
-27.292499999999997,0.97056727537639587
-27.284999999999997,0.97056727537639587
-27.277499999999996,0.9702328258596028
-27.27,0.97056727537639587
-27.262499999999999,0.97056727537639587
-27.254999999999999,0.97056727537639587
-27.247499999999999,0.97023282585960269
-27.239999999999998,0.97023282585960269
-27.232499999999998,0.97023282585960269
-27.224999999999998,0.97056727537639587
-27.217499999999998,0.97023282585960269
-27.209999999999997,0.97023282585960269
-27.202499999999997,0.97023282585960269
-27.194999999999997,0.97056727537639587
-27.187499999999996,0.97056727537639587
-27.18,0.97056727537639587
-27.172499999999999,0.97023282585960269
-27.164999999999999,0.97056727537639587
-27.157499999999999,0.97056727537639587
-27.149999999999999,0.97090172489318893
-27.142499999999998,0.97090172489318893
-27.134999999999998,0.97056727537639587
-27.127499999999998,0.97056727537639587
-27.119999999999997,0.97023282585960269
-27.112499999999997,0.97023282585960269
-27.104999999999997,0.97023282585960269
-27.097499999999997,0.97056727537639587
-27.089999999999996,0.97023282585960269
-27.0825,0.97023282585960269
-27.074999999999999,0.97056727537639587
-27.067499999999999,0.97056727537639587
-27.059999999999999,0.97023282585960269
-27.052499999999998,0.97056727537639587
-27.044999999999998,0.97056727537639587
-27.037499999999998,0.97056727537639587
-27.029999999999998,0.97023282585960269
-27.022499999999997,0.97090172489318893
-27.014999999999997,0.97023282585960269
-27.007499999999997,0.97056727537639587
-26.999999999999996,0.97023282585960269
-26.9925,0.97056727537639587
-26.984999999999999,0.97056727537639587
-26.977499999999999,0.97023282585960269
-26.969999999999999,0.97023282585960269
-26.962499999999999,0.97056727537639587
-26.954999999999998,0.97056727537639587
-26.947499999999998,0.97023282585960269
-26.939999999999998,0.97056727537639587
-26.932499999999997,0.97023282585960269
-26.924999999999997,0.97023282585960269
-26.917499999999997,0.97023282585960269
-26.909999999999997,0.97023282585960269
-26.9025,0.97023282585960269
-26.895,0.97023282585960269
-26.887499999999999,0.97023282585960269
-26.879999999999999,0.97023282585960269
-26.872499999999999,0.97023282585960269
-26.864999999999998,0.97056727537639587
-26.857499999999998,0.97056727537639587
-26.849999999999998,0.97056727537639587
-26.842499999999998,0.97056727537639587
-26.834999999999997,0.97056727537639587
-26.827499999999997,0.97056727537639587
-26.819999999999997,0.97056727537639587
-26.812499999999996,0.97090172489318893
-26.805,0.97090172489318893
-26.797499999999999,0.97056727537639587
-26.789999999999999,0.97056727537639587
-26.782499999999999,0.97056727537639587
-26.774999999999999,0.97056727537639587
-26.767499999999998,0.97056727537639587
-26.759999999999998,0.97056727537639587
-26.752499999999998,0.97090172489318893
-26.744999999999997,0.97090172489318893
-26.737499999999997,0.97056727537639587
-26.729999999999997,0.97056727537639587
-26.722499999999997,0.97056727537639587
-26.715,0.97056727537639587
-26.7075,0.97056727537639587
-26.699999999999999,0.97023282585960269
-26.692499999999999,0.97023282585960269
-26.684999999999999,0.97023282585960269
-26.677499999999998,0.97056727537639587
-26.669999999999998,0.97056727537639587
-26.662499999999998,0.97056727537639587
-26.654999999999998,0.97056727537639587
-26.647499999999997,0.97056727537639587
-26.639999999999997,0.97056727537639587
-26.632499999999997,0.97056727537639587
-26.624999999999996,0.97056727537639587
-26.6175,0.97023282585960269
-26.609999999999999,0.97023282585960269
-26.602499999999999,0.97023282585960269
-26.594999999999999,0.97023282585960269
-26.587499999999999,0.97056727537639587
-26.579999999999998,0.97023282585960269
-26.572499999999998,0.97023282585960269
-26.564999999999998,0.97023282585960269
-26.557499999999997,0.97023282585960269
-26.549999999999997,0.97023282585960269
-26.542499999999997,0.97023282585960269
-26.534999999999997,0.97023282585960269
-26.5275,0.97056727537639575
-26.52,0.97056727537639587
-26.512499999999999,0.97023282585960269
-26.504999999999999,0.97023282585960269
-26.497499999999999,0.96989837634280962
-26.489999999999998,0.96989837634280962
-26.482499999999998,0.96956392682601655
-26.474999999999998,0.96989837634280962
-26.467499999999998,0.97023282585960269
-26.459999999999997,0.97023282585960269
-26.452499999999997,0.97023282585960269
-26.444999999999997,0.97023282585960269
-26.437499999999996,0.96989837634280962
-26.43,0.97023282585960269
-26.422499999999999,0.96989837634280962
-26.414999999999999,0.97023282585960269
-26.407499999999999,0.97023282585960269
-26.399999999999999,0.97023282585960269
-26.392499999999998,0.97056727537639587
-26.384999999999998,0.97023282585960269
-26.377499999999998,0.97023282585960269
-26.369999999999997,0.97056727537639587
-26.362499999999997,0.96989837634280962
-26.354999999999997,0.97023282585960269
-26.347499999999997,0.97056727537639587
-26.34,0.9702328258596028
-26.3325,0.97023282585960269
-26.324999999999999,0.97056727537639587
-26.317499999999999,0.97056727537639587
-26.309999999999999,0.97023282585960269
-26.302499999999998,0.97023282585960269
-26.294999999999998,0.97023282585960269
-26.287499999999998,0.97023282585960269
-26.279999999999998,0.97023282585960269
-26.272499999999997,0.97023282585960269
-26.264999999999997,0.97056727537639587
-26.257499999999997,0.97023282585960269
-26.249999999999996,0.97023282585960269
-26.2425,0.97023282585960269
-26.234999999999999,0.97056727537639587
-26.227499999999999,0.97023282585960269
