week4/data/neuron_recordings/neuron_spike_Iin_50nA.csv

#Digilent WaveForms Oscilloscope Acquisition
#Device Name: Discovery
#Serial Number: SN:210244631383
#Date Time: 2018-02-26 11:08:33.659
#Trigger:Source: Channel 1Type: EdgeCondition: RisingLevel: 0 VHyst.: AutoHoldOff: 0 s
#Channel 1: Range: 200 mV/div Offset: -1 V

Time (s),Channel 1 (V)
-29.999999999999996,0.86621902613694535
-29.992499999999996,0.71437894551287318
-29.984999999999999,0.71404449599608011
-29.977499999999999,0.71404449599608011
-29.969999999999999,0.71404449599608011
-29.962499999999999,0.71437894551287329
-29.954999999999998,0.71437894551287329
-29.947499999999998,0.71437894551287329
-29.939999999999998,0.71437894551287329
-29.932499999999997,0.71437894551287329
-29.924999999999997,0.71437894551287329
-29.917499999999997,0.71437894551287329
-29.909999999999997,0.71371004647928704
-29.902499999999996,0.71437894551287329
-29.895,0.71404449599608011
-29.887499999999999,0.71437894551287329
-29.879999999999999,0.71437894551287329
-29.872499999999999,0.71437894551287329
-29.864999999999998,0.71471339502966635
-29.857499999999998,0.71504784454645942
-29.849999999999998,0.71504784454645942
-29.842499999999998,0.71471339502966635
-29.834999999999997,0.71504784454645942
-29.827499999999997,0.7153822940632526
-29.819999999999997,0.7153822940632526
-29.812499999999996,0.7153822940632526
-29.804999999999996,0.7153822940632526
-29.797499999999999,0.7153822940632526
-29.789999999999999,0.71504784454645942
-29.782499999999999,0.7153822940632526
-29.774999999999999,0.7153822940632526
-29.767499999999998,0.7153822940632526
-29.759999999999998,0.71504784454645942
-29.752499999999998,0.71571674358004567
-29.744999999999997,0.7153822940632526
-29.737499999999997,0.7153822940632526
-29.729999999999997,0.71504784454645942
-29.722499999999997,0.71504784454645942
-29.714999999999996,0.71504784454645942
-29.7075,0.7153822940632526
-29.699999999999999,0.7153822940632526
-29.692499999999999,0.7153822940632526
-29.684999999999999,0.7153822940632526
-29.677499999999998,0.7153822940632526
-29.669999999999998,0.71504784454645942
-29.662499999999998,0.7153822940632526
-29.654999999999998,0.7153822940632526
-29.647499999999997,0.71571674358004567
-29.639999999999997,0.7153822940632526
-29.632499999999997,0.7153822940632526
-29.624999999999996,0.71605119309683873
-29.617499999999996,0.71605119309683884
-29.609999999999999,0.71638564261363191
-29.602499999999999,0.71605119309683873
-29.594999999999999,0.71638564261363191
-29.587499999999999,0.71705454164721816
-29.579999999999998,0.71605119309683873
-29.572499999999998,0.71638564261363191
-29.564999999999998,0.71605119309683873
-29.557499999999997,0.71605119309683873
-29.549999999999997,0.71605119309683873
-29.542499999999997,0.71638564261363191
-29.534999999999997,0.71705454164721816
-29.527499999999996,0.71638564261363191
-29.52,0.71705454164721816
-29.512499999999999,0.71672009213042509
-29.504999999999999,0.71638564261363191
-29.497499999999999,0.71672009213042509
-29.489999999999998,0.71605119309683873
-29.482499999999998,0.71672009213042509
-29.474999999999998,0.71605119309683873
-29.467499999999998,0.71705454164721816
-29.459999999999997,0.71638564261363191
-29.452499999999997,0.71638564261363191
-29.444999999999997,0.71638564261363191
-29.437499999999996,0.71605119309683873
-29.429999999999996,0.71605119309683873
-29.422499999999999,0.71605119309683873
-29.414999999999999,0.71571674358004567
-29.407499999999999,0.71638564261363191
-29.399999999999999,0.71672009213042509
-29.392499999999998,0.71672009213042509
-29.384999999999998,0.71672009213042509
-29.377499999999998,0.71705454164721816
-29.369999999999997,0.71738899116401122
-29.362499999999997,0.71672009213042509
-29.354999999999997,0.71805789019759747
-29.347499999999997,0.71672009213042509
-29.339999999999996,0.71672009213042509
-29.3325,0.71672009213042509
-29.324999999999999,0.71672009213042509
-29.317499999999999,0.7177234406808044
-29.309999999999999,0.71738899116401122
-29.302499999999998,0.71738899116401122
-29.294999999999998,0.71705454164721816
-29.287499999999998,0.71738899116401122
-29.279999999999998,0.71705454164721816
-29.272499999999997,0.7177234406808044
-29.264999999999997,0.71705454164721816
-29.257499999999997,0.7177234406808044
-29.249999999999996,0.71738899116401122
-29.242499999999996,0.71705454164721827
-29.234999999999999,0.71738899116401122
-29.227499999999999,0.7177234406808044
-29.219999999999999,0.71872678923118372
-29.212499999999999,0.71705454164721816
-29.204999999999998,0.71805789019759747
-29.197499999999998,0.71738899116401122
-29.189999999999998,0.71839233971439054
-29.182499999999997,0.71973013778156303
-29.174999999999997,0.72006458729835621
-29.167499999999997,0.98528305411529271
-29.159999999999997,0.98361080653132715
-29.152499999999996,0.98227300846415466
-29.145,0.97993186184660297
-29.137499999999999,0.97825961426263741
-29.129999999999999,0.97458066957791312
-29.122499999999999,0.97257397247715449
-29.114999999999998,0.8926405379636011
-29.107499999999998,0.71337559696249397
-29.099999999999998,0.71337559696249397
-29.092499999999998,0.7130411474457008
-29.084999999999997,0.71337559696249397
-29.077499999999997,0.71371004647928704
-29.069999999999997,0.71337559696249397
-29.062499999999996,0.71337559696249397
-29.054999999999996,0.71304114744570091
-29.047499999999999,0.71337559696249397
-29.039999999999999,0.71337559696249397
-29.032499999999999,0.71337559696249397
-29.024999999999999,0.71337559696249397
-29.017499999999998,0.71337559696249397
-29.009999999999998,0.71337559696249397
-29.002499999999998,0.7130411474457008
-28.994999999999997,0.7130411474457008
-28.987499999999997,0.71337559696249397
-28.979999999999997,0.71337559696249397
-28.972499999999997,0.71337559696249397
-28.964999999999996,0.71337559696249397
-28.9575,0.71337559696249397
-28.949999999999999,0.71371004647928704
-28.942499999999999,0.71337559696249397
-28.934999999999999,0.71337559696249397
-28.927499999999998,0.71337559696249397
-28.919999999999998,0.71337559696249397
-28.912499999999998,0.71337559696249397
-28.904999999999998,0.71337559696249397
-28.897499999999997,0.71337559696249397
-28.889999999999997,0.7130411474457008
-28.882499999999997,0.7130411474457008
-28.874999999999996,0.71337559696249397
-28.8675,0.71337559696249397
-28.859999999999999,0.71337559696249397
-28.852499999999999,0.71371004647928704
-28.844999999999999,0.71371004647928704
-28.837499999999999,0.71337559696249397
-28.829999999999998,0.71371004647928704
-28.822499999999998,0.71337559696249397
-28.814999999999998,0.71337559696249397
-28.807499999999997,0.71337559696249397
-28.799999999999997,0.7130411474457008
-28.792499999999997,0.71337559696249397
-28.784999999999997,0.71371004647928704
-28.777499999999996,0.71371004647928704
-28.77,0.71371004647928704
-28.762499999999999,0.71371004647928704
-28.754999999999999,0.71371004647928704
-28.747499999999999,0.71371004647928704
-28.739999999999998,0.71337559696249397
-28.732499999999998,0.71371004647928704
-28.724999999999998,0.71371004647928704
-28.717499999999998,0.71371004647928704
-28.709999999999997,0.71371004647928704
-28.702499999999997,0.71337559696249397
-28.694999999999997,0.71337559696249397
-28.687499999999996,0.71371004647928704
-28.68,0.71371004647928704
-28.672499999999999,0.71371004647928704
-28.664999999999999,0.71371004647928704
-28.657499999999999,0.71404449599608011
-28.649999999999999,0.71371004647928704
-28.642499999999998,0.71371004647928704
-28.634999999999998,0.71371004647928704
-28.627499999999998,0.71371004647928704
-28.619999999999997,0.71371004647928704
-28.612499999999997,0.71404449599608011
-28.604999999999997,0.71404449599608011
-28.597499999999997,0.71371004647928704
-28.589999999999996,0.71371004647928704
-28.5825,0.71404449599608011
-28.574999999999999,0.71404449599608011
-28.567499999999999,0.71404449599608011
-28.559999999999999,0.71437894551287329
-28.552499999999998,0.71404449599608011
-28.544999999999998,0.71437894551287329
-28.537499999999998,0.71437894551287329
-28.529999999999998,0.71437894551287329
-28.522499999999997,0.71437894551287329
-28.514999999999997,0.71437894551287329
-28.507499999999997,0.71437894551287329
-28.499999999999996,0.71471339502966635
-28.4925,0.71471339502966635
-28.484999999999999,0.71437894551287329
-28.477499999999999,0.71404449599608011
-28.469999999999999,0.71471339502966635
-28.462499999999999,0.71471339502966635
-28.454999999999998,0.71437894551287329
-28.447499999999998,0.71437894551287329
-28.439999999999998,0.71471339502966635
-28.432499999999997,0.71437894551287329
-28.424999999999997,0.71437894551287329
-28.417499999999997,0.71437894551287329
-28.409999999999997,0.71471339502966635
-28.402499999999996,0.71504784454645942
-28.395,0.71471339502966635
-28.387499999999999,0.71504784454645942
-28.379999999999999,0.7153822940632526
-28.372499999999999,0.71471339502966635
-28.364999999999998,0.71504784454645942
-28.357499999999998,0.71471339502966635
-28.349999999999998,0.71504784454645942
-28.342499999999998,0.71504784454645942
-28.334999999999997,0.7153822940632526
-28.327499999999997,0.71504784454645942
-28.319999999999997,0.71504784454645942
-28.312499999999996,0.7153822940632526
-28.305,0.71504784454645953
-28.297499999999999,0.7153822940632526
-28.289999999999999,0.7153822940632526
-28.282499999999999,0.71571674358004567
-28.274999999999999,0.7153822940632526
-28.267499999999998,0.71504784454645942
-28.259999999999998,0.7153822940632526
-28.252499999999998,0.7153822940632526
-28.244999999999997,0.71571674358004567
-28.237499999999997,0.71571674358004567
-28.229999999999997,0.7153822940632526
-28.222499999999997,0.7153822940632526
-28.214999999999996,0.7153822940632526
-28.2075,0.7153822940632526
-28.199999999999999,0.7153822940632526
-28.192499999999999,0.71571674358004567
-28.184999999999999,0.71504784454645942
-28.177499999999998,0.71504784454645942
-28.169999999999998,0.7153822940632526
-28.162499999999998,0.7153822940632526
-28.154999999999998,0.7153822940632526
-28.147499999999997,0.7153822940632526
-28.139999999999997,0.71571674358004567
-28.132499999999997,0.71605119309683873
-28.124999999999996,0.71605119309683873
-28.1175,0.7163856426136318
-28.109999999999999,0.71672009213042509
-28.102499999999999,0.7177234406808044
-28.094999999999999,0.71672009213042509
-28.087499999999999,0.71571674358004567
-28.079999999999998,0.71571674358004567
-28.072499999999998,0.71672009213042509
-28.064999999999998,0.71605119309683873
-28.057499999999997,0.71638564261363191
-28.049999999999997,0.71638564261363191
-28.042499999999997,0.71672009213042509
-28.034999999999997,0.71638564261363191
-28.027499999999996,0.71638564261363191
-28.02,0.71638564261363191
-28.012499999999999,0.71705454164721816
-28.004999999999999,0.71705454164721816
-27.997499999999999,0.71672009213042509
-27.989999999999998,0.71705454164721816
-27.982499999999998,0.71672009213042509
-27.974999999999998,0.71672009213042509
-27.967499999999998,0.71705454164721816
-27.959999999999997,0.71638564261363191
-27.952499999999997,0.7177234406808044
-27.944999999999997,0.71672009213042509
-27.937499999999996,0.71705454164721816
-27.93,0.71571674358004567
-27.922499999999999,0.71571674358004567
-27.914999999999999,0.71571674358004567
-27.907499999999999,0.71571674358004567
-27.899999999999999,0.71571674358004567
-27.892499999999998,0.71571674358004567
-27.884999999999998,0.71638564261363191
-27.877499999999998,0.71605119309683873
-27.869999999999997,0.71571674358004567
-27.862499999999997,0.71571674358004567
-27.854999999999997,0.71672009213042509
-27.847499999999997,0.71605119309683873
-27.839999999999996,0.71605119309683873
-27.8325,0.71605119309683873
-27.824999999999999,0.71571674358004567
-27.817499999999999,0.71571674358004567
-27.809999999999999,0.71605119309683873
-27.802499999999998,0.71705454164721816
-27.794999999999998,0.71605119309683873
-27.787499999999998,0.71738899116401122
-27.779999999999998,0.71672009213042509
-27.772499999999997,0.71638564261363191
-27.764999999999997,0.71638564261363191
-27.757499999999997,0.71638564261363191
-27.749999999999996,0.71638564261363191
-27.7425,0.71638564261363191
-27.734999999999999,0.71672009213042509
-27.727499999999999,0.71605119309683873
-27.719999999999999,0.71605119309683873
-27.712499999999999,0.7153822940632526
-27.704999999999998,0.71571674358004567
-27.697499999999998,0.71571674358004567
-27.689999999999998,0.71605119309683873
-27.682499999999997,0.71605119309683873
-27.674999999999997,0.71571674358004567
-27.667499999999997,0.71605119309683873
-27.659999999999997,0.71571674358004567
-27.652499999999996,0.71571674358004578
-27.645,0.71605119309683873
-27.637499999999999,0.71638564261363191
-27.629999999999999,0.71638564261363191
-27.622499999999999,0.71672009213042509
-27.614999999999998,0.71605119309683873
-27.607499999999998,0.71638564261363191
-27.599999999999998,0.71638564261363191
-27.592499999999998,0.71571674358004567
-27.584999999999997,0.71738899116401122
-27.577499999999997,0.71605119309683873
-27.569999999999997,0.71672009213042509
-27.562499999999996,0.71605119309683873
-27.555,0.71638564261363191
-27.547499999999999,0.71571674358004567
-27.539999999999999,0.71672009213042509
-27.532499999999999,0.71605119309683873
-27.524999999999999,0.71638564261363191
-27.517499999999998,0.71638564261363191
-27.509999999999998,0.71672009213042509
-27.502499999999998,0.71638564261363191
-27.494999999999997,0.71605119309683873
-27.487499999999997,0.71705454164721816
-27.479999999999997,0.71638564261363191
-27.472499999999997,0.71738899116401122
-27.464999999999996,0.71638564261363225
-27.4575,0.71705454164721816
-27.449999999999999,0.71672009213042509
-27.442499999999999,0.71738899116401122
-27.434999999999999,0.71705454164721816
-27.427499999999998,0.71672009213042509
-27.419999999999998,0.71705454164721816
-27.412499999999998,0.71805789019759747
-27.404999999999998,0.71738899116401122
-27.397499999999997,0.71738899116401122
-27.389999999999997,0.7177234406808044
-27.382499999999997,0.71738899116401122
-27.374999999999996,0.71672009213042509
-27.3675,0.71738899116401122
-27.359999999999999,0.71638564261363191
-27.352499999999999,0.71705454164721816
-27.344999999999999,0.71638564261363191
-27.337499999999999,0.71705454164721816
-27.329999999999998,0.71738899116401122
-27.322499999999998,0.71672009213042509
-27.314999999999998,0.71672009213042509
-27.307499999999997,0.71638564261363191
-27.299999999999997,0.71638564261363191
-27.292499999999997,0.71672009213042509
-27.284999999999997,0.7177234406808044
-27.277499999999996,0.71705454164721849
-27.27,0.7177234406808044
-27.262499999999999,0.71738899116401122
-27.254999999999999,0.71705454164721816
-27.247499999999999,0.71705454164721816
-27.239999999999998,0.71839233971439054
-27.232499999999998,0.71705454164721816
-27.224999999999998,0.84247311044463458
-27.217499999999998,0.98361080653132715
-27.209999999999997,0.98227300846415466
-27.202499999999997,0.98093521039698228
-27.194999999999997,0.97792516474584423
-27.187499999999996,0.9749151190947063
-27.18,0.97056727537639587
-27.172499999999999,0.73912820975556337
-27.164999999999999,0.71270669792890762
-27.157499999999999,0.71270669792890762
-27.149999999999999,0.7130411474457008
-27.142499999999998,0.71270669792890762
-27.134999999999998,0.71270669792890762
-27.127499999999998,0.71270669792890762
-27.119999999999997,0.7130411474457008
-27.112499999999997,0.7130411474457008
-27.104999999999997,0.71270669792890762
-27.097499999999997,0.7130411474457008
-27.089999999999996,0.71270669792890762
-27.0825,0.71270669792890762
-27.074999999999999,0.7130411474457008
-27.067499999999999,0.7130411474457008
-27.059999999999999,0.7130411474457008
-27.052499999999998,0.7130411474457008
-27.044999999999998,0.71337559696249397
-27.037499999999998,0.7130411474457008
-27.029999999999998,0.71337559696249397
-27.022499999999997,0.7130411474457008
-27.014999999999997,0.71337559696249397
-27.007499999999997,0.7130411474457008
-26.999999999999996,0.71337559696249397
-26.9925,0.71337559696249397
-26.984999999999999,0.7130411474457008
-26.977499999999999,0.7130411474457008
-26.969999999999999,0.7130411474457008
-26.962499999999999,0.71337559696249397
-26.954999999999998,0.7130411474457008
-26.947499999999998,0.71337559696249397
-26.939999999999998,0.71337559696249397
-26.932499999999997,0.71337559696249397
-26.924999999999997,0.71371004647928704
-26.917499999999997,0.71337559696249397
-26.909999999999997,0.71337559696249397
-26.9025,0.71337559696249397
-26.895,0.71371004647928704
-26.887499999999999,0.71337559696249397
-26.879999999999999,0.71371004647928704
-26.872499999999999,0.71337559696249397
-26.864999999999998,0.71371004647928704
-26.857499999999998,0.71337559696249397
-26.849999999999998,0.71337559696249397
-26.842499999999998,0.71371004647928704
-26.834999999999997,0.71337559696249397
-26.827499999999997,0.71337559696249397
-26.819999999999997,0.71337559696249397
-26.812499999999996,0.71371004647928704
-26.805,0.71371004647928704
-26.797499999999999,0.71371004647928704
-26.789999999999999,0.71371004647928704
-26.782499999999999,0.71404449599608011
-26.774999999999999,0.71404449599608011
-26.767499999999998,0.71404449599608011
-26.759999999999998,0.71404449599608011
-26.752499999999998,0.71371004647928704
-26.744999999999997,0.71371004647928704
-26.737499999999997,0.71371004647928704
-26.729999999999997,0.71404449599608011
-26.722499999999997,0.71371004647928704
-26.715,0.71404449599608
-26.7075,0.71404449599608011
-26.699999999999999,0.71404449599608011
-26.692499999999999,0.71404449599608011
-26.684999999999999,0.71437894551287329
-26.677499999999998,0.71404449599608011
-26.669999999999998,0.71404449599608011
-26.662499999999998,0.71404449599608011
-26.654999999999998,0.71437894551287329
-26.647499999999997,0.71404449599608011
-26.639999999999997,0.71404449599608011
-26.632499999999997,0.71404449599608011
-26.624999999999996,0.71404449599608011
-26.6175,0.71404449599608011
-26.609999999999999,0.71404449599608011
-26.602499999999999,0.71404449599608011
-26.594999999999999,0.71404449599608011
-26.587499999999999,0.71371004647928704
-26.579999999999998,0.71404449599608011
-26.572499999999998,0.71437894551287329
-26.564999999999998,0.71404449599608011
-26.557499999999997,0.71437894551287329
-26.549999999999997,0.71437894551287329
-26.542499999999997,0.71437894551287329
-26.534999999999997,0.71437894551287329
-26.5275,0.71471339502966624
-26.52,0.71437894551287329
-26.512499999999999,0.71404449599608011
-26.504999999999999,0.71437894551287329
-26.497499999999999,0.71437894551287329
-26.489999999999998,0.71437894551287329
-26.482499999999998,0.71471339502966635
-26.474999999999998,0.71437894551287329
-26.467499999999998,0.7153822940632526
-26.459999999999997,0.71504784454645942
-26.452499999999997,0.71504784454645942
-26.444999999999997,0.71471339502966635
-26.437499999999996,0.71504784454645942
-26.43,0.71471339502966635
-26.422499999999999,0.71471339502966635
-26.414999999999999,0.71471339502966635
-26.407499999999999,0.7153822940632526
-26.399999999999999,0.7153822940632526
-26.392499999999998,0.71504784454645942
-26.384999999999998,0.7153822940632526
-26.377499999999998,0.7153822940632526
-26.369999999999997,0.71605119309683873
-26.362499999999997,0.71571674358004567
-26.354999999999997,0.71605119309683873
-26.347499999999997,0.71571674358004567
-26.34,0.71571674358004567
-26.3325,0.71605119309683873
-26.324999999999999,0.71571674358004567
-26.317499999999999,0.71638564261363191
-26.309999999999999,0.71605119309683873
-26.302499999999998,0.71605119309683873
-26.294999999999998,0.71605119309683873
-26.287499999999998,0.71571674358004567
-26.279999999999998,0.71605119309683873
-26.272499999999997,0.71638564261363191
-26.264999999999997,0.71705454164721816
-26.257499999999997,0.71638564261363191
-26.249999999999996,0.71605119309683873
-26.2425,0.71638564261363191
-26.234999999999999,0.71672009213042509
-26.227499999999999,0.71638564261363191
-26.219999999999999,0.71705454164721816
-26.212499999999999,0.71638564261363191
