week4/data/neuron_recordings/neuron_spike_Iin_0.1nA.csv

#Digilent WaveForms Oscilloscope Acquisition
#Device Name: Discovery
#Serial Number: SN:210244631383
#Date Time: 2018-02-26 11:21:14.680
#Trigger:Source: Channel 1Type: EdgeCondition: RisingLevel: 0 VHyst.: AutoHoldOff: 0 s
#Channel 1: Range: 200 mV/div Offset: -1 V

Time (s),Channel 1 (V)
-29.999999999999996,0.45919396419973002
-29.992499999999996,0.45919396419972958
-29.984999999999999,0.45819061564935071
-29.977499999999999,0.45986286323331627
-29.969999999999999,0.45819061564935071
-29.962499999999999,0.45919396419973002
-29.954999999999998,0.45819061564935071
-29.947499999999998,0.45885951468293684
-29.939999999999998,0.45885951468293684
-29.932499999999997,0.45919396419973002
-29.924999999999997,0.45919396419973002
-29.917499999999997,0.45919396419973002
-29.909999999999997,0.45952841371652309
-29.902499999999996,0.45852506516614377
-29.895,0.45919396419973002
-29.887499999999999,0.45852506516614377
-29.879999999999999,0.45919396419973002
-29.872499999999999,0.45919396419973002
-29.864999999999998,0.45952841371652309
-29.857499999999998,0.45852506516614377
-29.849999999999998,0.45885951468293684
-29.842499999999998,0.45885951468293684
-29.834999999999997,0.45852506516614377
-29.827499999999997,0.45986286323331627
-29.819999999999997,0.45852506516614377
-29.812499999999996,0.45952841371652309
-29.804999999999996,0.45885951468293712
-29.797499999999999,0.45952841371652309
-29.789999999999999,0.45819061564935071
-29.782499999999999,0.45852506516614377
-29.774999999999999,0.45919396419973002
-29.767499999999998,0.45852506516614377
-29.759999999999998,0.45952841371652309
-29.752499999999998,0.45852506516614377
-29.744999999999997,0.45919396419973002
-29.737499999999997,0.45819061564935071
-29.729999999999997,0.45852506516614377
-29.722499999999997,0.45785616613255753
-29.714999999999996,0.45852506516614377
-29.7075,0.45785616613255753
-29.699999999999999,0.45819061564935071
-29.692499999999999,0.45885951468293684
-29.684999999999999,0.45852506516614377
-29.677499999999998,0.45952841371652309
-29.669999999999998,0.45885951468293684
-29.662499999999998,0.45986286323331627
-29.654999999999998,0.45919396419973002
-29.647499999999997,0.45986286323331627
-29.639999999999997,0.46019731275010933
-29.632499999999997,0.4605317622669024
-29.624999999999996,0.46019731275010933
-29.617499999999996,0.4601973127501095
-29.609999999999999,0.4605317622669024
-29.602499999999999,0.4605317622669024
-29.594999999999999,0.46120066130048865
-29.587499999999999,0.46120066130048865
-29.579999999999998,0.46120066130048865
-29.572499999999998,0.46120066130048865
-29.564999999999998,0.46086621178369558
-29.557499999999997,0.46120066130048865
-29.549999999999997,0.46153511081728171
-29.542499999999997,0.46253845936766114
-29.534999999999997,0.46320735840124727
-29.527499999999996,0.46387625743483352
-29.52,0.4628729088844542
-29.512499999999999,0.46621740405238532
-29.504999999999999,0.4675552021195577
-29.497499999999999,0.46822410115314395
-29.489999999999998,0.46822410115314395
-29.482499999999998,0.46922744970352326
-29.474999999999998,0.4698963487371095
-29.467499999999998,0.47491309148900618
-29.459999999999997,0.79130233437528863
-29.452499999999997,0.96254048697336114
-29.444999999999997,0.96086823938939558
-29.437499999999996,0.95919599180543003
-29.429999999999996,0.95819264325505016
-29.422499999999999,0.95685484518787833
-29.414999999999999,0.95451369857032653
-29.407499999999999,0.95417924905353346
-29.399999999999999,0.9525070014695679
-29.392499999999998,0.95050030436880917
-29.384999999999998,0.94916250630163679
-29.377499999999998,0.94749025871767123
-29.369999999999997,0.9454835616169126
-29.362499999999997,0.9431424149993608
-29.354999999999997,0.940801268381809
-29.347499999999997,0.93745677321387788
-29.339999999999996,0.78628559162339196
-29.3325,0.45885951468293684
-29.324999999999999,0.45852506516614377
-29.317499999999999,0.45885951468293684
-29.309999999999999,0.45952841371652309
-29.302499999999998,0.45852506516614377
-29.294999999999998,0.45986286323331627
-29.287499999999998,0.45852506516614377
-29.279999999999998,0.45919396419973002
-29.272499999999997,0.45885951468293684
-29.264999999999997,0.45952841371652309
-29.257499999999997,0.45852506516614377
-29.249999999999996,0.45852506516614377
-29.242499999999996,0.45919396419972985
-29.234999999999999,0.45885951468293684
-29.227499999999999,0.45952841371652309
-29.219999999999999,0.45919396419973002
-29.212499999999999,0.45885951468293684
-29.204999999999998,0.45852506516614377
-29.197499999999998,0.45885951468293684
-29.189999999999998,0.45885951468293684
-29.182499999999997,0.45852506516614377
-29.174999999999997,0.45952841371652309
-29.167499999999997,0.45919396419973002
-29.159999999999997,0.45986286323331627
-29.152499999999996,0.45986286323331627
-29.145,0.4605317622669024
-29.137499999999999,0.45785616613255753
-29.129999999999999,0.45885951468293684
-29.122499999999999,0.45885951468293684
-29.114999999999998,0.45919396419973002
-29.107499999999998,0.45919396419973002
-29.099999999999998,0.45852506516614377
-29.092499999999998,0.45952841371652309
-29.084999999999997,0.45885951468293684
-29.077499999999997,0.45885951468293684
-29.069999999999997,0.45819061564935071
-29.062499999999996,0.45952841371652309
-29.054999999999996,0.45885951468293701
-29.047499999999999,0.45919396419973002
-29.039999999999999,0.45952841371652309
-29.032499999999999,0.45919396419973002
-29.024999999999999,0.45952841371652309
-29.017499999999998,0.45919396419973002
-29.009999999999998,0.45952841371652309
-29.002499999999998,0.45852506516614377
-28.994999999999997,0.45986286323331627
-28.987499999999997,0.45885951468293684
-28.979999999999997,0.45952841371652309
-28.972499999999997,0.45919396419973002
-28.964999999999996,0.4605317622669024
-28.9575,0.46019731275010933
-28.949999999999999,0.46086621178369558
-28.942499999999999,0.46120066130048865
-28.934999999999999,0.46086621178369558
-28.927499999999998,0.46120066130048865
-28.919999999999998,0.46086621178369558
-28.912499999999998,0.46220400985086796
-28.904999999999998,0.46220400985086796
-28.897499999999997,0.46253845936766114
-28.889999999999997,0.4628729088844542
-28.882499999999997,0.4628729088844542
-28.874999999999996,0.46487960598521283
-28.8675,0.46387625743483396
-28.859999999999999,0.46521405550200601
-28.852499999999999,0.46722075260276463
-28.844999999999999,0.4675552021195577
-28.837499999999999,0.46855855066993712
-28.829999999999998,0.46956189922031644
-28.822499999999998,0.47257194487145437
-28.814999999999998,0.47457864197221311
-28.807499999999997,0.47491309148900618
-28.799999999999997,0.58294028541318088
-28.792499999999997,0.96254048697336114
-28.784999999999997,0.96153713842298183
-28.777499999999996,0.96019934035580945
-28.77,0.95919599180543003
-28.762499999999999,0.95785819373825765
-28.754999999999999,0.95685484518787833
-28.747499999999999,0.95551704712070584
-28.739999999999998,0.95384479953674028
-28.732499999999998,0.95317590050315415
-28.724999999999998,0.95150365291918859
-28.717499999999998,0.95050030436880917
-28.709999999999997,0.9478247082344643
-28.702499999999997,0.94749025871767123
-28.694999999999997,0.94381131403294705
-28.687499999999996,0.94247351596577456
-28.68,0.94147016741539569
-28.672499999999999,0.93745677321387788
-28.664999999999999,0.93511562659632608
-28.657499999999999,0.51069918978586903
-28.649999999999999,0.45885951468293684
-28.642499999999998,0.45952841371652309
-28.634999999999998,0.45885951468293684
-28.627499999999998,0.45986286323331627
-28.619999999999997,0.45819061564935071
-28.612499999999997,0.45952841371652309
-28.604999999999997,0.45885951468293684
-28.597499999999997,0.45885951468293684
-28.589999999999996,0.45885951468293684
-28.5825,0.45919396419973002
-28.574999999999999,0.45919396419973002
-28.567499999999999,0.45952841371652309
-28.559999999999999,0.45986286323331627
-28.552499999999998,0.45919396419973002
-28.544999999999998,0.45986286323331627
-28.537499999999998,0.45952841371652309
-28.529999999999998,0.45986286323331627
-28.522499999999997,0.45952841371652309
-28.514999999999997,0.45986286323331627
-28.507499999999997,0.45919396419973002
-28.499999999999996,0.45885951468293684
-28.4925,0.45986286323331582
-28.484999999999999,0.45885951468293684
-28.477499999999999,0.45952841371652309
-28.469999999999999,0.45885951468293684
-28.462499999999999,0.45919396419973002
-28.454999999999998,0.45885951468293684
-28.447499999999998,0.45952841371652309
-28.439999999999998,0.45919396419973002
-28.432499999999997,0.45952841371652309
-28.424999999999997,0.45952841371652309
-28.417499999999997,0.45852506516614377
-28.409999999999997,0.45919396419973002
-28.402499999999996,0.45819061564935071
-28.395,0.45952841371652309
-28.387499999999999,0.45885951468293684
-28.379999999999999,0.45852506516614377
-28.372499999999999,0.45819061564935071
-28.364999999999998,0.45852506516614377
-28.357499999999998,0.45885951468293684
-28.349999999999998,0.45885951468293684
-28.342499999999998,0.45952841371652309
-28.334999999999997,0.45885951468293684
-28.327499999999997,0.45986286323331627
-28.319999999999997,0.45885951468293684
-28.312499999999996,0.45952841371652309
-28.305,0.45885951468293712
-28.297499999999999,0.45952841371652309
-28.289999999999999,0.45952841371652309
-28.282499999999999,0.45986286323331627
-28.274999999999999,0.4605317622669024
-28.267499999999998,0.45986286323331627
-28.259999999999998,0.46019731275010933
-28.252499999999998,0.45885951468293684
-28.244999999999997,0.4605317622669024
-28.237499999999997,0.46019731275010933
-28.229999999999997,0.46086621178369558
-28.222499999999997,0.46120066130048865
-28.214999999999996,0.46186956033407489
-28.2075,0.46186956033407489
-28.199999999999999,0.4605317622669024
-28.192499999999999,0.46120066130048865
-28.184999999999999,0.46120066130048865
-28.177499999999998,0.46120066130048865
-28.169999999999998,0.46220400985086796
-28.162499999999998,0.46320735840124727
-28.154999999999998,0.46421070695162669
-28.147499999999997,0.46487960598521283
-28.139999999999997,0.46722075260276463
-28.132499999999997,0.4675552021195577
-28.124999999999996,0.46722075260276463
-28.1175,0.46989634873710828
-28.109999999999999,0.46922744970352326
-28.102499999999999,0.47357529342183369
-28.094999999999999,0.77926215177073666
-28.087499999999999,0.96187158793977501
-28.079999999999998,0.96053378987260252
-28.072499999999998,0.9595304413222232
-28.064999999999998,0.95819264325505071
-28.057499999999997,0.95752374422146458
-28.049999999999997,0.95618594615429209
-28.042499999999997,0.9548481480871196
-28.034999999999997,0.95351035001994722
-28.027499999999996,0.95150365291918859
-28.02,0.9501658548520161
-28.012499999999999,0.94916250630163679
-28.004999999999999,0.94749025871767123
-27.997499999999999,0.9454835616169126
-27.989999999999998,0.94280796548256762
-27.982499999999998,0.94147016741539524
-27.974999999999998,0.8762525116407387
-27.967499999999998,0.45752171661576446
-27.959999999999997,0.45852506516614377
-27.952499999999997,0.45785616613255753
-27.944999999999997,0.45885951468293684
-27.937499999999996,0.45718726709897128
-27.93,0.45852506516614377
-27.922499999999999,0.45819061564935071
-27.914999999999999,0.45852506516614377
-27.907499999999999,0.45852506516614377
-27.899999999999999,0.45785616613255753
-27.892499999999998,0.45819061564935071
-27.884999999999998,0.45785616613255753
-27.877499999999998,0.45919396419973002
-27.869999999999997,0.45852506516614377
-27.862499999999997,0.45819061564935071
-27.854999999999997,0.45785616613255753
-27.847499999999997,0.45852506516614377
-27.839999999999996,0.45919396419972985
-27.8325,0.45885951468293684
-27.824999999999999,0.45885951468293684
-27.817499999999999,0.45819061564935071
-27.809999999999999,0.45885951468293684
-27.802499999999998,0.45819061564935071
-27.794999999999998,0.45885951468293684
-27.787499999999998,0.45852506516614377
-27.779999999999998,0.45885951468293684
-27.772499999999997,0.45885951468293684
-27.764999999999997,0.45885951468293684
-27.757499999999997,0.45919396419973002
-27.749999999999996,0.45852506516614377
-27.7425,0.46019731275010933
-27.734999999999999,0.45919396419973002
-27.727499999999999,0.4605317622669024
-27.719999999999999,0.45919396419973002
-27.712499999999999,0.46019731275010933
-27.704999999999998,0.45919396419973002
-27.697499999999998,0.45919396419973002
-27.689999999999998,0.45919396419973002
-27.682499999999997,0.45986286323331627
-27.674999999999997,0.45919396419973002
-27.667499999999997,0.45919396419973002
-27.659999999999997,0.45952841371652309
-27.652499999999996,0.45919396419973019
-27.645,0.45952841371652309
-27.637499999999999,0.45919396419973002
-27.629999999999999,0.45986286323331627
-27.622499999999999,0.45952841371652309
-27.614999999999998,0.45986286323331627
-27.607499999999998,0.45919396419973002
-27.599999999999998,0.45919396419973002
-27.592499999999998,0.45986286323331627
-27.584999999999997,0.45986286323331627
-27.577499999999997,0.46120066130048865
-27.569999999999997,0.46019731275010933
-27.562499999999996,0.46120066130048865
-27.555,0.46086621178369558
-27.547499999999999,0.46086621178369558
-27.539999999999999,0.46153511081728171
-27.532499999999999,0.46220400985086796
-27.524999999999999,0.46186956033407489
-27.517499999999998,0.46220400985086796
-27.509999999999998,0.46354180791804045
-27.502499999999998,0.46320735840124727
-27.494999999999997,0.46454515646841976
-27.487499999999997,0.46454515646841976
-27.479999999999997,0.46722075260276463
-27.472499999999997,0.46588295453559225
-27.464999999999996,0.46688630308597201
-27.4575,0.46788965163635088
-27.449999999999999,0.46956189922031644
-27.442499999999999,0.46922744970352326
-27.434999999999999,0.47424419245541993
-27.427499999999998,0.47123414680428199
-27.419999999999998,0.47725423810655798
-27.412499999999998,0.47257194487145437
-27.404999999999998,0.50902694220190337
-27.397499999999997,0.96254048697336114
-27.389999999999997,0.96153713842298183
-27.382499999999997,0.96053378987260252
-27.374999999999996,0.9595304413222232
-27.3675,0.95852709277184389
-27.359999999999999,0.9571892947046714
-27.352499999999999,0.95585149663749902
-27.344999999999999,0.95417924905353346
-27.337499999999999,0.95284145098636097
-27.329999999999998,0.95116920340239541
-27.322499999999998,0.94983140533522303
-27.314999999999998,0.94882805678484361
-27.307499999999997,0.94648691016729192
-27.299999999999997,0.94481466258332636
-27.292499999999997,0.94180461693218831
-27.284999999999997,0.93779122273067106
-27.277499999999996,0.9384601217641162
-27.27,0.6284254196970438
-27.262499999999999,0.4605317622669024
-27.254999999999999,0.45952841371652309
-27.247499999999999,0.45986286323331627
-27.239999999999998,0.45986286323331627
-27.232499999999998,0.45952841371652309
-27.224999999999998,0.45885951468293684
-27.217499999999998,0.45819061564935071
-27.209999999999997,0.45819061564935071
-27.202499999999997,0.45852506516614377
-27.194999999999997,0.45919396419973002
-27.187499999999996,0.45819061564935071
-27.18,0.45819061564935071
-27.172499999999999,0.45819061564935071
-27.164999999999999,0.45919396419973002
-27.157499999999999,0.45919396419973002
-27.149999999999999,0.45852506516614377
-27.142499999999998,0.45852506516614377
-27.134999999999998,0.45819061564935071
-27.127499999999998,0.45885951468293684
-27.119999999999997,0.45819061564935071
-27.112499999999997,0.45885951468293684
-27.104999999999997,0.45852506516614377
-27.097499999999997,0.45919396419973002
-27.089999999999996,0.45819061564935071
-27.0825,0.45819061564935071
-27.074999999999999,0.45852506516614377
-27.067499999999999,0.45785616613255753
-27.059999999999999,0.45819061564935071
-27.052499999999998,0.45752171661576446
-27.044999999999998,0.45852506516614377
-27.037499999999998,0.45785616613255753
-27.029999999999998,0.45819061564935071
-27.022499999999997,0.45852506516614377
-27.014999999999997,0.45885951468293684
-27.007499999999997,0.45952841371652309
-26.999999999999996,0.45919396419973002
-26.9925,0.45919396419973002
-26.984999999999999,0.45819061564935071
-26.977499999999999,0.45952841371652309
-26.969999999999999,0.45919396419973002
-26.962499999999999,0.45919396419973002
-26.954999999999998,0.45852506516614377
-26.947499999999998,0.45986286323331627
-26.939999999999998,0.45952841371652309
-26.932499999999997,0.45952841371652309
-26.924999999999997,0.45952841371652309
-26.917499999999997,0.45919396419973002
-26.909999999999997,0.46019731275010933
-26.9025,0.46019731275010933
-26.895,0.4605317622669024
-26.887499999999999,0.45986286323331627
-26.879999999999999,0.46086621178369558
-26.872499999999999,0.45986286323331627
-26.864999999999998,0.46086621178369558
-26.857499999999998,0.46153511081728171
-26.849999999999998,0.46086621178369558
-26.842499999999998,0.46120066130048865
-26.834999999999997,0.46153511081728171
-26.827499999999997,0.46186956033407489
-26.819999999999997,0.46153511081728171
-26.812499999999996,0.46253845936766114
-26.805,0.46253845936766114
-26.797499999999999,0.46354180791804045
-26.789999999999999,0.4628729088844542
-26.782499999999999,0.46387625743483352
-26.774999999999999,0.46454515646841976
-26.767499999999998,0.46688630308597157
-26.759999999999998,0.46722075260276463
-26.752499999999998,0.4675552021195577
-26.744999999999997,0.46788965163635088
-26.737499999999997,0.51270588688662766
-26.729999999999997,0.96220603745656808
-26.722499999999997,0.96120268890618876
-26.715,0.96019934035580989
-26.7075,0.95919599180543003
-26.699999999999999,0.95819264325505071
-26.692499999999999,0.95618594615429209
-26.684999999999999,0.95518259760391278
-26.677499999999998,0.95351035001994722
-26.669999999999998,0.95183810243598166
-26.662499999999998,0.94983140533522303
-26.654999999999998,0.94882805678484361
-26.647499999999997,0.94715580920087805
-26.639999999999997,0.94381131403294705
-26.632499999999997,0.94381131403294705
-26.624999999999996,0.93812567224746413
-26.6175,0.93812567224746413
-26.609999999999999,0.67859284721601043
-26.602499999999999,0.45685281758217822
-26.594999999999999,0.45785616613255753
-26.587499999999999,0.45718726709897128
-26.579999999999998,0.45785616613255753
-26.572499999999998,0.45718726709897128
-26.564999999999998,0.45785616613255753
-26.557499999999997,0.45752171661576446
-26.549999999999997,0.45685281758217822
-26.542499999999997,0.45718726709897128
-26.534999999999997,0.45651836806538515
-26.5275,0.45718726709897101
-26.52,0.45685281758217822
-26.512499999999999,0.45785616613255753
-26.504999999999999,0.45752171661576446
-26.497499999999999,0.45852506516614377
-26.489999999999998,0.45819061564935071
-26.482499999999998,0.45819061564935071
-26.474999999999998,0.45819061564935071
-26.467499999999998,0.45685281758217822
-26.459999999999997,0.45752171661576446
-26.452499999999997,0.45752171661576446
-26.444999999999997,0.45852506516614377
-26.437499999999996,0.45685281758217822
-26.43,0.45785616613255753
-26.422499999999999,0.45752171661576446
-26.414999999999999,0.45785616613255753
-26.407499999999999,0.45785616613255753
-26.399999999999999,0.45785616613255753
-26.392499999999998,0.45819061564935071
-26.384999999999998,0.45785616613255753
-26.377499999999998,0.45819061564935071
-26.369999999999997,0.45718726709897128
-26.362499999999997,0.45819061564935071
-26.354999999999997,0.45752171661576446
-26.347499999999997,0.45785616613255753
-26.34,0.45785616613255753
-26.3325,0.45785616613255753
-26.324999999999999,0.45785616613255753
-26.317499999999999,0.45718726709897128
-26.309999999999999,0.45852506516614377
-26.302499999999998,0.45685281758217822
-26.294999999999998,0.45819061564935071
-26.287499999999998,0.45819061564935071
-26.279999999999998,0.45885951468293684
-26.272499999999997,0.45752171661576446
-26.264999999999997,0.45819061564935071
-26.257499999999997,0.45819061564935071
-26.249999999999996,0.45785616613255753
-26.2425,0.45885951468293684
-26.234999999999999,0.45819061564935071
-26.227499999999999,0.45986286323331627
-26.219999999999999,0.45919396419973002
