week3/data/diff2_data/old/24kHz/tek0001ALL.csv

Model,DPO3012
Firmware Version,2.16

Point Format,Y,,,Point Format,Y
Horizontal Units,S,,,Horizontal Units,S
Horizontal Scale,0.0002,,,Horizontal Scale,0.01
Sample Interval,2e-07,,,Sample Interval,1e-05
Record Length,10000,,,Record Length,10000
Gating,0.0% to 100.0%,0.0% to 100.0%,,Gating,0.0% to 100.0%
Probe Attenuation,1,1,,Probe Attenuation,1
Vertical Units,V,V,,Vertical Units,V
Vertical Offset,0,0,,Vertical Offset,0
Vertical Scale,0.5,0.5,,Vertical Scale,0.5
Label,,,,Label,
TIME,CH1,CH2,,TIME,REF1
-1.000e-03,1.51,0.92,,-5.0000e-02,0.66
-9.998e-04,1.49,0.94,,-4.9990e-02,0.7
-9.996e-04,1.49,0.94,,-4.9980e-02,0.68
-9.994e-04,1.53,0.92,,-4.9970e-02,0.66
-9.992e-04,1.49,0.96,,-4.9960e-02,0.64
-9.990e-04,1.51,0.94,,-4.9950e-02,0.7
-9.988e-04,1.47,0.96,,-4.9940e-02,0.66
-9.986e-04,1.47,0.92,,-4.9930e-02,0.66
-9.984e-04,1.47,0.92,,-4.9920e-02,0.66
-9.982e-04,1.47,0.96,,-4.9910e-02,0.68
-9.980e-04,1.49,0.96,,-4.9900e-02,0.68
-9.978e-04,1.53,0.96,,-4.9890e-02,0.68
-9.976e-04,1.45,0.98,,-4.9880e-02,0.68
-9.974e-04,1.49,0.96,,-4.9870e-02,0.64
-9.972e-04,1.45,0.94,,-4.9860e-02,0.66
-9.970e-04,1.47,0.96,,-4.9850e-02,0.68
-9.968e-04,1.45,0.94,,-4.9840e-02,0.68
-9.966e-04,1.45,0.92,,-4.9830e-02,0.68
-9.964e-04,1.45,0.96,,-4.9820e-02,0.68
-9.962e-04,1.45,0.94,,-4.9810e-02,0.66
-9.960e-04,1.45,0.94,,-4.9800e-02,0.66
-9.958e-04,1.49,0.96,,-4.9790e-02,0.68
-9.956e-04,1.53,0.94,,-4.9780e-02,0.64
-9.954e-04,1.53,0.98,,-4.9770e-02,0.64
-9.952e-04,1.51,1,,-4.9760e-02,0.7
-9.950e-04,1.51,0.96,,-4.9750e-02,0.68
-9.948e-04,1.47,0.96,,-4.9740e-02,0.72
-9.946e-04,1.49,1,,-4.9730e-02,0.66
-9.944e-04,1.47,1,,-4.9720e-02,0.66
-9.942e-04,1.47,1,,-4.9710e-02,0.7
-9.940e-04,1.47,1,,-4.9700e-02,0.68
-9.938e-04,1.49,1.02,,-4.9690e-02,0.68
-9.936e-04,1.53,1,,-4.9680e-02,0.7
-9.934e-04,1.53,1.02,,-4.9670e-02,0.7
-9.932e-04,1.53,1.02,,-4.9660e-02,0.68
-9.930e-04,1.51,1,,-4.9650e-02,0.7
-9.928e-04,1.49,1,,-4.9640e-02,0.68
-9.926e-04,1.47,1,,-4.9630e-02,0.7
-9.924e-04,1.47,1,,-4.9620e-02,0.68
-9.922e-04,1.43,0.98,,-4.9610e-02,0.66
-9.920e-04,1.47,0.96,,-4.9600e-02,0.7
-9.918e-04,1.47,0.98,,-4.9590e-02,0.68
-9.916e-04,1.49,1.02,,-4.9580e-02,0.66
-9.914e-04,1.51,1.02,,-4.9570e-02,0.68
-9.912e-04,1.51,0.98,,-4.9560e-02,0.68
-9.910e-04,1.51,1.02,,-4.9550e-02,0.68
-9.908e-04,1.47,1.02,,-4.9540e-02,0.68
-9.906e-04,1.49,1.04,,-4.9530e-02,0.68
-9.904e-04,1.47,1.02,,-4.9520e-02,0.7
-9.902e-04,1.47,1.06,,-4.9510e-02,0.66
-9.900e-04,1.47,1.06,,-4.9500e-02,0.66
-9.898e-04,1.49,1.04,,-4.9490e-02,0.7
-9.896e-04,1.49,1.04,,-4.9480e-02,0.68
-9.894e-04,1.51,1.02,,-4.9470e-02,0.66
-9.892e-04,1.49,1.04,,-4.9460e-02,0.66
-9.890e-04,1.49,1.02,,-4.9450e-02,0.7
-9.888e-04,1.47,1.02,,-4.9440e-02,0.68
-9.886e-04,1.47,1.02,,-4.9430e-02,0.68
-9.884e-04,1.47,1.02,,-4.9420e-02,0.68
-9.882e-04,1.47,1.04,,-4.9410e-02,0.68
-9.880e-04,1.53,1.04,,-4.9400e-02,0.68
-9.878e-04,1.49,1.04,,-4.9390e-02,0.66
-9.876e-04,1.49,1.02,,-4.9380e-02,0.68
-9.874e-04,1.53,1.06,,-4.9370e-02,0.66
-9.872e-04,1.49,1.06,,-4.9360e-02,0.66
-9.870e-04,1.49,1.04,,-4.9350e-02,0.64
-9.868e-04,1.49,1.08,,-4.9340e-02,0.66
-9.866e-04,1.51,1.08,,-4.9330e-02,0.68
-9.864e-04,1.49,1.06,,-4.9320e-02,0.7
-9.862e-04,1.49,1.08,,-4.9310e-02,0.68
-9.860e-04,1.47,1.08,,-4.9300e-02,0.68
-9.858e-04,1.47,1.08,,-4.9290e-02,0.7
-9.856e-04,1.49,1.08,,-4.9280e-02,0.7
-9.854e-04,1.47,1.08,,-4.9270e-02,0.7
-9.852e-04,1.47,1.08,,-4.9260e-02,0.72
-9.850e-04,1.49,1.08,,-4.9250e-02,0.7
-9.848e-04,1.49,1.08,,-4.9240e-02,0.68
-9.846e-04,1.49,1.1,,-4.9230e-02,0.7
-9.844e-04,1.49,1.1,,-4.9220e-02,0.7
-9.842e-04,1.47,1.06,,-4.9210e-02,0.68
-9.840e-04,1.47,1.04,,-4.9200e-02,0.68
-9.838e-04,1.47,1.1,,-4.9190e-02,0.66
-9.836e-04,1.49,1.06,,-4.9180e-02,0.66
-9.834e-04,1.51,1.12,,-4.9170e-02,0.66
-9.832e-04,1.47,1.1,,-4.9160e-02,0.7
-9.830e-04,1.47,1.06,,-4.9150e-02,0.68
-9.828e-04,1.47,1.12,,-4.9140e-02,0.68
-9.826e-04,1.49,1.12,,-4.9130e-02,0.7
-9.824e-04,1.45,1.1,,-4.9120e-02,0.66
-9.822e-04,1.53,1.1,,-4.9110e-02,0.66
-9.820e-04,1.51,1.12,,-4.9100e-02,0.68
-9.818e-04,1.49,1.1,,-4.9090e-02,0.68
-9.816e-04,1.45,1.06,,-4.9080e-02,0.68
-9.814e-04,1.49,1.12,,-4.9070e-02,0.66
-9.812e-04,1.51,1.12,,-4.9060e-02,0.7
-9.810e-04,1.49,1.1,,-4.9050e-02,0.68
-9.808e-04,1.49,1.16,,-4.9040e-02,0.68
-9.806e-04,1.51,1.14,,-4.9030e-02,0.66
-9.804e-04,1.49,1.14,,-4.9020e-02,0.66
-9.802e-04,1.45,1.12,,-4.9010e-02,0.68
-9.800e-04,1.45,1.14,,-4.9000e-02,0.66
-9.798e-04,1.43,1.14,,-4.8990e-02,0.68
-9.796e-04,1.47,1.12,,-4.8980e-02,0.7
-9.794e-04,1.49,1.1,,-4.8970e-02,0.68
-9.792e-04,0.47,1.16,,-4.8960e-02,0.66
-9.790e-04,0.45,1.18,,-4.8950e-02,0.68
-9.788e-04,0.49,1.16,,-4.8940e-02,0.68
-9.786e-04,0.51,1.14,,-4.8930e-02,0.68
-9.784e-04,0.47,1.12,,-4.8920e-02,0.7
-9.782e-04,0.47,1.14,,-4.8910e-02,0.64
-9.780e-04,0.47,1.12,,-4.8900e-02,0.7
-9.778e-04,0.47,1.18,,-4.8890e-02,0.66
-9.776e-04,0.49,1.16,,-4.8880e-02,0.7
-9.774e-04,0.43,1.12,,-4.8870e-02,0.68
-9.772e-04,0.47,1.16,,-4.8860e-02,0.7
-9.770e-04,0.45,1.18,,-4.8850e-02,0.66
-9.768e-04,0.47,1.16,,-4.8840e-02,0.66
-9.766e-04,0.51,1.18,,-4.8830e-02,0.68
-9.764e-04,0.49,1.16,,-4.8820e-02,0.7
-9.762e-04,0.49,1.18,,-4.8810e-02,0.64
-9.760e-04,0.49,1.14,,-4.8800e-02,0.68
-9.758e-04,0.47,1.12,,-4.8790e-02,0.66
-9.756e-04,0.47,1.14,,-4.8780e-02,0.68
-9.754e-04,0.45,1.16,,-4.8770e-02,0.7
-9.752e-04,0.47,1.14,,-4.8760e-02,0.66
-9.750e-04,0.47,1.14,,-4.8750e-02,0.7
-9.748e-04,0.45,1.1,,-4.8740e-02,0.7
-9.746e-04,0.49,1.14,,-4.8730e-02,0.66
-9.744e-04,0.45,1.12,,-4.8720e-02,0.64
-9.742e-04,0.45,1.14,,-4.8710e-02,0.68
-9.740e-04,0.45,1.1,,-4.8700e-02,0.66
-9.738e-04,0.45,1.08,,-4.8690e-02,0.68
-9.736e-04,0.47,1.1,,-4.8680e-02,0.68
-9.734e-04,0.47,1.06,,-4.8670e-02,0.68
-9.732e-04,0.47,1.12,,-4.8660e-02,0.7
-9.730e-04,0.49,1.06,,-4.8650e-02,0.68
-9.728e-04,0.51,1.08,,-4.8640e-02,0.7
-9.726e-04,0.51,1.08,,-4.8630e-02,0.7
-9.724e-04,0.51,1.08,,-4.8620e-02,0.66
-9.722e-04,0.49,1.06,,-4.8610e-02,0.72
-9.720e-04,0.47,1.08,,-4.8600e-02,0.68
-9.718e-04,0.47,1.06,,-4.8590e-02,0.68
-9.716e-04,0.47,1.1,,-4.8580e-02,0.66
-9.714e-04,0.49,1.1,,-4.8570e-02,0.68
-9.712e-04,0.51,1.06,,-4.8560e-02,0.68
-9.710e-04,0.51,1.08,,-4.8550e-02,0.68
-9.708e-04,0.47,1.08,,-4.8540e-02,0.7
-9.706e-04,0.49,1.08,,-4.8530e-02,0.7
-9.704e-04,0.51,1.08,,-4.8520e-02,0.68
-9.702e-04,0.49,1.06,,-4.8510e-02,0.66
-9.700e-04,0.49,1.08,,-4.8500e-02,0.72
-9.698e-04,0.49,1.08,,-4.8490e-02,0.7
-9.696e-04,0.45,1.08,,-4.8480e-02,0.66
-9.694e-04,0.43,1.04,,-4.8470e-02,0.68
-9.692e-04,0.43,1.06,,-4.8460e-02,0.68
-9.690e-04,0.43,1.02,,-4.8450e-02,0.7
-9.688e-04,0.47,1.02,,-4.8440e-02,0.66
-9.686e-04,0.43,1.02,,-4.8430e-02,0.66
-9.684e-04,0.45,1.02,,-4.8420e-02,0.7
-9.682e-04,0.49,1.06,,-4.8410e-02,0.7
-9.680e-04,0.47,1.06,,-4.8400e-02,0.66
-9.678e-04,0.49,1.1,,-4.8390e-02,0.68
-9.676e-04,0.47,1.04,,-4.8380e-02,0.66
-9.674e-04,0.51,1.04,,-4.8370e-02,0.68
-9.672e-04,0.47,1.02,,-4.8360e-02,0.66
-9.670e-04,0.43,1.04,,-4.8350e-02,0.68
-9.668e-04,0.47,1.02,,-4.8340e-02,0.7
-9.666e-04,0.47,1.06,,-4.8330e-02,0.68
-9.664e-04,0.47,1.02,,-4.8320e-02,0.7
-9.662e-04,0.49,1.04,,-4.8310e-02,0.7
-9.660e-04,0.51,1.04,,-4.8300e-02,0.7
-9.658e-04,0.49,1.04,,-4.8290e-02,0.68
-9.656e-04,0.47,1,,-4.8280e-02,0.7
-9.654e-04,0.47,1.02,,-4.8270e-02,0.7
-9.652e-04,0.47,1,,-4.8260e-02,0.68
-9.650e-04,0.43,1,,-4.8250e-02,0.72
-9.648e-04,0.47,0.98,,-4.8240e-02,0.64
-9.646e-04,0.41,1,,-4.8230e-02,0.64
-9.644e-04,0.47,0.96,,-4.8220e-02,0.68
-9.642e-04,0.47,1,,-4.8210e-02,0.64
-9.640e-04,0.49,1.02,,-4.8200e-02,0.7
-9.638e-04,0.49,1,,-4.8190e-02,0.68
-9.636e-04,0.51,1.02,,-4.8180e-02,0.68
-9.634e-04,0.49,1,,-4.8170e-02,0.66
-9.632e-04,0.47,1,,-4.8160e-02,0.68
-9.630e-04,0.47,1,,-4.8150e-02,0.7
-9.628e-04,0.47,1,,-4.8140e-02,0.68
-9.626e-04,0.47,1,,-4.8130e-02,0.7
-9.624e-04,0.49,1,,-4.8120e-02,0.68
-9.622e-04,0.53,1,,-4.8110e-02,0.7
-9.620e-04,0.51,1,,-4.8100e-02,0.68
-9.618e-04,0.49,1,,-4.8090e-02,0.68
-9.616e-04,0.47,1,,-4.8080e-02,0.68
-9.614e-04,0.49,0.96,,-4.8070e-02,0.7
-9.612e-04,0.49,0.96,,-4.8060e-02,0.66
-9.610e-04,0.47,0.96,,-4.8050e-02,0.68
-9.608e-04,0.45,0.94,,-4.8040e-02,0.66
-9.606e-04,0.43,0.94,,-4.8030e-02,0.7
-9.604e-04,0.47,0.92,,-4.8020e-02,0.7
-9.602e-04,0.47,0.94,,-4.8010e-02,0.66
-9.600e-04,0.49,0.98,,-4.8000e-02,0.7
-9.598e-04,0.51,0.94,,-4.7990e-02,0.68
-9.596e-04,0.51,0.98,,-4.7980e-02,0.66
-9.594e-04,0.49,0.92,,-4.7970e-02,0.66
-9.592e-04,0.49,0.94,,-4.7960e-02,0.68
-9.590e-04,0.49,0.96,,-4.7950e-02,0.68
-9.588e-04,0.45,0.94,,-4.7940e-02,0.7
-9.586e-04,0.47,0.94,,-4.7930e-02,0.66
-9.584e-04,1.49,0.94,,-4.7920e-02,0.68
-9.582e-04,1.49,0.98,,-4.7910e-02,0.66
-9.580e-04,1.55,0.94,,-4.7900e-02,0.68
-9.578e-04,1.49,0.92,,-4.7890e-02,0.7
-9.576e-04,1.47,0.94,,-4.7880e-02,0.68
-9.574e-04,1.49,0.94,,-4.7870e-02,0.66
-9.572e-04,1.47,0.92,,-4.7860e-02,0.68
-9.570e-04,1.47,0.92,,-4.7850e-02,0.7
-9.568e-04,1.49,0.92,,-4.7840e-02,0.66
-9.566e-04,1.47,0.92,,-4.7830e-02,0.68
-9.564e-04,1.51,0.92,,-4.7820e-02,0.68
-9.562e-04,1.49,0.9,,-4.7810e-02,0.7
-9.560e-04,1.51,0.98,,-4.7800e-02,0.7
-9.558e-04,1.51,0.96,,-4.7790e-02,0.68
-9.556e-04,1.55,0.94,,-4.7780e-02,0.72
-9.554e-04,1.49,0.96,,-4.7770e-02,0.7
-9.552e-04,1.47,0.94,,-4.7760e-02,0.7
-9.550e-04,1.47,0.94,,-4.7750e-02,0.7
-9.548e-04,1.49,1,,-4.7740e-02,0.68
-9.546e-04,1.49,0.94,,-4.7730e-02,0.7
-9.544e-04,1.51,1,,-4.7720e-02,0.68
-9.542e-04,1.49,0.98,,-4.7710e-02,0.66
-9.540e-04,1.51,0.96,,-4.7700e-02,0.66
-9.538e-04,1.49,0.96,,-4.7690e-02,0.68
-9.536e-04,1.49,0.96,,-4.7680e-02,0.66
-9.534e-04,1.45,0.98,,-4.7670e-02,0.7
-9.532e-04,1.47,0.94,,-4.7660e-02,0.68
-9.530e-04,1.49,0.96,,-4.7650e-02,0.66
-9.528e-04,1.47,0.96,,-4.7640e-02,0.68
-9.526e-04,1.49,0.98,,-4.7630e-02,0.72
-9.524e-04,1.49,1,,-4.7620e-02,0.68
-9.522e-04,1.51,1.02,,-4.7610e-02,0.72
-9.520e-04,1.49,0.98,,-4.7600e-02,0.68
-9.518e-04,1.47,0.98,,-4.7590e-02,0.66
-9.516e-04,1.47,1,,-4.7580e-02,0.64
-9.514e-04,1.49,0.96,,-4.7570e-02,0.68
-9.512e-04,1.51,1,,-4.7560e-02,0.68
-9.510e-04,1.51,0.98,,-4.7550e-02,0.7
-9.508e-04,1.49,1,,-4.7540e-02,0.66
-9.506e-04,1.51,1.02,,-4.7530e-02,0.7
-9.504e-04,1.47,1,,-4.7520e-02,0.68
-9.502e-04,1.45,1,,-4.7510e-02,0.7
-9.500e-04,1.51,1.02,,-4.7500e-02,0.7
-9.498e-04,1.45,1,,-4.7490e-02,0.66
-9.496e-04,1.49,1.02,,-4.7480e-02,0.66
-9.494e-04,1.49,1.04,,-4.7470e-02,0.66
-9.492e-04,1.47,1.02,,-4.7460e-02,0.66
-9.490e-04,1.45,1.02,,-4.7450e-02,0.7
-9.488e-04,1.51,1.02,,-4.7440e-02,0.64
-9.486e-04,1.51,1.02,,-4.7430e-02,0.68
-9.484e-04,1.47,1.02,,-4.7420e-02,0.7
-9.482e-04,1.49,1,,-4.7410e-02,0.66
-9.480e-04,1.45,1.02,,-4.7400e-02,0.68
-9.478e-04,1.53,1.04,,-4.7390e-02,0.66
-9.476e-04,1.49,1.02,,-4.7380e-02,0.64
-9.474e-04,1.49,1.06,,-4.7370e-02,0.68
-9.472e-04,1.49,1.08,,-4.7360e-02,0.68
-9.470e-04,1.49,1.06,,-4.7350e-02,0.66
-9.468e-04,1.49,1.04,,-4.7340e-02,0.7
-9.466e-04,1.47,1.02,,-4.7330e-02,0.64
-9.464e-04,1.49,1.04,,-4.7320e-02,0.7
-9.462e-04,1.47,1.04,,-4.7310e-02,0.66
-9.460e-04,1.45,1.06,,-4.7300e-02,0.66
-9.458e-04,1.49,1.04,,-4.7290e-02,0.64
-9.456e-04,1.47,1.04,,-4.7280e-02,0.7
-9.454e-04,1.51,1.08,,-4.7270e-02,0.66
-9.452e-04,1.49,1.1,,-4.7260e-02,0.68
-9.450e-04,1.49,1.06,,-4.7250e-02,0.68
-9.448e-04,1.49,1.06,,-4.7240e-02,0.68
-9.446e-04,1.49,1.08,,-4.7230e-02,0.68
-9.444e-04,1.49,1.04,,-4.7220e-02,0.68
-9.442e-04,1.51,1.04,,-4.7210e-02,0.66
-9.440e-04,1.47,1.06,,-4.7200e-02,0.66
-9.438e-04,1.47,1.06,,-4.7190e-02,0.68
-9.436e-04,1.47,1.08,,-4.7180e-02,0.7
-9.434e-04,1.51,1.1,,-4.7170e-02,0.7
-9.432e-04,1.49,1.06,,-4.7160e-02,0.7
-9.430e-04,1.51,1.1,,-4.7150e-02,0.68
-9.428e-04,1.49,1.1,,-4.7140e-02,0.68
-9.426e-04,1.49,1.1,,-4.7130e-02,0.68
-9.424e-04,1.49,1.12,,-4.7120e-02,0.7
-9.422e-04,1.51,1.1,,-4.7110e-02,0.64
-9.420e-04,1.51,1.08,,-4.7100e-02,0.68
-9.418e-04,1.49,1.12,,-4.7090e-02,0.66
-9.416e-04,1.49,1.14,,-4.7080e-02,0.66
-9.414e-04,1.53,1.1,,-4.7070e-02,0.68
-9.412e-04,1.51,1.12,,-4.7060e-02,0.7
-9.410e-04,1.47,1.12,,-4.7050e-02,0.7
-9.408e-04,1.47,1.08,,-4.7040e-02,0.64
-9.406e-04,1.47,1.08,,-4.7030e-02,0.72
-9.404e-04,1.49,1.08,,-4.7020e-02,0.7
-9.402e-04,1.49,1.1,,-4.7010e-02,0.68
-9.400e-04,1.49,1.08,,-4.7000e-02,0.7
-9.398e-04,1.45,1.08,,-4.6990e-02,0.7
-9.396e-04,1.41,1.08,,-4.6980e-02,0.7
-9.394e-04,1.49,1.1,,-4.6970e-02,0.68
-9.392e-04,1.45,1.08,,-4.6960e-02,0.68
-9.390e-04,1.45,1.12,,-4.6950e-02,0.68
-9.388e-04,1.51,1.08,,-4.6940e-02,0.7
-9.386e-04,1.49,1.12,,-4.6930e-02,0.7
-9.384e-04,1.49,1.12,,-4.6920e-02,0.68
-9.382e-04,1.49,1.1,,-4.6910e-02,0.7
-9.380e-04,1.49,1.1,,-4.6900e-02,0.66
-9.378e-04,1.49,1.16,,-4.6890e-02,0.66
-9.376e-04,0.47,1.12,,-4.6880e-02,0.7
-9.374e-04,0.45,1.14,,-4.6870e-02,0.66
-9.372e-04,0.49,1.16,,-4.6860e-02,0.66
-9.370e-04,0.43,1.16,,-4.6850e-02,0.68
-9.368e-04,0.47,1.16,,-4.6840e-02,0.64
-9.366e-04,0.47,1.18,,-4.6830e-02,0.66
-9.364e-04,0.49,1.16,,-4.6820e-02,0.68
-9.362e-04,0.47,1.16,,-4.6810e-02,0.68
-9.360e-04,0.45,1.14,,-4.6800e-02,0.68
-9.358e-04,0.47,1.18,,-4.6790e-02,0.68
-9.356e-04,0.47,1.16,,-4.6780e-02,0.7
-9.354e-04,0.49,1.16,,-4.6770e-02,0.68
-9.352e-04,0.49,1.18,,-4.6760e-02,0.66
-9.350e-04,0.49,1.14,,-4.6750e-02,0.66
-9.348e-04,0.47,1.14,,-4.6740e-02,0.66
-9.346e-04,0.43,1.12,,-4.6730e-02,0.7
-9.344e-04,0.45,1.12,,-4.6720e-02,0.66
-9.342e-04,0.45,1.1,,-4.6710e-02,0.66
-9.340e-04,0.43,1.1,,-4.6700e-02,0.7
-9.338e-04,0.45,1.1,,-4.6690e-02,0.7
-9.336e-04,0.49,1.12,,-4.6680e-02,0.7
-9.334e-04,0.51,1.12,,-4.6670e-02,0.68
-9.332e-04,0.49,1.12,,-4.6660e-02,0.66
-9.330e-04,0.51,1.12,,-4.6650e-02,0.68
-9.328e-04,0.51,1.12,,-4.6640e-02,0.68
-9.326e-04,0.47,1.1,,-4.6630e-02,0.68
-9.324e-04,0.43,1.1,,-4.6620e-02,0.72
-9.322e-04,0.47,1.12,,-4.6610e-02,0.68
-9.320e-04,0.49,1.14,,-4.6600e-02,0.66
-9.318e-04,0.45,1.16,,-4.6590e-02,0.68
-9.316e-04,0.47,1.12,,-4.6580e-02,0.68
-9.314e-04,0.49,1.08,,-4.6570e-02,0.68
-9.312e-04,0.49,1.12,,-4.6560e-02,0.66
-9.310e-04,0.51,1.12,,-4.6550e-02,0.66
-9.308e-04,0.47,1.16,,-4.6540e-02,0.7
-9.306e-04,0.47,1.14,,-4.6530e-02,0.66
-9.304e-04,0.47,1.08,,-4.6520e-02,0.68
-9.302e-04,0.45,1.08,,-4.6510e-02,0.7
-9.300e-04,0.45,1.06,,-4.6500e-02,0.68
-9.298e-04,0.43,1.02,,-4.6490e-02,0.68
-9.296e-04,0.47,1.04,,-4.6480e-02,0.7
-9.294e-04,0.45,1.06,,-4.6470e-02,0.64
-9.292e-04,0.49,1.06,,-4.6460e-02,0.68
-9.290e-04,0.47,1.08,,-4.6450e-02,0.64
-9.288e-04,0.51,1.06,,-4.6440e-02,0.7
-9.286e-04,0.53,1.06,,-4.6430e-02,0.68
-9.284e-04,0.51,1.04,,-4.6420e-02,0.7
-9.282e-04,0.47,1.06,,-4.6410e-02,0.66
-9.280e-04,0.47,1.04,,-4.6400e-02,0.66
-9.278e-04,0.47,1.08,,-4.6390e-02,0.7
-9.276e-04,0.49,1.08,,-4.6380e-02,0.66
-9.274e-04,0.49,1.08,,-4.6370e-02,0.66
-9.272e-04,0.49,1.06,,-4.6360e-02,0.66
-9.270e-04,0.45,1.08,,-4.6350e-02,0.66
-9.268e-04,0.51,1.08,,-4.6340e-02,0.7
-9.266e-04,0.49,1.04,,-4.6330e-02,0.68
-9.264e-04,0.49,1.06,,-4.6320e-02,0.68
-9.262e-04,0.49,1.06,,-4.6310e-02,0.68
-9.260e-04,0.47,1.02,,-4.6300e-02,0.68
-9.258e-04,0.45,1.02,,-4.6290e-02,0.66
-9.256e-04,0.47,1.02,,-4.6280e-02,0.68
-9.254e-04,0.45,1.04,,-4.6270e-02,0.68
-9.252e-04,0.47,1.02,,-4.6260e-02,0.72
-9.250e-04,0.47,1.04,,-4.6250e-02,0.72
-9.248e-04,0.49,1.04,,-4.6240e-02,0.68
-9.246e-04,0.51,1.02,,-4.6230e-02,0.68
-9.244e-04,0.53,1.02,,-4.6220e-02,0.68
-9.242e-04,0.47,1.04,,-4.6210e-02,0.68
-9.240e-04,0.47,1.02,,-4.6200e-02,0.68
-9.238e-04,0.47,1.04,,-4.6190e-02,0.7
-9.236e-04,0.49,1.04,,-4.6180e-02,0.66
-9.234e-04,0.51,1.02,,-4.6170e-02,0.7
-9.232e-04,0.49,1.02,,-4.6160e-02,0.64
-9.230e-04,0.51,1.02,,-4.6150e-02,0.7
-9.228e-04,0.47,1,,-4.6140e-02,0.64
-9.226e-04,0.47,1.02,,-4.6130e-02,0.68
-9.224e-04,0.49,1,,-4.6120e-02,0.66
-9.222e-04,0.49,1,,-4.6110e-02,0.68
-9.220e-04,0.47,1,,-4.6100e-02,0.66
-9.218e-04,0.47,1,,-4.6090e-02,0.66
-9.216e-04,0.45,1,,-4.6080e-02,0.7
-9.214e-04,0.43,0.98,,-4.6070e-02,0.68
-9.212e-04,0.47,0.98,,-4.6060e-02,0.68
-9.210e-04,0.49,0.98,,-4.6050e-02,0.7
-9.208e-04,0.51,1,,-4.6040e-02,0.66
-9.206e-04,0.53,1,,-4.6030e-02,0.64
-9.204e-04,0.47,0.94,,-4.6020e-02,0.7
-9.202e-04,0.49,0.96,,-4.6010e-02,0.66
-9.200e-04,0.47,0.96,,-4.6000e-02,0.66
-9.198e-04,0.47,0.98,,-4.5990e-02,0.66
-9.196e-04,0.49,0.98,,-4.5980e-02,0.66
-9.194e-04,0.49,0.96,,-4.5970e-02,0.68
-9.192e-04,0.49,0.98,,-4.5960e-02,0.7
-9.190e-04,0.49,0.98,,-4.5950e-02,0.66
-9.188e-04,0.51,0.96,,-4.5940e-02,0.64
-9.186e-04,0.45,0.92,,-4.5930e-02,0.68
-9.184e-04,0.47,0.94,,-4.5920e-02,0.7
-9.182e-04,0.47,0.94,,-4.5910e-02,0.68
-9.180e-04,0.47,0.96,,-4.5900e-02,0.68
-9.178e-04,0.45,0.94,,-4.5890e-02,0.7
-9.176e-04,0.43,0.96,,-4.5880e-02,0.7
-9.174e-04,0.49,0.94,,-4.5870e-02,0.68
-9.172e-04,0.49,0.94,,-4.5860e-02,0.7
-9.170e-04,0.51,0.98,,-4.5850e-02,0.7
-9.168e-04,1.33,0.96,,-4.5840e-02,0.7
-9.166e-04,1.53,0.92,,-4.5830e-02,0.7
-9.164e-04,1.51,0.96,,-4.5820e-02,0.72
-9.162e-04,1.51,0.96,,-4.5810e-02,0.7
-9.160e-04,1.49,0.92,,-4.5800e-02,0.7
-9.158e-04,1.47,0.94,,-4.5790e-02,0.68
-9.156e-04,1.49,0.94,,-4.5780e-02,0.68
-9.154e-04,1.47,0.94,,-4.5770e-02,0.68
-9.152e-04,1.47,0.96,,-4.5760e-02,0.7
-9.150e-04,1.49,0.96,,-4.5750e-02,0.68
-9.148e-04,1.47,0.94,,-4.5740e-02,0.68
-9.146e-04,1.49,0.96,,-4.5730e-02,0.7
-9.144e-04,1.49,0.96,,-4.5720e-02,0.66
-9.142e-04,1.49,0.94,,-4.5710e-02,0.66
-9.140e-04,1.49,0.96,,-4.5700e-02,0.7
-9.138e-04,1.53,0.96,,-4.5690e-02,0.7
-9.136e-04,1.47,0.96,,-4.5680e-02,0.66
-9.134e-04,1.45,0.98,,-4.5670e-02,0.68
-9.132e-04,1.53,0.94,,-4.5660e-02,0.7
-9.130e-04,1.49,0.98,,-4.5650e-02,0.7
-9.128e-04,1.51,0.98,,-4.5640e-02,0.68
-9.126e-04,1.45,0.94,,-4.5630e-02,0.72
-9.124e-04,1.53,0.96,,-4.5620e-02,0.68
-9.122e-04,1.51,1,,-4.5610e-02,0.68
-9.120e-04,1.47,0.96,,-4.5600e-02,0.68
-9.118e-04,1.49,1,,-4.5590e-02,0.7
-9.116e-04,1.51,1,,-4.5580e-02,0.68
-9.114e-04,1.47,0.96,,-4.5570e-02,0.64
-9.112e-04,1.45,0.96,,-4.5560e-02,0.66
-9.110e-04,1.51,0.96,,-4.5550e-02,0.68
-9.108e-04,1.49,1,,-4.5540e-02,0.68
-9.106e-04,1.53,1,,-4.5530e-02,0.66
-9.104e-04,1.47,1,,-4.5520e-02,0.68
-9.102e-04,1.45,0.96,,-4.5510e-02,0.7
-9.100e-04,1.53,0.96,,-4.5500e-02,0.68
-9.098e-04,1.51,1,,-4.5490e-02,0.68
-9.096e-04,1.51,1,,-4.5480e-02,0.66
-9.094e-04,1.49,1,,-4.5470e-02,0.68
-9.092e-04,1.51,1.02,,-4.5460e-02,0.68
-9.090e-04,1.49,1,,-4.5450e-02,0.66
-9.088e-04,1.49,1.06,,-4.5440e-02,0.7
-9.086e-04,1.51,1.02,,-4.5430e-02,0.64
-9.084e-04,1.47,1,,-4.5420e-02,0.66
-9.082e-04,1.51,1.02,,-4.5410e-02,0.68
-9.080e-04,1.49,1,,-4.5400e-02,0.7
-9.078e-04,1.47,1.02,,-4.5390e-02,0.66
-9.076e-04,1.43,1.02,,-4.5380e-02,0.66
-9.074e-04,1.49,0.96,,-4.5370e-02,0.68
-9.072e-04,1.45,0.96,,-4.5360e-02,0.68
-9.070e-04,1.45,1,,-4.5350e-02,0.68
-9.068e-04,1.49,1.02,,-4.5340e-02,0.64
-9.066e-04,1.47,1.04,,-4.5330e-02,0.68
-9.064e-04,1.45,1.02,,-4.5320e-02,0.68
-9.062e-04,1.53,1.02,,-4.5310e-02,0.68
-9.060e-04,1.51,1.02,,-4.5300e-02,0.7
-9.058e-04,1.49,1.04,,-4.5290e-02,0.72
-9.056e-04,1.51,1.06,,-4.5280e-02,0.66
-9.054e-04,1.49,1.06,,-4.5270e-02,0.7
-9.052e-04,1.53,1.06,,-4.5260e-02,0.68
-9.050e-04,1.51,1.06,,-4.5250e-02,0.72
-9.048e-04,1.51,1.02,,-4.5240e-02,0.68
-9.046e-04,1.49,1.06,,-4.5230e-02,0.7
-9.044e-04,1.47,1.02,,-4.5220e-02,0.68
-9.042e-04,1.49,1.04,,-4.5210e-02,0.7
-9.040e-04,1.49,1.06,,-4.5200e-02,0.68
-9.038e-04,1.47,1.06,,-4.5190e-02,0.66
-9.036e-04,1.45,1.06,,-4.5180e-02,0.7
-9.034e-04,1.47,1.06,,-4.5170e-02,0.7
-9.032e-04,1.45,1.1,,-4.5160e-02,0.66
-9.030e-04,1.49,1.08,,-4.5150e-02,0.68
-9.028e-04,1.45,1.1,,-4.5140e-02,0.66
-9.026e-04,1.51,1.08,,-4.5130e-02,0.72
-9.024e-04,1.53,1.1,,-4.5120e-02,0.66
-9.022e-04,1.51,1.1,,-4.5110e-02,0.68
-9.020e-04,1.51,1.08,,-4.5100e-02,0.68
-9.018e-04,1.51,1.08,,-4.5090e-02,0.68
-9.016e-04,1.49,1.08,,-4.5080e-02,0.68
-9.014e-04,1.51,1.06,,-4.5070e-02,0.7
-9.012e-04,1.41,1.08,,-4.5060e-02,0.66
-9.010e-04,1.47,1.06,,-4.5050e-02,0.68
-9.008e-04,1.45,1.06,,-4.5040e-02,0.7
-9.006e-04,1.45,1.08,,-4.5030e-02,0.68
-9.004e-04,1.45,1.08,,-4.5020e-02,0.64
-9.002e-04,1.45,1.08,,-4.5010e-02,0.66
-9.000e-04,1.49,1.06,,-4.5000e-02,0.7
-8.998e-04,1.51,1.08,,-4.4990e-02,0.68
-8.996e-04,1.49,1.08,,-4.4980e-02,0.68
-8.994e-04,1.49,1.12,,-4.4970e-02,0.68
-8.992e-04,1.49,1.14,,-4.4960e-02,0.66
-8.990e-04,1.51,1.1,,-4.4950e-02,0.68
-8.988e-04,1.51,1.08,,-4.4940e-02,0.66
-8.986e-04,1.49,1.1,,-4.4930e-02,0.66
