week3/data/diff2_data/good/freq_response_1_0.5/2/tek0005ALL.csv

Model,DPO3012
Firmware Version,2.16

Point Format,Y,,,Point Format,Y
Horizontal Units,S,,,Horizontal Units,S
Horizontal Scale,0.0004,,,Horizontal Scale,0.01
Sample Interval,4e-07,,,Sample Interval,1e-05
Record Length,10000,,,Record Length,10000
Gating,0.0% to 100.0%,0.0% to 100.0%,,Gating,0.0% to 100.0%
Probe Attenuation,1,1,,Probe Attenuation,1
Vertical Units,V,V,,Vertical Units,V
Vertical Offset,0,0,,Vertical Offset,0
Vertical Scale,1,1,,Vertical Scale,0.5
Label,,,,Label,
TIME,CH1,CH2,,TIME,REF1
-2.0000e-03,1.4,1.16,,-5.0000e-02,0.66
-1.9996e-03,1.4,1.16,,-4.9990e-02,0.7
-1.9992e-03,1.4,1.16,,-4.9980e-02,0.68
-1.9988e-03,1.48,1.2,,-4.9970e-02,0.66
-1.9984e-03,1.4,1.2,,-4.9960e-02,0.64
-1.9980e-03,1.36,1.24,,-4.9950e-02,0.7
-1.9976e-03,1.4,1.16,,-4.9940e-02,0.66
-1.9972e-03,1.4,1.24,,-4.9930e-02,0.66
-1.9968e-03,1.4,1.2,,-4.9920e-02,0.66
-1.9964e-03,1.32,1.24,,-4.9910e-02,0.68
-1.9960e-03,1.44,1.28,,-4.9900e-02,0.68
-1.9956e-03,1.44,1.28,,-4.9890e-02,0.68
-1.9952e-03,1.48,1.32,,-4.9880e-02,0.68
-1.9948e-03,1.4,1.32,,-4.9870e-02,0.64
-1.9944e-03,1.48,1.28,,-4.9860e-02,0.66
-1.9940e-03,1.4,1.36,,-4.9850e-02,0.68
-1.9936e-03,1.36,1.32,,-4.9840e-02,0.68
-1.9932e-03,1.36,1.4,,-4.9830e-02,0.68
-1.9928e-03,1.48,1.44,,-4.9820e-02,0.68
-1.9924e-03,1.44,1.4,,-4.9810e-02,0.66
-1.9920e-03,1.4,1.4,,-4.9800e-02,0.66
-1.9916e-03,1.44,1.36,,-4.9790e-02,0.68
-1.9912e-03,1.48,1.4,,-4.9780e-02,0.64
-1.9908e-03,1.44,1.4,,-4.9770e-02,0.64
-1.9904e-03,1.48,1.4,,-4.9760e-02,0.7
-1.9900e-03,1.48,1.44,,-4.9750e-02,0.68
-1.9896e-03,1.36,1.44,,-4.9740e-02,0.72
-1.9892e-03,1.36,1.48,,-4.9730e-02,0.66
-1.9888e-03,1.44,1.44,,-4.9720e-02,0.66
-1.9884e-03,1.44,1.48,,-4.9710e-02,0.7
-1.9880e-03,1.4,1.44,,-4.9700e-02,0.68
-1.9876e-03,1.32,1.4,,-4.9690e-02,0.68
-1.9872e-03,1.44,1.36,,-4.9680e-02,0.7
-1.9868e-03,1.4,1.36,,-4.9670e-02,0.7
-1.9864e-03,1.48,1.44,,-4.9660e-02,0.68
-1.9860e-03,1.36,1.36,,-4.9650e-02,0.7
-1.9856e-03,1.44,1.4,,-4.9640e-02,0.68
-1.9852e-03,1.44,1.4,,-4.9630e-02,0.7
-1.9848e-03,1.36,1.44,,-4.9620e-02,0.68
-1.9844e-03,1.44,1.36,,-4.9610e-02,0.66
-1.9840e-03,1.36,1.36,,-4.9600e-02,0.7
-1.9836e-03,1.36,1.4,,-4.9590e-02,0.68
-1.9832e-03,1.48,1.28,,-4.9580e-02,0.66
-1.9828e-03,1.4,1.32,,-4.9570e-02,0.68
-1.9824e-03,1.48,1.36,,-4.9560e-02,0.68
-1.9820e-03,1.44,1.36,,-4.9550e-02,0.68
-1.9816e-03,1.44,1.36,,-4.9540e-02,0.68
-1.9812e-03,1.4,1.24,,-4.9530e-02,0.68
-1.9808e-03,1.4,1.28,,-4.9520e-02,0.7
-1.9804e-03,1.48,1.36,,-4.9510e-02,0.66
-1.9800e-03,1.36,1.28,,-4.9500e-02,0.66
-1.9796e-03,1.36,1.28,,-4.9490e-02,0.7
-1.9792e-03,1.36,1.24,,-4.9480e-02,0.68
-1.9788e-03,1.36,1.24,,-4.9470e-02,0.66
-1.9784e-03,1.4,1.28,,-4.9460e-02,0.66
-1.9780e-03,1.4,1.24,,-4.9450e-02,0.7
-1.9776e-03,1.36,1.24,,-4.9440e-02,0.68
-1.9772e-03,1.44,1.24,,-4.9430e-02,0.68
-1.9768e-03,1.4,1.24,,-4.9420e-02,0.68
-1.9764e-03,1.4,1.2,,-4.9410e-02,0.68
-1.9760e-03,1.48,1.24,,-4.9400e-02,0.68
-1.9756e-03,1.44,1.24,,-4.9390e-02,0.66
-1.9752e-03,1.44,1.2,,-4.9380e-02,0.68
-1.9748e-03,1.4,1.2,,-4.9370e-02,0.66
-1.9744e-03,1.32,1.24,,-4.9360e-02,0.66
-1.9740e-03,1.4,1.16,,-4.9350e-02,0.64
-1.9736e-03,1.36,1.2,,-4.9340e-02,0.66
-1.9732e-03,1.48,1.24,,-4.9330e-02,0.68
-1.9728e-03,1.32,1.16,,-4.9320e-02,0.7
-1.9724e-03,1.4,1.24,,-4.9310e-02,0.68
-1.9720e-03,1.4,1.24,,-4.9300e-02,0.68
-1.9716e-03,1.44,1.2,,-4.9290e-02,0.7
-1.9712e-03,1.4,1.24,,-4.9280e-02,0.7
-1.9708e-03,1.4,1.28,,-4.9270e-02,0.7
-1.9704e-03,1.36,1.24,,-4.9260e-02,0.72
-1.9700e-03,1.32,1.24,,-4.9250e-02,0.7
-1.9696e-03,1.4,1.32,,-4.9240e-02,0.68
-1.9692e-03,1.32,1.16,,-4.9230e-02,0.7
-1.9688e-03,1.4,1.24,,-4.9220e-02,0.7
-1.9684e-03,1.4,1.28,,-4.9210e-02,0.68
-1.9680e-03,1.48,1.28,,-4.9200e-02,0.68
-1.9676e-03,1.48,1.24,,-4.9190e-02,0.66
-1.9672e-03,1.36,1.24,,-4.9180e-02,0.66
-1.9668e-03,1.48,1.28,,-4.9170e-02,0.66
-1.9664e-03,1.4,1.28,,-4.9160e-02,0.7
-1.9660e-03,1.44,1.36,,-4.9150e-02,0.68
-1.9656e-03,1.44,1.28,,-4.9140e-02,0.68
-1.9652e-03,1.44,1.32,,-4.9130e-02,0.7
-1.9648e-03,1.32,1.28,,-4.9120e-02,0.66
-1.9644e-03,1.4,1.28,,-4.9110e-02,0.66
-1.9640e-03,1.44,1.36,,-4.9100e-02,0.68
-1.9636e-03,1.4,1.32,,-4.9090e-02,0.68
-1.9632e-03,1.4,1.28,,-4.9080e-02,0.68
-1.9628e-03,1.36,1.36,,-4.9070e-02,0.66
-1.9624e-03,1.48,1.32,,-4.9060e-02,0.7
-1.9620e-03,1.4,1.28,,-4.9050e-02,0.68
-1.9616e-03,1.44,1.36,,-4.9040e-02,0.68
-1.9612e-03,1.4,1.28,,-4.9030e-02,0.66
-1.9608e-03,1.52,1.36,,-4.9020e-02,0.66
-1.9604e-03,1.36,1.32,,-4.9010e-02,0.68
-1.9600e-03,1.4,1.32,,-4.9000e-02,0.66
-1.9596e-03,1.4,1.28,,-4.8990e-02,0.68
-1.9592e-03,1.4,1.36,,-4.8980e-02,0.7
-1.9588e-03,1.36,1.28,,-4.8970e-02,0.68
-1.9584e-03,1.4,1.24,,-4.8960e-02,0.66
-1.9580e-03,1.36,1.36,,-4.8950e-02,0.68
-1.9576e-03,1.4,1.32,,-4.8940e-02,0.68
-1.9572e-03,1.4,1.28,,-4.8930e-02,0.68
-1.9568e-03,1.32,1.32,,-4.8920e-02,0.7
-1.9564e-03,1.4,1.28,,-4.8910e-02,0.64
-1.9560e-03,1.44,1.36,,-4.8900e-02,0.7
-1.9556e-03,1.44,1.36,,-4.8890e-02,0.66
-1.9552e-03,1.4,1.32,,-4.8880e-02,0.7
-1.9548e-03,1.36,1.32,,-4.8870e-02,0.68
-1.9544e-03,1.44,1.28,,-4.8860e-02,0.7
-1.9540e-03,1.4,1.28,,-4.8850e-02,0.66
-1.9536e-03,1.4,1.28,,-4.8840e-02,0.66
-1.9532e-03,1.48,1.28,,-4.8830e-02,0.68
-1.9528e-03,1.52,1.28,,-4.8820e-02,0.7
-1.9524e-03,1.4,1.36,,-4.8810e-02,0.64
-1.9520e-03,1.48,1.28,,-4.8800e-02,0.68
-1.9516e-03,1.44,1.28,,-4.8790e-02,0.66
-1.9512e-03,1.44,1.32,,-4.8780e-02,0.68
-1.9508e-03,1.44,1.32,,-4.8770e-02,0.7
-1.9504e-03,1.4,1.32,,-4.8760e-02,0.66
-1.9500e-03,1.32,1.24,,-4.8750e-02,0.7
-1.9496e-03,1.4,1.24,,-4.8740e-02,0.7
-1.9492e-03,1.4,1.24,,-4.8730e-02,0.66
-1.9488e-03,1.36,1.24,,-4.8720e-02,0.64
-1.9484e-03,1.4,1.28,,-4.8710e-02,0.68
-1.9480e-03,1.48,1.28,,-4.8700e-02,0.66
-1.9476e-03,1.44,1.24,,-4.8690e-02,0.68
-1.9472e-03,1.48,1.24,,-4.8680e-02,0.68
-1.9468e-03,1.48,1.32,,-4.8670e-02,0.68
-1.9464e-03,1.44,1.24,,-4.8660e-02,0.7
-1.9460e-03,1.4,1.24,,-4.8650e-02,0.68
-1.9456e-03,1.4,1.24,,-4.8640e-02,0.7
-1.9452e-03,1.4,1.32,,-4.8630e-02,0.7
-1.9448e-03,1.28,1.28,,-4.8620e-02,0.66
-1.9444e-03,1.4,1.28,,-4.8610e-02,0.72
-1.9440e-03,1.44,1.24,,-4.8600e-02,0.68
-1.9436e-03,1.48,1.32,,-4.8590e-02,0.68
-1.9432e-03,1.4,1.32,,-4.8580e-02,0.66
-1.9428e-03,1.4,1.2,,-4.8570e-02,0.68
-1.9424e-03,1.36,1.24,,-4.8560e-02,0.68
-1.9420e-03,1.4,1.2,,-4.8550e-02,0.68
-1.9416e-03,1.44,1.2,,-4.8540e-02,0.7
-1.9412e-03,1.44,1.32,,-4.8530e-02,0.7
-1.9408e-03,1.44,1.28,,-4.8520e-02,0.68
-1.9404e-03,1.44,1.28,,-4.8510e-02,0.66
-1.9400e-03,1.4,1.24,,-4.8500e-02,0.72
-1.9396e-03,1.4,1.32,,-4.8490e-02,0.7
-1.9392e-03,1.4,1.32,,-4.8480e-02,0.66
-1.9388e-03,1.44,1.32,,-4.8470e-02,0.68
-1.9384e-03,1.4,1.24,,-4.8460e-02,0.68
-1.9380e-03,1.4,1.36,,-4.8450e-02,0.7
-1.9376e-03,1.36,1.28,,-4.8440e-02,0.66
-1.9372e-03,1.4,1.32,,-4.8430e-02,0.66
-1.9368e-03,1.4,1.28,,-4.8420e-02,0.7
-1.9364e-03,1.44,1.28,,-4.8410e-02,0.7
-1.9360e-03,1.44,1.28,,-4.8400e-02,0.66
-1.9356e-03,1.4,1.24,,-4.8390e-02,0.68
-1.9352e-03,1.32,1.28,,-4.8380e-02,0.66
-1.9348e-03,1.44,1.28,,-4.8370e-02,0.68
-1.9344e-03,1.4,1.32,,-4.8360e-02,0.66
-1.9340e-03,1.4,1.28,,-4.8350e-02,0.68
-1.9336e-03,1.4,1.28,,-4.8340e-02,0.7
-1.9332e-03,1.4,1.28,,-4.8330e-02,0.68
-1.9328e-03,1.44,1.24,,-4.8320e-02,0.7
-1.9324e-03,1.36,1.28,,-4.8310e-02,0.7
-1.9320e-03,1.4,1.28,,-4.8300e-02,0.7
-1.9316e-03,1.44,1.28,,-4.8290e-02,0.68
-1.9312e-03,1.36,1.32,,-4.8280e-02,0.7
-1.9308e-03,1.44,1.28,,-4.8270e-02,0.7
-1.9304e-03,1.36,1.32,,-4.8260e-02,0.68
-1.9300e-03,1.44,1.36,,-4.8250e-02,0.72
-1.9296e-03,1.4,1.28,,-4.8240e-02,0.64
-1.9292e-03,1.36,1.28,,-4.8230e-02,0.64
-1.9288e-03,1.36,1.28,,-4.8220e-02,0.68
-1.9284e-03,1.36,1.2,,-4.8210e-02,0.64
-1.9280e-03,1.36,1.32,,-4.8200e-02,0.7
-1.9276e-03,1.48,1.28,,-4.8190e-02,0.68
-1.9272e-03,1.48,1.32,,-4.8180e-02,0.68
-1.9268e-03,1.4,1.32,,-4.8170e-02,0.66
-1.9264e-03,1.48,1.32,,-4.8160e-02,0.68
-1.9260e-03,1.4,1.32,,-4.8150e-02,0.7
-1.9256e-03,1.48,1.28,,-4.8140e-02,0.68
-1.9252e-03,1.4,1.32,,-4.8130e-02,0.7
-1.9248e-03,1.32,1.28,,-4.8120e-02,0.68
-1.9244e-03,1.32,1.24,,-4.8110e-02,0.7
-1.9240e-03,1.44,1.24,,-4.8100e-02,0.68
-1.9236e-03,1.32,1.24,,-4.8090e-02,0.68
-1.9232e-03,1.48,1.32,,-4.8080e-02,0.68
-1.9228e-03,1.36,1.28,,-4.8070e-02,0.7
-1.9224e-03,1.44,1.28,,-4.8060e-02,0.66
-1.9220e-03,1.44,1.32,,-4.8050e-02,0.68
-1.9216e-03,1.32,1.32,,-4.8040e-02,0.66
-1.9212e-03,1.36,1.28,,-4.8030e-02,0.7
-1.9208e-03,1.4,1.28,,-4.8020e-02,0.7
-1.9204e-03,1.44,1.36,,-4.8010e-02,0.66
-1.9200e-03,1.32,1.28,,-4.8000e-02,0.7
-1.9196e-03,1.4,1.28,,-4.7990e-02,0.68
-1.9192e-03,1.36,1.28,,-4.7980e-02,0.66
-1.9188e-03,1.36,1.28,,-4.7970e-02,0.66
-1.9184e-03,1.36,1.24,,-4.7960e-02,0.68
-1.9180e-03,1.44,1.32,,-4.7950e-02,0.68
-1.9176e-03,1.36,1.24,,-4.7940e-02,0.7
-1.9172e-03,1.44,1.28,,-4.7930e-02,0.66
-1.9168e-03,1.36,1.28,,-4.7920e-02,0.68
-1.9164e-03,1.36,1.28,,-4.7910e-02,0.66
-1.9160e-03,1.4,1.24,,-4.7900e-02,0.68
-1.9156e-03,1.32,1.2,,-4.7890e-02,0.7
-1.9152e-03,1.4,1.24,,-4.7880e-02,0.68
-1.9148e-03,1.4,1.24,,-4.7870e-02,0.66
-1.9144e-03,1.4,1.28,,-4.7860e-02,0.68
-1.9140e-03,1.44,1.28,,-4.7850e-02,0.7
-1.9136e-03,1.4,1.24,,-4.7840e-02,0.66
-1.9132e-03,1.44,1.32,,-4.7830e-02,0.68
-1.9128e-03,1.44,1.24,,-4.7820e-02,0.68
-1.9124e-03,1.4,1.28,,-4.7810e-02,0.7
-1.9120e-03,1.44,1.28,,-4.7800e-02,0.7
-1.9116e-03,1.36,1.28,,-4.7790e-02,0.68
-1.9112e-03,1.36,1.24,,-4.7780e-02,0.72
-1.9108e-03,1.36,1.28,,-4.7770e-02,0.7
-1.9104e-03,1.4,1.28,,-4.7760e-02,0.7
-1.9100e-03,1.4,1.24,,-4.7750e-02,0.7
-1.9096e-03,1.48,1.28,,-4.7740e-02,0.68
-1.9092e-03,1.32,1.24,,-4.7730e-02,0.7
-1.9088e-03,1.44,1.36,,-4.7720e-02,0.68
-1.9084e-03,1.36,1.32,,-4.7710e-02,0.66
-1.9080e-03,1.4,1.28,,-4.7700e-02,0.66
-1.9076e-03,1.44,1.36,,-4.7690e-02,0.68
-1.9072e-03,1.4,1.28,,-4.7680e-02,0.66
-1.9068e-03,1.44,1.28,,-4.7670e-02,0.7
-1.9064e-03,1.4,1.24,,-4.7660e-02,0.68
-1.9060e-03,1.36,1.24,,-4.7650e-02,0.66
-1.9056e-03,1.44,1.28,,-4.7640e-02,0.68
-1.9052e-03,1.4,1.28,,-4.7630e-02,0.72
-1.9048e-03,1.48,1.36,,-4.7620e-02,0.68
-1.9044e-03,1.44,1.24,,-4.7610e-02,0.72
-1.9040e-03,1.44,1.28,,-4.7600e-02,0.68
-1.9036e-03,1.44,1.28,,-4.7590e-02,0.66
-1.9032e-03,1.4,1.32,,-4.7580e-02,0.64
-1.9028e-03,1.36,1.24,,-4.7570e-02,0.68
-1.9024e-03,1.4,1.36,,-4.7560e-02,0.68
-1.9020e-03,1.4,1.32,,-4.7550e-02,0.7
-1.9016e-03,1.36,1.28,,-4.7540e-02,0.66
-1.9012e-03,1.36,1.24,,-4.7530e-02,0.7
-1.9008e-03,1.48,1.32,,-4.7520e-02,0.68
-1.9004e-03,1.48,1.28,,-4.7510e-02,0.7
-1.9000e-03,1.52,1.28,,-4.7500e-02,0.7
-1.8996e-03,1.48,1.28,,-4.7490e-02,0.66
-1.8992e-03,1.44,1.24,,-4.7480e-02,0.66
-1.8988e-03,1.36,1.28,,-4.7470e-02,0.66
-1.8984e-03,1.48,1.28,,-4.7460e-02,0.66
-1.8980e-03,1.4,1.32,,-4.7450e-02,0.7
-1.8976e-03,1.36,1.28,,-4.7440e-02,0.64
-1.8972e-03,1.4,1.28,,-4.7430e-02,0.68
-1.8968e-03,1.4,1.32,,-4.7420e-02,0.7
-1.8964e-03,1.4,1.28,,-4.7410e-02,0.66
-1.8960e-03,1.36,1.32,,-4.7400e-02,0.68
-1.8956e-03,1.4,1.32,,-4.7390e-02,0.66
-1.8952e-03,1.36,1.28,,-4.7380e-02,0.64
-1.8948e-03,1.32,1.24,,-4.7370e-02,0.68
-1.8944e-03,1.4,1.2,,-4.7360e-02,0.68
-1.8940e-03,1.36,1.24,,-4.7350e-02,0.66
-1.8936e-03,1.4,1.24,,-4.7340e-02,0.7
-1.8932e-03,1.48,1.28,,-4.7330e-02,0.64
-1.8928e-03,1.44,1.28,,-4.7320e-02,0.7
-1.8924e-03,1.48,1.24,,-4.7310e-02,0.66
-1.8920e-03,1.4,1.28,,-4.7300e-02,0.66
-1.8916e-03,1.44,1.24,,-4.7290e-02,0.64
-1.8912e-03,1.44,1.24,,-4.7280e-02,0.7
-1.8908e-03,1.4,1.28,,-4.7270e-02,0.66
-1.8904e-03,1.32,1.28,,-4.7260e-02,0.68
-1.8900e-03,1.44,1.28,,-4.7250e-02,0.68
-1.8896e-03,1.44,1.28,,-4.7240e-02,0.68
-1.8892e-03,1.4,1.24,,-4.7230e-02,0.68
-1.8888e-03,1.44,1.28,,-4.7220e-02,0.68
-1.8884e-03,1.4,1.28,,-4.7210e-02,0.66
-1.8880e-03,1.36,1.24,,-4.7200e-02,0.66
-1.8876e-03,1.4,1.28,,-4.7190e-02,0.68
-1.8872e-03,1.44,1.24,,-4.7180e-02,0.7
-1.8868e-03,1.48,1.28,,-4.7170e-02,0.7
-1.8864e-03,1.44,1.28,,-4.7160e-02,0.7
-1.8860e-03,1.44,1.32,,-4.7150e-02,0.68
-1.8856e-03,1.36,1.32,,-4.7140e-02,0.68
-1.8852e-03,1.36,1.32,,-4.7130e-02,0.68
-1.8848e-03,1.4,1.32,,-4.7120e-02,0.7
-1.8844e-03,1.44,1.32,,-4.7110e-02,0.64
-1.8840e-03,1.36,1.24,,-4.7100e-02,0.68
-1.8836e-03,1.36,1.28,,-4.7090e-02,0.66
-1.8832e-03,1.44,1.24,,-4.7080e-02,0.66
-1.8828e-03,1.48,1.28,,-4.7070e-02,0.68
-1.8824e-03,1.48,1.24,,-4.7060e-02,0.7
-1.8820e-03,1.48,1.24,,-4.7050e-02,0.7
-1.8816e-03,1.44,1.28,,-4.7040e-02,0.64
-1.8812e-03,1.44,1.24,,-4.7030e-02,0.72
-1.8808e-03,1.4,1.32,,-4.7020e-02,0.7
-1.8804e-03,1.4,1.28,,-4.7010e-02,0.68
-1.8800e-03,1.48,1.28,,-4.7000e-02,0.7
-1.8796e-03,1.36,1.32,,-4.6990e-02,0.7
-1.8792e-03,1.36,1.24,,-4.6980e-02,0.7
-1.8788e-03,1.36,1.24,,-4.6970e-02,0.68
-1.8784e-03,1.36,1.24,,-4.6960e-02,0.68
-1.8780e-03,1.4,1.32,,-4.6950e-02,0.68
-1.8776e-03,1.4,1.24,,-4.6940e-02,0.7
-1.8772e-03,1.36,1.24,,-4.6930e-02,0.7
-1.8768e-03,1.4,1.28,,-4.6920e-02,0.68
-1.8764e-03,1.4,1.28,,-4.6910e-02,0.7
-1.8760e-03,1.36,1.28,,-4.6900e-02,0.66
-1.8756e-03,1.36,1.24,,-4.6890e-02,0.66
-1.8752e-03,1.48,1.24,,-4.6880e-02,0.7
-1.8748e-03,1.36,1.2,,-4.6870e-02,0.66
-1.8744e-03,1.4,1.24,,-4.6860e-02,0.66
-1.8740e-03,1.4,1.24,,-4.6850e-02,0.68
-1.8736e-03,1.48,1.24,,-4.6840e-02,0.64
-1.8732e-03,1.48,1.28,,-4.6830e-02,0.66
-1.8728e-03,1.32,1.32,,-4.6820e-02,0.68
-1.8724e-03,1.4,1.28,,-4.6810e-02,0.68
-1.8720e-03,1.4,1.36,,-4.6800e-02,0.68
-1.8716e-03,1.32,1.32,,-4.6790e-02,0.68
-1.8712e-03,1.44,1.28,,-4.6780e-02,0.7
-1.8708e-03,1.4,1.24,,-4.6770e-02,0.68
-1.8704e-03,1.36,1.24,,-4.6760e-02,0.66
-1.8700e-03,1.44,1.24,,-4.6750e-02,0.66
-1.8696e-03,1.4,1.28,,-4.6740e-02,0.66
-1.8692e-03,1.44,1.28,,-4.6730e-02,0.7
-1.8688e-03,1.44,1.28,,-4.6720e-02,0.66
-1.8684e-03,1.44,1.32,,-4.6710e-02,0.66
-1.8680e-03,1.44,1.28,,-4.6700e-02,0.7
-1.8676e-03,1.52,1.28,,-4.6690e-02,0.7
-1.8672e-03,1.4,1.32,,-4.6680e-02,0.7
-1.8668e-03,1.4,1.16,,-4.6670e-02,0.68
-1.8664e-03,1.4,1.32,,-4.6660e-02,0.66
-1.8660e-03,1.36,1.24,,-4.6650e-02,0.68
-1.8656e-03,1.36,1.28,,-4.6640e-02,0.68
-1.8652e-03,1.44,1.28,,-4.6630e-02,0.68
-1.8648e-03,1.48,1.36,,-4.6620e-02,0.72
-1.8644e-03,1.4,1.2,,-4.6610e-02,0.68
-1.8640e-03,1.44,1.28,,-4.6600e-02,0.66
-1.8636e-03,1.36,1.32,,-4.6590e-02,0.68
-1.8632e-03,1.4,1.32,,-4.6580e-02,0.68
-1.8628e-03,1.4,1.32,,-4.6570e-02,0.68
-1.8624e-03,1.44,1.36,,-4.6560e-02,0.66
-1.8620e-03,1.32,1.24,,-4.6550e-02,0.66
-1.8616e-03,1.36,1.28,,-4.6540e-02,0.7
-1.8612e-03,1.36,1.24,,-4.6530e-02,0.66
-1.8608e-03,1.4,1.32,,-4.6520e-02,0.68
-1.8604e-03,1.4,1.28,,-4.6510e-02,0.7
-1.8600e-03,1.4,1.28,,-4.6500e-02,0.68
-1.8596e-03,1.44,1.24,,-4.6490e-02,0.68
-1.8592e-03,1.4,1.24,,-4.6480e-02,0.7
-1.8588e-03,1.44,1.28,,-4.6470e-02,0.64
-1.8584e-03,1.36,1.24,,-4.6460e-02,0.68
-1.8580e-03,1.44,1.32,,-4.6450e-02,0.64
-1.8576e-03,1.36,1.32,,-4.6440e-02,0.7
-1.8572e-03,1.4,1.28,,-4.6430e-02,0.68
-1.8568e-03,1.4,1.28,,-4.6420e-02,0.7
-1.8564e-03,1.44,1.28,,-4.6410e-02,0.66
-1.8560e-03,1.44,1.24,,-4.6400e-02,0.66
-1.8556e-03,1.36,1.28,,-4.6390e-02,0.7
-1.8552e-03,1.4,1.24,,-4.6380e-02,0.66
-1.8548e-03,1.36,1.24,,-4.6370e-02,0.66
-1.8544e-03,1.36,1.28,,-4.6360e-02,0.66
-1.8540e-03,1.4,1.24,,-4.6350e-02,0.66
-1.8536e-03,1.4,1.24,,-4.6340e-02,0.7
-1.8532e-03,1.48,1.28,,-4.6330e-02,0.68
-1.8528e-03,1.48,1.28,,-4.6320e-02,0.68
-1.8524e-03,1.4,1.36,,-4.6310e-02,0.68
-1.8520e-03,1.36,1.28,,-4.6300e-02,0.68
-1.8516e-03,1.44,1.32,,-4.6290e-02,0.66
-1.8512e-03,1.44,1.36,,-4.6280e-02,0.68
-1.8508e-03,1.4,1.28,,-4.6270e-02,0.68
-1.8504e-03,1.4,1.36,,-4.6260e-02,0.72
-1.8500e-03,1.4,1.28,,-4.6250e-02,0.72
-1.8496e-03,1.32,1.24,,-4.6240e-02,0.68
-1.8492e-03,1.36,1.28,,-4.6230e-02,0.68
-1.8488e-03,1.44,1.28,,-4.6220e-02,0.68
-1.8484e-03,1.4,1.24,,-4.6210e-02,0.68
-1.8480e-03,1.44,1.28,,-4.6200e-02,0.68
-1.8476e-03,1.44,1.28,,-4.6190e-02,0.7
-1.8472e-03,1.44,1.28,,-4.6180e-02,0.66
-1.8468e-03,1.4,1.24,,-4.6170e-02,0.7
-1.8464e-03,1.32,1.36,,-4.6160e-02,0.64
-1.8460e-03,1.44,1.28,,-4.6150e-02,0.7
-1.8456e-03,1.44,1.24,,-4.6140e-02,0.64
-1.8452e-03,1.4,1.2,,-4.6130e-02,0.68
-1.8448e-03,1.32,1.28,,-4.6120e-02,0.66
-1.8444e-03,1.4,1.2,,-4.6110e-02,0.68
-1.8440e-03,1.36,1.24,,-4.6100e-02,0.66
-1.8436e-03,1.44,1.28,,-4.6090e-02,0.66
-1.8432e-03,1.4,1.32,,-4.6080e-02,0.7
-1.8428e-03,1.4,1.24,,-4.6070e-02,0.68
-1.8424e-03,1.4,1.28,,-4.6060e-02,0.68
-1.8420e-03,1.4,1.28,,-4.6050e-02,0.7
-1.8416e-03,1.4,1.24,,-4.6040e-02,0.66
-1.8412e-03,1.48,1.32,,-4.6030e-02,0.64
-1.8408e-03,1.4,1.28,,-4.6020e-02,0.7
-1.8404e-03,1.44,1.28,,-4.6010e-02,0.66
-1.8400e-03,1.4,1.24,,-4.6000e-02,0.66
-1.8396e-03,1.44,1.24,,-4.5990e-02,0.66
-1.8392e-03,1.44,1.2,,-4.5980e-02,0.66
-1.8388e-03,1.48,1.28,,-4.5970e-02,0.68
-1.8384e-03,1.36,1.36,,-4.5960e-02,0.7
-1.8380e-03,1.4,1.28,,-4.5950e-02,0.66
-1.8376e-03,1.48,1.32,,-4.5940e-02,0.64
-1.8372e-03,1.4,1.28,,-4.5930e-02,0.68
-1.8368e-03,1.36,1.36,,-4.5920e-02,0.7
-1.8364e-03,1.36,1.2,,-4.5910e-02,0.68
-1.8360e-03,1.4,1.28,,-4.5900e-02,0.68
-1.8356e-03,1.36,1.28,,-4.5890e-02,0.7
-1.8352e-03,1.44,1.32,,-4.5880e-02,0.7
-1.8348e-03,1.4,1.28,,-4.5870e-02,0.68
-1.8344e-03,1.4,1.32,,-4.5860e-02,0.7
-1.8340e-03,1.48,1.36,,-4.5850e-02,0.7
-1.8336e-03,1.44,1.28,,-4.5840e-02,0.7
-1.8332e-03,1.4,1.24,,-4.5830e-02,0.7
-1.8328e-03,1.4,1.24,,-4.5820e-02,0.72
-1.8324e-03,1.4,1.28,,-4.5810e-02,0.7
-1.8320e-03,1.4,1.32,,-4.5800e-02,0.7
-1.8316e-03,1.44,1.32,,-4.5790e-02,0.68
-1.8312e-03,1.36,1.32,,-4.5780e-02,0.68
-1.8308e-03,1.36,1.28,,-4.5770e-02,0.68
-1.8304e-03,1.48,1.28,,-4.5760e-02,0.7
-1.8300e-03,1.4,1.28,,-4.5750e-02,0.68
-1.8296e-03,1.44,1.24,,-4.5740e-02,0.68
-1.8292e-03,1.4,1.32,,-4.5730e-02,0.7
-1.8288e-03,1.44,1.32,,-4.5720e-02,0.66
-1.8284e-03,1.36,1.24,,-4.5710e-02,0.66
-1.8280e-03,1.36,1.28,,-4.5700e-02,0.7
-1.8276e-03,1.44,1.32,,-4.5690e-02,0.7
-1.8272e-03,1.44,1.28,,-4.5680e-02,0.66
-1.8268e-03,1.48,1.28,,-4.5670e-02,0.68
-1.8264e-03,1.32,1.28,,-4.5660e-02,0.7
-1.8260e-03,1.4,1.28,,-4.5650e-02,0.7
-1.8256e-03,1.4,1.28,,-4.5640e-02,0.68
-1.8252e-03,1.4,1.28,,-4.5630e-02,0.72
-1.8248e-03,1.48,1.24,,-4.5620e-02,0.68
-1.8244e-03,1.48,1.32,,-4.5610e-02,0.68
-1.8240e-03,1.36,1.32,,-4.5600e-02,0.68
-1.8236e-03,1.44,1.28,,-4.5590e-02,0.7
-1.8232e-03,1.48,1.28,,-4.5580e-02,0.68
-1.8228e-03,1.36,1.28,,-4.5570e-02,0.64
-1.8224e-03,1.4,1.32,,-4.5560e-02,0.66
-1.8220e-03,1.4,1.24,,-4.5550e-02,0.68
-1.8216e-03,1.36,1.28,,-4.5540e-02,0.68
-1.8212e-03,1.4,1.28,,-4.5530e-02,0.66
-1.8208e-03,1.36,1.28,,-4.5520e-02,0.68
-1.8204e-03,1.4,1.28,,-4.5510e-02,0.7
-1.8200e-03,1.48,1.28,,-4.5500e-02,0.68
-1.8196e-03,1.44,1.28,,-4.5490e-02,0.68
-1.8192e-03,1.44,1.32,,-4.5480e-02,0.66
-1.8188e-03,1.4,1.24,,-4.5470e-02,0.68
-1.8184e-03,1.4,1.28,,-4.5460e-02,0.68
-1.8180e-03,1.44,1.24,,-4.5450e-02,0.66
-1.8176e-03,1.48,1.32,,-4.5440e-02,0.7
-1.8172e-03,1.52,1.28,,-4.5430e-02,0.64
-1.8168e-03,1.4,1.28,,-4.5420e-02,0.66
-1.8164e-03,1.48,1.32,,-4.5410e-02,0.68
-1.8160e-03,1.44,1.28,,-4.5400e-02,0.7
-1.8156e-03,1.4,1.36,,-4.5390e-02,0.66
-1.8152e-03,1.4,1.28,,-4.5380e-02,0.66
-1.8148e-03,1.48,1.28,,-4.5370e-02,0.68
-1.8144e-03,1.4,1.28,,-4.5360e-02,0.68
-1.8140e-03,1.48,1.28,,-4.5350e-02,0.68
-1.8136e-03,1.44,1.32,,-4.5340e-02,0.64
-1.8132e-03,1.4,1.28,,-4.5330e-02,0.68
-1.8128e-03,1.4,1.24,,-4.5320e-02,0.68
-1.8124e-03,1.48,1.28,,-4.5310e-02,0.68
-1.8120e-03,1.36,1.36,,-4.5300e-02,0.7
-1.8116e-03,1.36,1.36,,-4.5290e-02,0.72
-1.8112e-03,1.4,1.16,,-4.5280e-02,0.66
-1.8108e-03,1.4,1.32,,-4.5270e-02,0.7
-1.8104e-03,1.36,1.24,,-4.5260e-02,0.68
-1.8100e-03,1.4,1.36,,-4.5250e-02,0.72
-1.8096e-03,1.32,1.28,,-4.5240e-02,0.68
-1.8092e-03,1.32,1.28,,-4.5230e-02,0.7
-1.8088e-03,1.44,1.28,,-4.5220e-02,0.68
-1.8084e-03,1.48,1.28,,-4.5210e-02,0.7
-1.8080e-03,1.4,1.28,,-4.5200e-02,0.68
-1.8076e-03,1.48,1.28,,-4.5190e-02,0.66
-1.8072e-03,1.32,1.32,,-4.5180e-02,0.7
-1.8068e-03,1.4,1.32,,-4.5170e-02,0.7
-1.8064e-03,1.44,1.28,,-4.5160e-02,0.66
-1.8060e-03,1.32,1.24,,-4.5150e-02,0.68
-1.8056e-03,1.48,1.24,,-4.5140e-02,0.66
-1.8052e-03,1.44,1.24,,-4.5130e-02,0.72
-1.8048e-03,1.32,1.32,,-4.5120e-02,0.66
-1.8044e-03,1.36,1.28,,-4.5110e-02,0.68
-1.8040e-03,1.4,1.28,,-4.5100e-02,0.68
-1.8036e-03,1.44,1.32,,-4.5090e-02,0.68
-1.8032e-03,1.44,1.28,,-4.5080e-02,0.68
-1.8028e-03,1.48,1.28,,-4.5070e-02,0.7
-1.8024e-03,1.32,1.32,,-4.5060e-02,0.66
