week3/data/diff2_data/old/1hz/tek0000ALL.csv

Model,DPO3012
Firmware Version,2.16

Point Format,Y,,,Point Format,Y
Horizontal Units,S,,,Horizontal Units,S
Horizontal Scale,0.4,,,Horizontal Scale,0.01
Sample Interval,0.0004,,,Sample Interval,1e-05
Record Length,10000,,,Record Length,10000
Gating,0.0% to 100.0%,0.0% to 100.0%,,Gating,0.0% to 100.0%
Probe Attenuation,1,1,,Probe Attenuation,1
Vertical Units,V,V,,Vertical Units,V
Vertical Offset,0,0,,Vertical Offset,0
Vertical Scale,1,1,,Vertical Scale,0.5
Label,,,,Label,
TIME,CH1,CH2,,TIME,REF1
-2.0000e+00,0.36,0.42,,-5.0000e-02,0.66
-1.9996e+00,0.48,0.46,,-4.9990e-02,0.7
-1.9992e+00,0.48,0.42,,-4.9980e-02,0.68
-1.9988e+00,0.4,0.42,,-4.9970e-02,0.66
-1.9984e+00,0.44,0.46,,-4.9960e-02,0.64
-1.9980e+00,0.4,0.46,,-4.9950e-02,0.7
-1.9976e+00,0.44,0.5,,-4.9940e-02,0.66
-1.9972e+00,0.4,0.46,,-4.9930e-02,0.66
-1.9968e+00,0.44,0.46,,-4.9920e-02,0.66
-1.9964e+00,0.32,0.42,,-4.9910e-02,0.68
-1.9960e+00,0.4,0.42,,-4.9900e-02,0.68
-1.9956e+00,0.4,0.42,,-4.9890e-02,0.68
-1.9952e+00,0.36,0.42,,-4.9880e-02,0.68
-1.9948e+00,0.4,0.42,,-4.9870e-02,0.64
-1.9944e+00,0.48,0.5,,-4.9860e-02,0.66
-1.9940e+00,0.36,0.42,,-4.9850e-02,0.68
-1.9936e+00,0.4,0.42,,-4.9840e-02,0.68
-1.9932e+00,0.4,0.42,,-4.9830e-02,0.68
-1.9928e+00,0.36,0.5,,-4.9820e-02,0.68
-1.9924e+00,0.36,0.42,,-4.9810e-02,0.66
-1.9920e+00,0.4,0.42,,-4.9800e-02,0.66
-1.9916e+00,0.32,0.46,,-4.9790e-02,0.68
-1.9912e+00,0.48,0.42,,-4.9780e-02,0.64
-1.9908e+00,0.32,0.46,,-4.9770e-02,0.64
-1.9904e+00,0.44,0.42,,-4.9760e-02,0.7
-1.9900e+00,0.36,0.42,,-4.9750e-02,0.68
-1.9896e+00,0.36,0.42,,-4.9740e-02,0.72
-1.9892e+00,0.4,0.42,,-4.9730e-02,0.66
-1.9888e+00,0.36,0.46,,-4.9720e-02,0.66
-1.9884e+00,0.32,0.46,,-4.9710e-02,0.7
-1.9880e+00,0.4,0.5,,-4.9700e-02,0.68
-1.9876e+00,0.36,0.46,,-4.9690e-02,0.68
-1.9872e+00,0.36,0.42,,-4.9680e-02,0.7
-1.9868e+00,0.4,0.46,,-4.9670e-02,0.7
-1.9864e+00,0.4,0.46,,-4.9660e-02,0.68
-1.9860e+00,0.36,0.38,,-4.9650e-02,0.7
-1.9856e+00,0.44,0.46,,-4.9640e-02,0.68
-1.9852e+00,0.44,0.54,,-4.9630e-02,0.7
-1.9848e+00,0.4,0.46,,-4.9620e-02,0.68
-1.9844e+00,0.48,0.5,,-4.9610e-02,0.66
-1.9840e+00,0.44,0.5,,-4.9600e-02,0.7
-1.9836e+00,0.32,0.54,,-4.9590e-02,0.68
-1.9832e+00,0.44,0.46,,-4.9580e-02,0.66
-1.9828e+00,0.4,0.42,,-4.9570e-02,0.68
-1.9824e+00,0.36,0.38,,-4.9560e-02,0.68
-1.9820e+00,0.44,0.38,,-4.9550e-02,0.68
-1.9816e+00,0.48,0.54,,-4.9540e-02,0.68
-1.9812e+00,0.4,0.42,,-4.9530e-02,0.68
-1.9808e+00,0.36,0.42,,-4.9520e-02,0.7
-1.9804e+00,0.48,0.42,,-4.9510e-02,0.66
-1.9800e+00,0.36,0.42,,-4.9500e-02,0.66
-1.9796e+00,0.36,0.5,,-4.9490e-02,0.7
-1.9792e+00,0.44,0.42,,-4.9480e-02,0.68
-1.9788e+00,0.4,0.5,,-4.9470e-02,0.66
-1.9784e+00,0.44,0.46,,-4.9460e-02,0.66
-1.9780e+00,0.4,0.42,,-4.9450e-02,0.7
-1.9776e+00,0.44,0.5,,-4.9440e-02,0.68
-1.9772e+00,0.36,0.42,,-4.9430e-02,0.68
-1.9768e+00,0.36,0.5,,-4.9420e-02,0.68
-1.9764e+00,0.36,0.46,,-4.9410e-02,0.68
-1.9760e+00,0.44,0.46,,-4.9400e-02,0.68
-1.9756e+00,0.48,0.46,,-4.9390e-02,0.66
-1.9752e+00,0.36,0.38,,-4.9380e-02,0.68
-1.9748e+00,0.36,0.42,,-4.9370e-02,0.66
-1.9744e+00,0.44,0.46,,-4.9360e-02,0.66
-1.9740e+00,0.44,0.5,,-4.9350e-02,0.64
-1.9736e+00,0.48,0.5,,-4.9340e-02,0.66
-1.9732e+00,0.48,0.46,,-4.9330e-02,0.68
-1.9728e+00,0.44,0.46,,-4.9320e-02,0.7
-1.9724e+00,0.4,0.42,,-4.9310e-02,0.68
-1.9720e+00,0.44,0.42,,-4.9300e-02,0.68
-1.9716e+00,0.44,0.46,,-4.9290e-02,0.7
-1.9712e+00,0.36,0.42,,-4.9280e-02,0.7
-1.9708e+00,0.36,0.42,,-4.9270e-02,0.7
-1.9704e+00,0.44,0.42,,-4.9260e-02,0.72
-1.9700e+00,0.36,0.46,,-4.9250e-02,0.7
-1.9696e+00,0.48,0.5,,-4.9240e-02,0.68
-1.9692e+00,0.44,0.5,,-4.9230e-02,0.7
-1.9688e+00,0.44,0.46,,-4.9220e-02,0.7
-1.9684e+00,0.44,0.46,,-4.9210e-02,0.68
-1.9680e+00,0.4,0.5,,-4.9200e-02,0.68
-1.9676e+00,0.4,0.38,,-4.9190e-02,0.66
-1.9672e+00,0.36,0.46,,-4.9180e-02,0.66
-1.9668e+00,0.4,0.42,,-4.9170e-02,0.66
-1.9664e+00,0.44,0.42,,-4.9160e-02,0.7
-1.9660e+00,0.44,0.46,,-4.9150e-02,0.68
-1.9656e+00,0.4,0.42,,-4.9140e-02,0.68
-1.9652e+00,0.4,0.46,,-4.9130e-02,0.7
-1.9648e+00,0.4,0.5,,-4.9120e-02,0.66
-1.9644e+00,0.44,0.46,,-4.9110e-02,0.66
-1.9640e+00,0.36,0.46,,-4.9100e-02,0.68
-1.9636e+00,0.36,0.42,,-4.9090e-02,0.68
-1.9632e+00,0.36,0.42,,-4.9080e-02,0.68
-1.9628e+00,0.48,0.42,,-4.9070e-02,0.66
-1.9624e+00,0.4,0.46,,-4.9060e-02,0.7
-1.9620e+00,0.44,0.5,,-4.9050e-02,0.68
-1.9616e+00,0.36,0.46,,-4.9040e-02,0.68
-1.9612e+00,0.4,0.46,,-4.9030e-02,0.66
-1.9608e+00,0.48,0.5,,-4.9020e-02,0.66
-1.9604e+00,0.36,0.38,,-4.9010e-02,0.68
-1.9600e+00,0.44,0.54,,-4.9000e-02,0.66
-1.9596e+00,0.36,0.42,,-4.8990e-02,0.68
-1.9592e+00,0.44,0.46,,-4.8980e-02,0.7
-1.9588e+00,0.48,0.42,,-4.8970e-02,0.68
-1.9584e+00,0.48,0.5,,-4.8960e-02,0.66
-1.9580e+00,0.4,0.46,,-4.8950e-02,0.68
-1.9576e+00,0.4,0.42,,-4.8940e-02,0.68
-1.9572e+00,0.4,0.54,,-4.8930e-02,0.68
-1.9568e+00,0.44,0.38,,-4.8920e-02,0.7
-1.9564e+00,0.44,0.38,,-4.8910e-02,0.64
-1.9560e+00,0.4,0.46,,-4.8900e-02,0.7
-1.9556e+00,0.36,0.5,,-4.8890e-02,0.66
-1.9552e+00,0.44,0.46,,-4.8880e-02,0.7
-1.9548e+00,0.44,0.42,,-4.8870e-02,0.68
-1.9544e+00,0.48,0.54,,-4.8860e-02,0.7
-1.9540e+00,0.44,0.42,,-4.8850e-02,0.66
-1.9536e+00,0.44,0.46,,-4.8840e-02,0.66
-1.9532e+00,0.44,0.5,,-4.8830e-02,0.68
-1.9528e+00,0.4,0.42,,-4.8820e-02,0.7
-1.9524e+00,0.4,0.42,,-4.8810e-02,0.64
-1.9520e+00,0.4,0.5,,-4.8800e-02,0.68
-1.9516e+00,0.52,0.42,,-4.8790e-02,0.66
-1.9512e+00,0.4,0.5,,-4.8780e-02,0.68
-1.9508e+00,0.44,0.42,,-4.8770e-02,0.7
-1.9504e+00,0.36,0.5,,-4.8760e-02,0.66
-1.9500e+00,0.44,0.42,,-4.8750e-02,0.7
-1.9496e+00,0.4,0.5,,-4.8740e-02,0.7
-1.9492e+00,0.4,0.46,,-4.8730e-02,0.66
-1.9488e+00,0.4,0.5,,-4.8720e-02,0.64
-1.9484e+00,0.36,0.42,,-4.8710e-02,0.68
-1.9480e+00,0.4,0.5,,-4.8700e-02,0.66
-1.9476e+00,0.4,0.42,,-4.8690e-02,0.68
-1.9472e+00,0.4,0.46,,-4.8680e-02,0.68
-1.9468e+00,0.44,0.46,,-4.8670e-02,0.68
-1.9464e+00,0.4,0.46,,-4.8660e-02,0.7
-1.9460e+00,0.52,0.38,,-4.8650e-02,0.68
-1.9456e+00,0.36,0.42,,-4.8640e-02,0.7
-1.9452e+00,0.44,0.5,,-4.8630e-02,0.7
-1.9448e+00,0.4,0.5,,-4.8620e-02,0.66
-1.9444e+00,0.36,0.42,,-4.8610e-02,0.72
-1.9440e+00,0.36,0.46,,-4.8600e-02,0.68
-1.9436e+00,0.36,0.46,,-4.8590e-02,0.68
-1.9432e+00,0.4,0.46,,-4.8580e-02,0.66
-1.9428e+00,0.36,0.42,,-4.8570e-02,0.68
-1.9424e+00,0.4,0.42,,-4.8560e-02,0.68
-1.9420e+00,0.48,0.46,,-4.8550e-02,0.68
-1.9416e+00,0.4,0.42,,-4.8540e-02,0.7
-1.9412e+00,0.4,0.42,,-4.8530e-02,0.7
-1.9408e+00,0.36,0.42,,-4.8520e-02,0.68
-1.9404e+00,0.4,0.38,,-4.8510e-02,0.66
-1.9400e+00,0.4,0.42,,-4.8500e-02,0.72
-1.9396e+00,0.44,0.42,,-4.8490e-02,0.7
-1.9392e+00,0.44,0.46,,-4.8480e-02,0.66
-1.9388e+00,0.44,0.38,,-4.8470e-02,0.68
-1.9384e+00,0.48,0.46,,-4.8460e-02,0.68
-1.9380e+00,0.32,0.46,,-4.8450e-02,0.7
-1.9376e+00,0.4,0.46,,-4.8440e-02,0.66
-1.9372e+00,0.48,0.42,,-4.8430e-02,0.66
-1.9368e+00,0.4,0.42,,-4.8420e-02,0.7
-1.9364e+00,0.44,0.46,,-4.8410e-02,0.7
-1.9360e+00,0.4,0.42,,-4.8400e-02,0.66
-1.9356e+00,0.4,0.42,,-4.8390e-02,0.68
-1.9352e+00,0.36,0.42,,-4.8380e-02,0.66
-1.9348e+00,0.4,0.46,,-4.8370e-02,0.68
-1.9344e+00,0.44,0.42,,-4.8360e-02,0.66
-1.9340e+00,0.36,0.46,,-4.8350e-02,0.68
-1.9336e+00,0.44,0.42,,-4.8340e-02,0.7
-1.9332e+00,0.4,0.46,,-4.8330e-02,0.68
-1.9328e+00,0.44,0.54,,-4.8320e-02,0.7
-1.9324e+00,0.4,0.46,,-4.8310e-02,0.7
-1.9320e+00,0.44,0.42,,-4.8300e-02,0.7
-1.9316e+00,0.44,0.42,,-4.8290e-02,0.68
-1.9312e+00,0.44,0.46,,-4.8280e-02,0.7
-1.9308e+00,0.48,0.46,,-4.8270e-02,0.7
-1.9304e+00,0.44,0.46,,-4.8260e-02,0.68
-1.9300e+00,0.36,0.42,,-4.8250e-02,0.72
-1.9296e+00,0.44,0.46,,-4.8240e-02,0.64
-1.9292e+00,0.36,0.38,,-4.8230e-02,0.64
-1.9288e+00,0.36,0.46,,-4.8220e-02,0.68
-1.9284e+00,0.36,0.42,,-4.8210e-02,0.64
-1.9280e+00,0.4,0.54,,-4.8200e-02,0.7
-1.9276e+00,0.4,0.42,,-4.8190e-02,0.68
-1.9272e+00,0.36,0.46,,-4.8180e-02,0.68
-1.9268e+00,0.4,0.42,,-4.8170e-02,0.66
-1.9264e+00,0.32,0.42,,-4.8160e-02,0.68
-1.9260e+00,0.32,0.42,,-4.8150e-02,0.7
-1.9256e+00,0.52,0.46,,-4.8140e-02,0.68
-1.9252e+00,0.36,0.42,,-4.8130e-02,0.7
-1.9248e+00,0.32,0.54,,-4.8120e-02,0.68
-1.9244e+00,0.36,0.5,,-4.8110e-02,0.7
-1.9240e+00,0.44,0.5,,-4.8100e-02,0.68
-1.9236e+00,0.48,0.54,,-4.8090e-02,0.68
-1.9232e+00,0.4,0.42,,-4.8080e-02,0.68
-1.9228e+00,0.4,0.46,,-4.8070e-02,0.7
-1.9224e+00,0.48,0.5,,-4.8060e-02,0.66
-1.9220e+00,0.44,0.46,,-4.8050e-02,0.68
-1.9216e+00,0.44,0.46,,-4.8040e-02,0.66
-1.9212e+00,0.36,0.42,,-4.8030e-02,0.7
-1.9208e+00,0.4,0.46,,-4.8020e-02,0.7
-1.9204e+00,0.36,0.46,,-4.8010e-02,0.66
-1.9200e+00,0.44,0.5,,-4.8000e-02,0.7
-1.9196e+00,0.4,0.5,,-4.7990e-02,0.68
-1.9192e+00,0.4,0.38,,-4.7980e-02,0.66
-1.9188e+00,0.4,0.42,,-4.7970e-02,0.66
-1.9184e+00,0.4,0.46,,-4.7960e-02,0.68
-1.9180e+00,0.44,0.5,,-4.7950e-02,0.68
-1.9176e+00,0.4,0.42,,-4.7940e-02,0.7
-1.9172e+00,0.36,0.5,,-4.7930e-02,0.66
-1.9168e+00,0.4,0.46,,-4.7920e-02,0.68
-1.9164e+00,0.44,0.42,,-4.7910e-02,0.66
-1.9160e+00,0.44,0.42,,-4.7900e-02,0.68
-1.9156e+00,0.36,0.42,,-4.7890e-02,0.7
-1.9152e+00,0.44,0.42,,-4.7880e-02,0.68
-1.9148e+00,0.44,0.5,,-4.7870e-02,0.66
-1.9144e+00,0.44,0.46,,-4.7860e-02,0.68
-1.9140e+00,0.4,0.54,,-4.7850e-02,0.7
-1.9136e+00,0.44,0.5,,-4.7840e-02,0.66
-1.9132e+00,0.44,0.46,,-4.7830e-02,0.68
-1.9128e+00,0.36,0.62,,-4.7820e-02,0.68
-1.9124e+00,0.36,0.38,,-4.7810e-02,0.7
-1.9120e+00,0.44,0.5,,-4.7800e-02,0.7
-1.9116e+00,0.36,0.46,,-4.7790e-02,0.68
-1.9112e+00,0.36,0.46,,-4.7780e-02,0.72
-1.9108e+00,0.4,0.5,,-4.7770e-02,0.7
-1.9104e+00,0.36,0.42,,-4.7760e-02,0.7
-1.9100e+00,0.4,0.42,,-4.7750e-02,0.7
-1.9096e+00,0.4,0.5,,-4.7740e-02,0.68
-1.9092e+00,0.36,0.42,,-4.7730e-02,0.7
-1.9088e+00,0.44,0.46,,-4.7720e-02,0.68
-1.9084e+00,0.36,0.42,,-4.7710e-02,0.66
-1.9080e+00,0.36,0.5,,-4.7700e-02,0.66
-1.9076e+00,0.4,0.42,,-4.7690e-02,0.68
-1.9072e+00,0.36,0.42,,-4.7680e-02,0.66
-1.9068e+00,0.36,0.46,,-4.7670e-02,0.7
-1.9064e+00,0.36,0.54,,-4.7660e-02,0.68
-1.9060e+00,0.36,0.5,,-4.7650e-02,0.66
-1.9056e+00,0.32,0.42,,-4.7640e-02,0.68
-1.9052e+00,0.44,0.38,,-4.7630e-02,0.72
-1.9048e+00,0.4,0.46,,-4.7620e-02,0.68
-1.9044e+00,0.36,0.42,,-4.7610e-02,0.72
-1.9040e+00,0.44,0.42,,-4.7600e-02,0.68
-1.9036e+00,0.36,0.5,,-4.7590e-02,0.66
-1.9032e+00,0.36,0.5,,-4.7580e-02,0.64
-1.9028e+00,0.36,0.34,,-4.7570e-02,0.68
-1.9024e+00,0.36,0.42,,-4.7560e-02,0.68
-1.9020e+00,0.4,0.46,,-4.7550e-02,0.7
-1.9016e+00,0.36,0.5,,-4.7540e-02,0.66
-1.9012e+00,0.4,0.5,,-4.7530e-02,0.7
-1.9008e+00,0.44,0.42,,-4.7520e-02,0.68
-1.9004e+00,0.44,0.46,,-4.7510e-02,0.7
-1.9000e+00,0.4,0.46,,-4.7500e-02,0.7
-1.8996e+00,0.36,0.5,,-4.7490e-02,0.66
-1.8992e+00,0.36,0.42,,-4.7480e-02,0.66
-1.8988e+00,0.4,0.5,,-4.7470e-02,0.66
-1.8984e+00,0.44,0.42,,-4.7460e-02,0.66
-1.8980e+00,0.36,0.42,,-4.7450e-02,0.7
-1.8976e+00,0.36,0.42,,-4.7440e-02,0.64
-1.8972e+00,0.4,0.46,,-4.7430e-02,0.68
-1.8968e+00,0.36,0.42,,-4.7420e-02,0.7
-1.8964e+00,0.4,0.46,,-4.7410e-02,0.66
-1.8960e+00,0.4,0.42,,-4.7400e-02,0.68
-1.8956e+00,0.4,0.46,,-4.7390e-02,0.66
-1.8952e+00,0.4,0.46,,-4.7380e-02,0.64
-1.8948e+00,0.36,0.46,,-4.7370e-02,0.68
-1.8944e+00,0.44,0.46,,-4.7360e-02,0.68
-1.8940e+00,0.32,0.38,,-4.7350e-02,0.66
-1.8936e+00,0.4,0.5,,-4.7340e-02,0.7
-1.8932e+00,0.44,0.46,,-4.7330e-02,0.64
-1.8928e+00,0.44,0.46,,-4.7320e-02,0.7
-1.8924e+00,0.44,0.46,,-4.7310e-02,0.66
-1.8920e+00,0.4,0.46,,-4.7300e-02,0.66
-1.8916e+00,0.44,0.42,,-4.7290e-02,0.64
-1.8912e+00,0.4,0.42,,-4.7280e-02,0.7
-1.8908e+00,0.44,0.5,,-4.7270e-02,0.66
-1.8904e+00,0.48,0.5,,-4.7260e-02,0.68
-1.8900e+00,0.44,0.5,,-4.7250e-02,0.68
-1.8896e+00,0.48,0.42,,-4.7240e-02,0.68
-1.8892e+00,0.36,0.38,,-4.7230e-02,0.68
-1.8888e+00,0.48,0.5,,-4.7220e-02,0.68
-1.8884e+00,0.36,0.46,,-4.7210e-02,0.66
-1.8880e+00,0.44,0.46,,-4.7200e-02,0.66
-1.8876e+00,0.32,0.42,,-4.7190e-02,0.68
-1.8872e+00,0.36,0.42,,-4.7180e-02,0.7
-1.8868e+00,0.32,0.46,,-4.7170e-02,0.7
-1.8864e+00,0.44,0.42,,-4.7160e-02,0.7
-1.8860e+00,0.44,0.46,,-4.7150e-02,0.68
-1.8856e+00,0.48,0.5,,-4.7140e-02,0.68
-1.8852e+00,0.48,0.46,,-4.7130e-02,0.68
-1.8848e+00,0.4,0.5,,-4.7120e-02,0.7
-1.8844e+00,0.4,0.5,,-4.7110e-02,0.64
-1.8840e+00,0.4,0.38,,-4.7100e-02,0.68
-1.8836e+00,0.4,0.46,,-4.7090e-02,0.66
-1.8832e+00,0.36,0.42,,-4.7080e-02,0.66
-1.8828e+00,0.36,0.54,,-4.7070e-02,0.68
-1.8824e+00,0.44,0.42,,-4.7060e-02,0.7
-1.8820e+00,0.4,0.5,,-4.7050e-02,0.7
-1.8816e+00,0.48,0.38,,-4.7040e-02,0.64
-1.8812e+00,0.36,0.46,,-4.7030e-02,0.72
-1.8808e+00,0.36,0.42,,-4.7020e-02,0.7
-1.8804e+00,0.44,0.42,,-4.7010e-02,0.68
-1.8800e+00,0.4,0.46,,-4.7000e-02,0.7
-1.8796e+00,0.44,0.38,,-4.6990e-02,0.7
-1.8792e+00,0.4,0.46,,-4.6980e-02,0.7
-1.8788e+00,0.4,0.42,,-4.6970e-02,0.68
-1.8784e+00,0.36,0.42,,-4.6960e-02,0.68
-1.8780e+00,0.48,0.42,,-4.6950e-02,0.68
-1.8776e+00,0.44,0.46,,-4.6940e-02,0.7
-1.8772e+00,0.44,0.46,,-4.6930e-02,0.7
-1.8768e+00,0.36,0.42,,-4.6920e-02,0.68
-1.8764e+00,0.4,0.46,,-4.6910e-02,0.7
-1.8760e+00,0.44,0.38,,-4.6900e-02,0.66
-1.8756e+00,0.36,0.42,,-4.6890e-02,0.66
-1.8752e+00,0.44,0.5,,-4.6880e-02,0.7
-1.8748e+00,0.48,0.5,,-4.6870e-02,0.66
-1.8744e+00,0.4,0.46,,-4.6860e-02,0.66
-1.8740e+00,0.44,0.46,,-4.6850e-02,0.68
-1.8736e+00,0.36,0.38,,-4.6840e-02,0.64
-1.8732e+00,0.4,0.42,,-4.6830e-02,0.66
-1.8728e+00,0.36,0.42,,-4.6820e-02,0.68
-1.8724e+00,0.4,0.42,,-4.6810e-02,0.68
-1.8720e+00,0.4,0.46,,-4.6800e-02,0.68
-1.8716e+00,0.36,0.38,,-4.6790e-02,0.68
-1.8712e+00,0.4,0.42,,-4.6780e-02,0.7
-1.8708e+00,0.36,0.5,,-4.6770e-02,0.68
-1.8704e+00,0.36,0.42,,-4.6760e-02,0.66
-1.8700e+00,0.44,0.46,,-4.6750e-02,0.66
-1.8696e+00,0.4,0.42,,-4.6740e-02,0.66
-1.8692e+00,0.36,0.42,,-4.6730e-02,0.7
-1.8688e+00,0.36,0.46,,-4.6720e-02,0.66
-1.8684e+00,0.44,0.46,,-4.6710e-02,0.66
-1.8680e+00,0.44,0.5,,-4.6700e-02,0.7
-1.8676e+00,0.36,0.46,,-4.6690e-02,0.7
-1.8672e+00,0.48,0.46,,-4.6680e-02,0.7
-1.8668e+00,0.44,0.42,,-4.6670e-02,0.68
-1.8664e+00,0.44,0.38,,-4.6660e-02,0.66
-1.8660e+00,0.4,0.46,,-4.6650e-02,0.68
-1.8656e+00,0.36,0.42,,-4.6640e-02,0.68
-1.8652e+00,0.4,0.5,,-4.6630e-02,0.68
-1.8648e+00,0.4,0.42,,-4.6620e-02,0.72
-1.8644e+00,0.48,0.46,,-4.6610e-02,0.68
-1.8640e+00,0.36,0.42,,-4.6600e-02,0.66
-1.8636e+00,0.4,0.46,,-4.6590e-02,0.68
-1.8632e+00,0.44,0.46,,-4.6580e-02,0.68
-1.8628e+00,0.36,0.5,,-4.6570e-02,0.68
-1.8624e+00,0.36,0.5,,-4.6560e-02,0.66
-1.8620e+00,0.44,0.38,,-4.6550e-02,0.66
-1.8616e+00,0.4,0.42,,-4.6540e-02,0.7
-1.8612e+00,0.32,0.38,,-4.6530e-02,0.66
-1.8608e+00,0.44,0.5,,-4.6520e-02,0.68
-1.8604e+00,0.44,0.46,,-4.6510e-02,0.7
-1.8600e+00,0.28,0.5,,-4.6500e-02,0.68
-1.8596e+00,0.44,0.42,,-4.6490e-02,0.68
-1.8592e+00,0.4,0.38,,-4.6480e-02,0.7
-1.8588e+00,0.4,0.38,,-4.6470e-02,0.64
-1.8584e+00,0.48,0.42,,-4.6460e-02,0.68
-1.8580e+00,0.32,0.5,,-4.6450e-02,0.64
-1.8576e+00,0.32,0.38,,-4.6440e-02,0.7
-1.8572e+00,0.36,0.42,,-4.6430e-02,0.68
-1.8568e+00,0.4,0.42,,-4.6420e-02,0.7
-1.8564e+00,0.52,0.5,,-4.6410e-02,0.66
-1.8560e+00,0.44,0.42,,-4.6400e-02,0.66
-1.8556e+00,0.4,0.46,,-4.6390e-02,0.7
-1.8552e+00,0.48,0.38,,-4.6380e-02,0.66
-1.8548e+00,0.44,0.42,,-4.6370e-02,0.66
-1.8544e+00,0.4,0.42,,-4.6360e-02,0.66
-1.8540e+00,0.44,0.42,,-4.6350e-02,0.66
-1.8536e+00,0.36,0.46,,-4.6340e-02,0.7
-1.8532e+00,0.4,0.42,,-4.6330e-02,0.68
-1.8528e+00,0.36,0.38,,-4.6320e-02,0.68
-1.8524e+00,0.4,0.5,,-4.6310e-02,0.68
-1.8520e+00,0.44,0.42,,-4.6300e-02,0.68
-1.8516e+00,0.4,0.46,,-4.6290e-02,0.66
-1.8512e+00,0.36,0.42,,-4.6280e-02,0.68
-1.8508e+00,0.4,0.42,,-4.6270e-02,0.68
-1.8504e+00,0.44,0.5,,-4.6260e-02,0.72
-1.8500e+00,0.44,0.46,,-4.6250e-02,0.72
-1.8496e+00,0.4,0.42,,-4.6240e-02,0.68
-1.8492e+00,0.44,0.5,,-4.6230e-02,0.68
-1.8488e+00,0.4,0.42,,-4.6220e-02,0.68
-1.8484e+00,0.44,0.42,,-4.6210e-02,0.68
-1.8480e+00,0.44,0.46,,-4.6200e-02,0.68
-1.8476e+00,0.32,0.42,,-4.6190e-02,0.7
-1.8472e+00,0.36,0.46,,-4.6180e-02,0.66
-1.8468e+00,0.44,0.42,,-4.6170e-02,0.7
-1.8464e+00,0.36,0.42,,-4.6160e-02,0.64
-1.8460e+00,0.4,0.46,,-4.6150e-02,0.7
-1.8456e+00,0.44,0.46,,-4.6140e-02,0.64
-1.8452e+00,0.36,0.42,,-4.6130e-02,0.68
-1.8448e+00,0.4,0.42,,-4.6120e-02,0.66
-1.8444e+00,0.4,0.42,,-4.6110e-02,0.68
-1.8440e+00,0.4,0.46,,-4.6100e-02,0.66
-1.8436e+00,0.44,0.5,,-4.6090e-02,0.66
-1.8432e+00,0.44,0.42,,-4.6080e-02,0.7
-1.8428e+00,0.4,0.42,,-4.6070e-02,0.68
-1.8424e+00,0.4,0.42,,-4.6060e-02,0.68
-1.8420e+00,0.48,0.42,,-4.6050e-02,0.7
-1.8416e+00,0.48,0.46,,-4.6040e-02,0.66
-1.8412e+00,0.36,0.42,,-4.6030e-02,0.64
-1.8408e+00,0.4,0.5,,-4.6020e-02,0.7
-1.8404e+00,0.44,0.46,,-4.6010e-02,0.66
-1.8400e+00,0.44,0.5,,-4.6000e-02,0.66
-1.8396e+00,0.36,0.38,,-4.5990e-02,0.66
-1.8392e+00,0.4,0.46,,-4.5980e-02,0.66
-1.8388e+00,0.36,0.46,,-4.5970e-02,0.68
-1.8384e+00,0.44,0.42,,-4.5960e-02,0.7
-1.8380e+00,0.44,0.42,,-4.5950e-02,0.66
-1.8376e+00,0.4,0.46,,-4.5940e-02,0.64
-1.8372e+00,0.36,0.42,,-4.5930e-02,0.68
-1.8368e+00,0.48,0.42,,-4.5920e-02,0.7
-1.8364e+00,0.36,0.42,,-4.5910e-02,0.68
-1.8360e+00,0.44,0.42,,-4.5900e-02,0.68
-1.8356e+00,0.44,0.5,,-4.5890e-02,0.7
-1.8352e+00,0.44,0.42,,-4.5880e-02,0.7
-1.8348e+00,0.4,0.38,,-4.5870e-02,0.68
-1.8344e+00,0.4,0.5,,-4.5860e-02,0.7
-1.8340e+00,0.4,0.5,,-4.5850e-02,0.7
-1.8336e+00,0.44,0.42,,-4.5840e-02,0.7
-1.8332e+00,0.44,0.42,,-4.5830e-02,0.7
-1.8328e+00,0.4,0.5,,-4.5820e-02,0.72
-1.8324e+00,0.52,0.5,,-4.5810e-02,0.7
-1.8320e+00,0.36,0.42,,-4.5800e-02,0.7
-1.8316e+00,0.32,0.46,,-4.5790e-02,0.68
-1.8312e+00,0.44,0.5,,-4.5780e-02,0.68
-1.8308e+00,0.44,0.5,,-4.5770e-02,0.68
-1.8304e+00,0.44,0.46,,-4.5760e-02,0.7
-1.8300e+00,0.36,0.42,,-4.5750e-02,0.68
-1.8296e+00,0.36,0.42,,-4.5740e-02,0.68
-1.8292e+00,0.4,0.5,,-4.5730e-02,0.7
-1.8288e+00,0.44,0.46,,-4.5720e-02,0.66
-1.8284e+00,0.36,0.42,,-4.5710e-02,0.66
-1.8280e+00,0.36,0.46,,-4.5700e-02,0.7
-1.8276e+00,0.44,0.46,,-4.5690e-02,0.7
-1.8272e+00,0.48,0.42,,-4.5680e-02,0.66
-1.8268e+00,0.44,0.5,,-4.5670e-02,0.68
-1.8264e+00,0.4,0.5,,-4.5660e-02,0.7
-1.8260e+00,0.4,0.46,,-4.5650e-02,0.7
-1.8256e+00,0.36,0.42,,-4.5640e-02,0.68
-1.8252e+00,0.44,0.5,,-4.5630e-02,0.72
-1.8248e+00,0.44,0.54,,-4.5620e-02,0.68
-1.8244e+00,0.44,0.42,,-4.5610e-02,0.68
-1.8240e+00,0.4,0.46,,-4.5600e-02,0.68
-1.8236e+00,0.4,0.42,,-4.5590e-02,0.7
-1.8232e+00,0.48,0.38,,-4.5580e-02,0.68
-1.8228e+00,0.36,0.42,,-4.5570e-02,0.64
-1.8224e+00,0.32,0.38,,-4.5560e-02,0.66
-1.8220e+00,0.44,0.42,,-4.5550e-02,0.68
-1.8216e+00,0.4,0.46,,-4.5540e-02,0.68
-1.8212e+00,0.36,0.42,,-4.5530e-02,0.66
-1.8208e+00,0.36,0.46,,-4.5520e-02,0.68
-1.8204e+00,0.44,0.42,,-4.5510e-02,0.7
-1.8200e+00,0.4,0.54,,-4.5500e-02,0.68
-1.8196e+00,0.44,0.34,,-4.5490e-02,0.68
-1.8192e+00,0.44,0.42,,-4.5480e-02,0.66
-1.8188e+00,0.44,0.5,,-4.5470e-02,0.68
-1.8184e+00,0.44,0.42,,-4.5460e-02,0.68
-1.8180e+00,0.48,0.5,,-4.5450e-02,0.66
-1.8176e+00,0.48,0.38,,-4.5440e-02,0.7
-1.8172e+00,0.48,0.38,,-4.5430e-02,0.64
-1.8168e+00,0.4,0.46,,-4.5420e-02,0.66
-1.8164e+00,0.4,0.42,,-4.5410e-02,0.68
-1.8160e+00,0.4,0.42,,-4.5400e-02,0.7
-1.8156e+00,0.44,0.42,,-4.5390e-02,0.66
-1.8152e+00,0.4,0.42,,-4.5380e-02,0.66
-1.8148e+00,0.4,0.46,,-4.5370e-02,0.68
-1.8144e+00,0.36,0.46,,-4.5360e-02,0.68
-1.8140e+00,0.48,0.46,,-4.5350e-02,0.68
-1.8136e+00,0.48,0.38,,-4.5340e-02,0.64
-1.8132e+00,0.4,0.54,,-4.5330e-02,0.68
-1.8128e+00,0.36,0.42,,-4.5320e-02,0.68
-1.8124e+00,0.44,0.5,,-4.5310e-02,0.68
-1.8120e+00,0.48,0.46,,-4.5300e-02,0.7
-1.8116e+00,0.48,0.46,,-4.5290e-02,0.72
-1.8112e+00,0.4,0.38,,-4.5280e-02,0.66
-1.8108e+00,0.4,0.46,,-4.5270e-02,0.7
-1.8104e+00,0.44,0.5,,-4.5260e-02,0.68
-1.8100e+00,0.4,0.46,,-4.5250e-02,0.72
-1.8096e+00,0.4,0.46,,-4.5240e-02,0.68
-1.8092e+00,0.4,0.46,,-4.5230e-02,0.7
-1.8088e+00,0.44,0.34,,-4.5220e-02,0.68
-1.8084e+00,0.4,0.42,,-4.5210e-02,0.7
-1.8080e+00,0.48,0.46,,-4.5200e-02,0.68
-1.8076e+00,0.4,0.54,,-4.5190e-02,0.66
-1.8072e+00,0.4,0.42,,-4.5180e-02,0.7
-1.8068e+00,0.44,0.46,,-4.5170e-02,0.7
-1.8064e+00,0.44,0.5,,-4.5160e-02,0.66
-1.8060e+00,0.36,0.3,,-4.5150e-02,0.68
-1.8056e+00,0.44,0.46,,-4.5140e-02,0.66
-1.8052e+00,0.36,0.42,,-4.5130e-02,0.72
-1.8048e+00,0.48,0.42,,-4.5120e-02,0.66
-1.8044e+00,0.36,0.46,,-4.5110e-02,0.68
-1.8040e+00,0.4,0.38,,-4.5100e-02,0.68
-1.8036e+00,0.48,0.5,,-4.5090e-02,0.68
-1.8032e+00,0.44,0.5,,-4.5080e-02,0.68
-1.8028e+00,0.36,0.46,,-4.5070e-02,0.7
-1.8024e+00,0.36,0.46,,-4.5060e-02,0.66
-1.8020e+00,0.4,0.46,,-4.5050e-02,0.68
